SS.vcd
$date
	Sun Sep 14 00:43:53 2025
$end
$version
	Icarus Verilog
$end
$timescale
	1s
$end
$scope module Multi_Stage_tb $end
$scope module Memory_Top $end
$var wire 1 ! clk $end
$var wire 1 " rst $end
$var wire 32 # CPU_IMEM_instruction [31:0] $end
$var wire 64 $ CPU_IMEM_address [63:0] $end
$var wire 64 % CPU_DMEM_address [63:0] $end
$var wire 64 & CPU_DMEM_WriteData [63:0] $end
$var wire 64 ' CPU_DMEM_ReadData [63:0] $end
$var wire 1 ( CPU_DMEM_MemWrite $end
$var wire 1 ) CPU_DMEM_MemRead $end
$scope module CPU_Top $end
$var wire 1 ( DMEM_MemWrite $end
$var wire 64 * DMEM_READ_DATA [63:0] $end
$var wire 64 + DMEM_address [63:0] $end
$var wire 1 , Flush $end
$var wire 64 - IMEM_address [63:0] $end
$var wire 32 . INSTRUCTION_BUS [31:0] $end
$var wire 1 ! clk $end
$var wire 1 " rst $end
$var wire 1 / stall $end
$var wire 64 0 WRITE_DATA [63:0] $end
$var wire 1 1 SUB $end
$var wire 1 2 RegWrite $end
$var wire 64 3 READ_DATA2 [63:0] $end
$var wire 64 4 READ_DATA1 [63:0] $end
$var wire 64 5 PC_NEXT_REG [63:0] $end
$var wire 64 6 PC_NEXT_IMM [63:0] $end
$var wire 64 7 PC_NEXT [63:0] $end
$var wire 64 8 PC_CURR [63:0] $end
$var wire 1 9 MemtoReg $end
$var wire 1 : MemWrite $end
$var wire 1 ; MemRead $end
$var wire 2 < Imm_Src [1:0] $end
$var wire 64 = IMM_OUT [63:0] $end
$var wire 32 > IMEM_instruction [31:0] $end
$var wire 64 ? ID_EX_READ_DATA2_IMM [63:0] $end
$var wire 1 @ Forward_C $end
$var wire 2 A Forward_B [1:0] $end
$var wire 2 B Forward_A [1:0] $end
$var wire 64 C DMEM_WriteData [63:0] $end
$var wire 64 D DMEM_ReadData [63:0] $end
$var wire 1 ) DMEM_MemRead $end
$var wire 1 E Branch $end
$var wire 1 F ALU_ZERO $end
$var wire 64 G ALU_OUT [63:0] $end
$var wire 1 H ALU_CARRY $end
$var wire 64 I ALU_B [63:0] $end
$var wire 64 J ALU_A [63:0] $end
$var wire 1 K ALUSrc $end
$var wire 3 L ALUOp [2:0] $end
$var wire 3 M ALUCONTROL [2:0] $end
$var reg 64 N EX_MEM_ALU_OUT [63:0] $end
$var reg 1 O EX_MEM_Branch $end
$var reg 5 P EX_MEM_INSTRUCTION_11_7 [4:0] $end
$var reg 5 Q EX_MEM_INSTRUCTION_24_20 [4:0] $end
$var reg 4 R EX_MEM_INSTRUCTION_30_14_12 [3:0] $end
$var reg 1 ) EX_MEM_MemRead $end
$var reg 1 S EX_MEM_MemWrite $end
$var reg 1 T EX_MEM_MemtoReg $end
$var reg 7 U EX_MEM_OPCODE [6:0] $end
$var reg 64 V EX_MEM_PC_NEXT_IMM [63:0] $end
$var reg 64 W EX_MEM_READ_DATA_2 [63:0] $end
$var reg 1 X EX_MEM_RegWrite $end
$var reg 1 Y EX_MEM_zero $end
$var reg 3 Z ID_EX_ALUOp [2:0] $end
$var reg 1 [ ID_EX_ALUSrc $end
$var reg 1 \ ID_EX_Branch $end
$var reg 64 ] ID_EX_IMM_OUT [63:0] $end
$var reg 5 ^ ID_EX_INSTRUCTION_11_7 [4:0] $end
$var reg 5 _ ID_EX_INSTRUCTION_19_15 [4:0] $end
$var reg 5 ` ID_EX_INSTRUCTION_24_20 [4:0] $end
$var reg 4 a ID_EX_INSTRUCTION_30_14_12 [3:0] $end
$var reg 7 b ID_EX_INSTRUCTION_OPCODE [6:0] $end
$var reg 1 c ID_EX_MemRead $end
$var reg 1 d ID_EX_MemWrite $end
$var reg 1 e ID_EX_MemtoReg $end
$var reg 64 f ID_EX_PC_CURR [63:0] $end
$var reg 64 g ID_EX_READ_DATA1 [63:0] $end
$var reg 64 h ID_EX_READ_DATA2 [63:0] $end
$var reg 1 i ID_EX_RegWrite $end
$var reg 32 j IF_ID_INSTRUCTION_BUS [31:0] $end
$var reg 64 k IF_ID_PC_CURR [63:0] $end
$var reg 64 l MEM_WB_ALU_OUT [63:0] $end
$var reg 64 m MEM_WB_DMEM_READ_DATA [63:0] $end
$var reg 5 n MEM_WB_INSTRUCTION_11_7 [4:0] $end
$var reg 1 o MEM_WB_MemRead $end
$var reg 1 p MEM_WB_MemtoReg $end
$var reg 1 q MEM_WB_RegWrite $end
$scope module ALU $end
$var wire 64 r A_and_B [63:0] $end
$var wire 64 s A_xor_B [63:0] $end
$var wire 64 t B_comp [63:0] $end
$var wire 64 u sum [63:0] $end
$var wire 1 F zero $end
$var wire 1 1 sub $end
$var wire 1 H Carry_out $end
$var wire 64 v Carry_intermediate [63:0] $end
$var wire 64 w B [63:0] $end
$var wire 64 x A_xor_B_and_cin [63:0] $end
$var wire 3 y ALU_Sel [2:0] $end
$var wire 64 z A [63:0] $end
$var reg 64 { ALU_Out [63:0] $end
$upscope $end
$scope module ALU_Mux_A $end
$var wire 64 | a [63:0] $end
$var wire 64 } c [63:0] $end
$var wire 64 ~ d [63:0] $end
$var wire 64 !" y [63:0] $end
$var wire 2 "" s [1:0] $end
$var wire 64 #" b [63:0] $end
$upscope $end
$scope module ALU_Mux_B $end
$var wire 64 $" c [63:0] $end
$var wire 64 %" d [63:0] $end
$var wire 64 &" y [63:0] $end
$var wire 2 '" s [1:0] $end
$var wire 64 (" b [63:0] $end
$var wire 64 )" a [63:0] $end
$upscope $end
$scope module DMEM_WriteData_Mux $end
$var wire 64 *" a [63:0] $end
$var wire 1 @ s $end
$var wire 64 +" c [63:0] $end
$var wire 64 ," b [63:0] $end
$upscope $end
$scope module Imm_Gen $end
$var wire 32 -" imm_in [31:0] $end
$var wire 2 ." imm_src [1:0] $end
$var wire 64 /" imm_out [63:0] $end
$upscope $end
$scope module Imm_Sel $end
$var wire 64 0" a [63:0] $end
$var wire 64 1" b [63:0] $end
$var wire 1 [ s $end
$var wire 64 2" c [63:0] $end
$upscope $end
$scope module PC_Adder_Imm $end
$var wire 64 3" a [63:0] $end
$var wire 64 4" b [63:0] $end
$var wire 64 5" c [63:0] $end
$upscope $end
$scope module PC_Adder_Regular $end
$var wire 64 6" b [63:0] $end
$var wire 64 7" c [63:0] $end
$var wire 64 8" a [63:0] $end
$upscope $end
$scope module PC_Update_Mux $end
$var wire 64 9" a [63:0] $end
$var wire 64 :" b [63:0] $end
$var wire 1 , s $end
$var wire 64 ;" c [63:0] $end
$upscope $end
$scope module PC_block $end
$var wire 64 <" PC_NEXT [63:0] $end
$var wire 1 ! clk $end
$var wire 1 " rst $end
$var wire 1 / stall $end
$var reg 64 =" PC [63:0] $end
$upscope $end
$scope module Write_Back_Mux $end
$var wire 64 >" a [63:0] $end
$var wire 64 ?" b [63:0] $end
$var wire 1 p s $end
$var wire 64 @" c [63:0] $end
$upscope $end
$scope module control_unit_alu $end
$var wire 3 A" ALUOp [2:0] $end
$var wire 4 B" funct [3:0] $end
$var wire 1 C" funct7_5 $end
$var wire 3 D" funct3 [2:0] $end
$var reg 3 E" ALUControl [2:0] $end
$var reg 1 1 sub $end
$upscope $end
$scope module control_unit_main $end
$var wire 7 F" opcode [6:0] $end
$var wire 1 2 RegWrite $end
$var wire 1 9 MemtoReg $end
$var wire 1 : MemWrite $end
$var wire 1 ; MemRead $end
$var wire 2 G" Imm_Src [1:0] $end
$var wire 1 E Branch $end
$var wire 1 K ALUSrc $end
$var wire 3 H" ALUOp [2:0] $end
$upscope $end
$scope module forwarding_unit $end
$var wire 1 S EX_MEM_MemWrite $end
$var wire 5 I" EX_MEM_RDes [4:0] $end
$var wire 5 J" EX_MEM_RS2 [4:0] $end
$var wire 1 X EX_MEM_RegWrite $end
$var wire 1 \ ID_EX_Branch $end
$var wire 1 d ID_EX_MemWrite $end
$var wire 5 K" ID_EX_RS1 [4:0] $end
$var wire 5 L" ID_EX_RS2 [4:0] $end
$var wire 3 M" INSTR_TYPE [2:0] $end
$var wire 1 o MEM_WB_MemRead $end
$var wire 5 N" MEM_WB_RDes [4:0] $end
$var wire 1 q MEM_WB_RegWrite $end
$var wire 1 @ Forward_C $end
$var wire 2 O" Forward_B_intermediate [1:0] $end
$var wire 2 P" Forward_B [1:0] $end
$var wire 2 Q" Forward_A_intermediate [1:0] $end
$var wire 2 R" Forward_A [1:0] $end
$upscope $end
$scope module hazard_detection_unit $end
$var wire 5 S" ENTERING_RS1 [4:0] $end
$var wire 5 T" ENTERING_RS2 [4:0] $end
$var wire 7 U" ENTERING_opcode [6:0] $end
$var wire 1 c ID_EX_MemRead $end
$var wire 5 V" ID_EX_RD [4:0] $end
$var wire 5 W" IF_ID_RS1 [4:0] $end
$var wire 5 X" IF_ID_RS2 [4:0] $end
$var wire 1 E IF_ID_branch $end
$var wire 7 Y" IF_ID_opcode [6:0] $end
$var wire 1 / stall $end
$upscope $end
$scope module register_file $end
$var wire 5 Z" ReadReg1 [4:0] $end
$var wire 5 [" ReadReg2 [4:0] $end
$var wire 1 q RegWrite $end
$var wire 64 \" WriteData [63:0] $end
$var wire 5 ]" WriteReg [4:0] $end
$var wire 1 " rst $end
$var wire 64 ^" ReadData2 [63:0] $end
$var wire 64 _" ReadData1 [63:0] $end
$var integer 32 `" fd [31:0] $end
$var integer 32 a" i [31:0] $end
$upscope $end
$upscope $end
$scope module data_memory $end
$var wire 1 ) MemRead $end
$var wire 1 ( MemWrite $end
$var wire 64 b" WriteData [63:0] $end
$var wire 64 c" address [63:0] $end
$var wire 1 " rst $end
$var wire 64 d" ReadData [63:0] $end
$var integer 32 e" fd [31:0] $end
$var integer 32 f" i [31:0] $end
$upscope $end
$scope module instruction_memory $end
$var wire 64 g" address [63:0] $end
$var wire 1 " rst $end
$var wire 32 h" instruction [31:0] $end
$upscope $end
$upscope $end
$upscope $end
$enddefinitions $end
$comment Show the parameter values. $end
$dumpall
$end
#0
$dumpvars
b0 h"
b1111111111111111111111111111111111111111111111111111111111111100 g"
bx f"
bx e"
b0 d"
b0 c"
b0 b"
b100000 a"
bx `"
b0 _"
b0 ^"
b0 ]"
b0 \"
b0 ["
b0 Z"
b0 Y"
b0 X"
b0 W"
b0 V"
b0 U"
b0 T"
b0 S"
b0 R"
b0 Q"
b0 P"
b0 O"
b0 N"
b0 M"
b0 L"
b0 K"
b0 J"
b0 I"
bx H"
bx G"
b0 F"
b0 E"
b0 D"
0C"
b0 B"
b0 A"
b0 @"
b0 ?"
b0 >"
b1111111111111111111111111111111111111111111111111111111111111100 ="
b0 <"
b0 ;"
b0 :"
b0 9"
b1111111111111111111111111111111111111111111111111111111111111100 8"
b0 7"
b100 6"
b0 5"
b0 4"
b0 3"
b0 2"
b0 1"
b0 0"
b0 /"
bx ."
b0 -"
b0 ,"
b0 +"
b0 *"
b0 )"
b0 ("
b0 '"
b0 &"
b0 %"
b0 $"
b0 #"
b0 ""
b0 !"
b0 ~
b0 }
b0 |
b0 {
b0 z
b0 y
b0 x
b0 w
b0 v
b0 u
b0 t
b0 s
b0 r
0q
0p
0o
b0 n
b0 m
b0 l
b0 k
b0 j
0i
b0 h
b0 g
b0 f
0e
0d
0c
b0 b
b0 a
b0 `
b0 _
b0 ^
b0 ]
0\
0[
b0 Z
0Y
0X
b0 W
b0 V
b0 U
0T
0S
b0 R
b0 Q
b0 P
0O
b0 N
b0 M
bx L
0K
b0 J
b0 I
0H
b0 G
1F
0E
b0 D
b0 C
b0 B
b0 A
0@
b0 ?
b0 >
b0 =
bx <
0;
0:
09
b1111111111111111111111111111111111111111111111111111111111111100 8
b0 7
b0 6
b0 5
b0 4
b0 3
12
01
b0 0
0/
b0 .
b1111111111111111111111111111111111111111111111111111111111111100 -
0,
b0 +
b0 *
0)
0(
b0 '
b0 &
b0 %
b1111111111111111111111111111111111111111111111111111111111111100 $
b0 #
1"
1!
$end
#50
0!
#100
1!
#150
0!
#200
1!
#250
0!
#300
1!
#350
0!
#400
1!
#450
0!
#500
xH
bx v
bx x
xF
bx s
bx u
bx t
x1
bx M
bx y
bx E"
b100 7
b100 ;"
b100 <"
1Y
bx Z
bx A"
bx M"
1i
b1111111111111111111111111111111111111111111111111111111111111100 k
b100 5
b100 7"
b100 9"
b0 $
b0 -
b0 g"
b0 8
b0 8"
b0 ="
b100 S"
b0 T"
b11 U"
b100011000110000011 .
b100011000110000011 #
b100011000110000011 >
b100011000110000011 h"
1!
0"
#550
0!
#600
b10 L
b10 H"
1K
b0 S"
b1000 T"
b10011 U"
b0 <
b0 ."
b0 G"
b10000 4
b10000 _"
b0 =
b0 /"
b100000000000010010010011 .
b100000000000010010010011 #
b100000000000010010010011 >
b100000000000010010010011 h"
1;
19
b1000 7
b1000 ;"
b1000 <"
b11 F"
b100 Z"
b100 W"
b11 Y"
b1000 5
b1000 7"
b1000 9"
b100 $
b100 -
b100 g"
b100 8
b100 8"
b100 ="
b0 k
b100011000110000011 j
b100011000110000011 -"
b1111111111111111111111111111111111111111111111111111111111111100 6
b1111111111111111111111111111111111111111111111111111111111111100 5"
b1111111111111111111111111111111111111111111111111111111111111100 f
b1111111111111111111111111111111111111111111111111111111111111100 3"
1X
xY
1!
#650
0!
#700
0F
0H
1/
b10000 u
b0 v
b1 L
b1 H"
b10000 s
b100 S"
b11 T"
b100011 U"
b0 t
b0 x
b0 r
b10000 G
b10000 {
0;
09
b0 4
b0 _"
b1000 =
b1000 /"
b1100100011010000100011 .
b1100100011010000100011 #
b1100100011010000100011 >
b1100100011010000100011 h"
01
b0 M
b0 y
b0 E"
b10000 J
b10000 z
b10000 !"
b11 D"
b10011 F"
b0 Z"
b1000 ["
b0 W"
b1000 X"
b10011 Y"
b1100 7
b1100 ;"
b1100 <"
1q
b1111111111111111111111111111111111111111111111111111111111111100 V
b1111111111111111111111111111111111111111111111111111111111111100 :"
1c
1e
b10 Z
b10 A"
b10 M"
1[
b0 6
b0 5"
b0 f
b0 3"
b10000 g
b10000 |
b100 _
b100 K"
b11 a
b11 B"
b11 ^
b11 V"
b11 b
b100 k
b100000000000010010010011 j
b100000000000010010010011 -"
b1100 5
b1100 7"
b1100 9"
b1000 $
b1000 -
b1000 g"
b1000 8
b1000 8"
b1000 ="
1!
#750
0!
#800
b0 G
b0 {
1F
b0 u
b0 s
0/
b11 *
b11 '
b11 D
b11 d"
b0 J
b0 z
b0 !"
b0 D"
0c
0e
b0 Z
b0 A"
b0 M"
0[
0i
b0 g
b0 |
b0 _
b0 K"
b0 a
b0 B"
b0 ^
b0 V"
b0 b
1)
1T
b0 V
b0 :"
0Y
b10000 %
b10000 +
b10000 c"
b10000 N
b10000 }
b10000 $"
b11 P
b11 I"
b11 U
b11 R
1!
#850
0!
#900
b1000 G
b1000 {
0F
b1000 u
b1000 s
b1000 t
b11 L
b11 H"
02
b11 3
b11 ^"
b0 B
b0 ""
b0 R"
b1000 I
b1000 w
b1000 &"
b1 <
b1 ."
b1 G"
b10000 4
b10000 _"
bx S"
bx T"
bx U"
b0 *
b0 '
b0 D
b0 d"
b0 Q"
b1000 ?
b1000 )"
b1000 2"
1:
b1000 =
b1000 /"
bx .
bx #
bx >
bx h"
b11 0
b11 #"
b11 ("
b11 ,"
b11 @"
b11 \"
b100000 a"
b10000000000000000000000000000011 `"
b100011 F"
b100 Z"
b11 ["
b100 W"
b11 X"
b100011 Y"
b10000 7
b10000 ;"
b10000 <"
1p
1o
b11 m
b11 ?"
b10000 l
b10000 >"
b11 n
b11 N"
b11 ]"
0)
0T
0X
1Y
b0 %
b0 +
b0 c"
b0 N
b0 }
b0 $"
b0 P
b0 I"
b0 U
b0 R
b1 Z
b1 A"
b1 M"
1[
1i
b100 f
b100 3"
b1100 6
b1100 5"
b1000 ]
b1000 1"
b1000 4"
b1000 `
b1000 L"
b1001 ^
b1001 V"
b10011 b
b1000 k
b1100100011010000100011 j
b1100100011010000100011 -"
b10000 5
b10000 7"
b10000 9"
b1100 $
b1100 -
b1100 g"
b1100 8
b1100 8"
b1100 ="
1!
#950
0!
#1000
x2
b11000 G
b11000 {
bx <
bx ."
bx G"
xK
bx =
bx /"
b11000 u
xE
x;
x9
bx L
bx H"
x:
bx 4
bx _"
bx 3
bx ^"
b11000 s
b10100 7
b10100 ;"
b10100 <"
bx F"
bx Z"
bx ["
bx W"
bx X"
bx Y"
b10000 J
b10000 z
b10000 !"
b11 D"
b0 0
b0 #"
b0 ("
b0 ,"
b0 @"
b0 \"
b10100 5
b10100 7"
b10100 9"
b10000 $
b10000 -
b10000 g"
b10000 8
b10000 8"
b10000 ="
b1100 k
bx j
bx -"
b11 Z
b11 A"
b11 M"
1d
0i
b10000 6
b10000 5"
b1000 f
b1000 3"
b10000 g
b10000 |
b11 h
b11 0"
b11 `
b11 L"
b100 _
b100 K"
b11 a
b11 B"
b1000 ^
b1000 V"
b100011 b
1X
b1100 V
b1100 :"
0Y
b1000 %
b1000 +
b1000 c"
b1000 N
b1000 }
b1000 $"
b1000 Q
b1000 J"
b1001 P
b1001 I"
b10011 U
0p
0o
0q
b0 m
b0 ?"
b0 l
b0 >"
b0 n
b0 N"
b0 ]"
1!
#1050
0!
#1100
xH
x/
bx v
bx x
xF
bx u
bx t
b0x B
b0x ""
b0x R"
b0x A
b0x '"
b0x P"
b0x O"
bx r
bx s
b0 G
b0 {
bx I
bx w
bx &"
b0x Q"
b1000 0
b1000 #"
b1000 ("
b1000 ,"
b1000 @"
b1000 \"
b100000 a"
b10000000000 f"
b10000000000000000000000000000011 e"
b11 &
b11 C
b11 +"
b11 b"
x1
bx M
bx y
bx E"
bx J
bx z
bx !"
bx ?
bx )"
bx 2"
bx D"
xC"
b11000 7
b11000 ;"
b11000 <"
1q
b1000 l
b1000 >"
b1001 n
b1001 N"
b1001 ]"
1(
1S
0X
b10000 V
b10000 :"
b11000 %
b11000 +
b11000 c"
b11000 N
b11000 }
b11000 $"
b11 W
b11 *"
b11 Q
b11 J"
b1000 P
b1000 I"
b100011 U
b11 R
x\
xc
xe
bx Z
bx A"
bx M"
xd
x[
xi
b1100 f
b1100 3"
bx g
bx |
bx h
bx 0"
bx 6
bx 5"
bx ]
bx 1"
bx 4"
bx `
bx L"
bx _
bx K"
bx a
bx B"
bx ^
bx V"
bx b
b10000 k
b11000 5
b11000 7"
b11000 9"
b10100 $
b10100 -
b10100 g"
b10100 8
b10100 8"
b10100 ="
1!
#1150
0!
#1200
bx0 A
bx0 '"
bx0 P"
bx0 B
bx0 ""
bx0 R"
bx0 O"
bx0 Q"
bx 7
bx ;"
bx <"
bx &
bx C
bx +"
bx b"
x,
b11000 0
b11000 #"
b11000 ("
b11000 ,"
b11000 @"
b11000 \"
b11100 5
b11100 7"
b11100 9"
b11000 $
b11000 -
b11000 g"
b11000 8
b11000 8"
b11000 ="
b10100 k
b10000 f
b10000 3"
xO
x)
xT
x(
xS
xX
bx V
bx :"
xY
b0 %
b0 +
b0 c"
b0 N
b0 }
b0 $"
bx W
bx *"
bx Q
bx J"
bx P
bx I"
bx U
bx R
0q
b11000 l
b11000 >"
b1000 n
b1000 N"
b1000 ]"
1!
#1250
0!
#1300
bx A
bx '"
bx P"
bx B
bx ""
bx R"
bx O"
x@
bx Q"
b0 0
b0 #"
b0 ("
b0 ,"
b0 @"
b0 \"
xp
xo
xq
b0 l
b0 >"
bx n
bx N"
bx ]"
b10100 f
b10100 3"
b11000 k
bx 5
bx 7"
bx 9"
bx $
bx -
bx g"
bx 8
bx 8"
bx ="
1!
#1350
0!
#1400
bx k
b11000 f
b11000 3"
1!
#1450
0!
#1500
bx f
bx 3"
1!
