SS.vcd
$date
	Mon Sep 01 17:07:01 2025
$end
$version
	Icarus Verilog
$end
$timescale
	1s
$end
$scope module Multi_Stage_tb $end
$scope module Memory_Top $end
$var wire 1 ! clk $end
$var wire 1 " rst $end
$var wire 32 # CPU_IMEM_instruction [31:0] $end
$var wire 64 $ CPU_IMEM_address [63:0] $end
$var wire 64 % CPU_DMEM_address [63:0] $end
$var wire 64 & CPU_DMEM_WriteData [63:0] $end
$var wire 64 ' CPU_DMEM_ReadData [63:0] $end
$var wire 1 ( CPU_DMEM_MemWrite $end
$var wire 1 ) CPU_DMEM_MemRead $end
$scope module CPU_Top $end
$var wire 1 ) DMEM_MemRead $end
$var wire 1 ( DMEM_MemWrite $end
$var wire 64 * DMEM_READ_DATA [63:0] $end
$var wire 64 + DMEM_WriteData [63:0] $end
$var wire 64 , DMEM_address [63:0] $end
$var wire 1 - Flush $end
$var wire 64 . IMEM_address [63:0] $end
$var wire 32 / INSTRUCTION_BUS [31:0] $end
$var wire 1 ! clk $end
$var wire 1 " rst $end
$var wire 1 0 stall $end
$var wire 64 1 WRITE_DATA [63:0] $end
$var wire 1 2 SUB $end
$var wire 1 3 RegWrite $end
$var wire 64 4 READ_DATA2 [63:0] $end
$var wire 64 5 READ_DATA1 [63:0] $end
$var wire 64 6 PC_NEXT_REG [63:0] $end
$var wire 64 7 PC_NEXT_IMM [63:0] $end
$var wire 64 8 PC_NEXT [63:0] $end
$var wire 64 9 PC_CURR [63:0] $end
$var wire 1 : MemtoReg $end
$var wire 1 ; MemWrite $end
$var wire 1 < MemRead $end
$var wire 2 = Imm_Src [1:0] $end
$var wire 64 > IMM_OUT [63:0] $end
$var wire 32 ? IMEM_instruction [31:0] $end
$var wire 64 @ ID_EX_READ_DATA2_IMM [63:0] $end
$var wire 2 A Forward_B [1:0] $end
$var wire 2 B Forward_A [1:0] $end
$var wire 64 C DMEM_ReadData [63:0] $end
$var wire 1 D Branch $end
$var wire 1 E ALU_ZERO $end
$var wire 64 F ALU_OUT [63:0] $end
$var wire 1 G ALU_CARRY $end
$var wire 64 H ALU_B [63:0] $end
$var wire 64 I ALU_A [63:0] $end
$var wire 1 J ALUSrc $end
$var wire 3 K ALUOp [2:0] $end
$var wire 3 L ALUCONTROL [2:0] $end
$var reg 64 M EX_MEM_ALU_OUT [63:0] $end
$var reg 1 N EX_MEM_Branch $end
$var reg 5 O EX_MEM_INSTRUCTION_11_7 [4:0] $end
$var reg 4 P EX_MEM_INSTRUCTION_30_14_12 [3:0] $end
$var reg 1 Q EX_MEM_MemRead $end
$var reg 1 R EX_MEM_MemWrite $end
$var reg 1 S EX_MEM_MemtoReg $end
$var reg 7 T EX_MEM_OPCODE [6:0] $end
$var reg 64 U EX_MEM_PC_NEXT_IMM [63:0] $end
$var reg 64 V EX_MEM_READ_DATA_2 [63:0] $end
$var reg 1 W EX_MEM_RegWrite $end
$var reg 1 X EX_MEM_zero $end
$var reg 3 Y ID_EX_ALUOp [2:0] $end
$var reg 1 Z ID_EX_ALUSrc $end
$var reg 1 [ ID_EX_Branch $end
$var reg 64 \ ID_EX_IMM_OUT [63:0] $end
$var reg 5 ] ID_EX_INSTRUCTION_11_7 [4:0] $end
$var reg 5 ^ ID_EX_INSTRUCTION_19_15 [4:0] $end
$var reg 5 _ ID_EX_INSTRUCTION_24_20 [4:0] $end
$var reg 4 ` ID_EX_INSTRUCTION_30_14_12 [3:0] $end
$var reg 7 a ID_EX_INSTRUCTION_OPCODE [6:0] $end
$var reg 1 b ID_EX_MemRead $end
$var reg 1 c ID_EX_MemWrite $end
$var reg 1 d ID_EX_MemtoReg $end
$var reg 64 e ID_EX_PC_CURR [63:0] $end
$var reg 64 f ID_EX_READ_DATA1 [63:0] $end
$var reg 64 g ID_EX_READ_DATA2 [63:0] $end
$var reg 1 h ID_EX_RegWrite $end
$var reg 32 i IF_ID_INSTRUCTION_BUS [31:0] $end
$var reg 64 j IF_ID_PC_CURR [63:0] $end
$var reg 64 k MEM_WB_ALU_OUT [63:0] $end
$var reg 64 l MEM_WB_DMEM_READ_DATA [63:0] $end
$var reg 5 m MEM_WB_INSTRUCTION_11_7 [4:0] $end
$var reg 1 n MEM_WB_MemtoReg $end
$var reg 1 o MEM_WB_RegWrite $end
$scope module ALU $end
$var wire 64 p A_and_B [63:0] $end
$var wire 64 q A_xor_B [63:0] $end
$var wire 64 r B_comp [63:0] $end
$var wire 64 s sum [63:0] $end
$var wire 1 E zero $end
$var wire 1 2 sub $end
$var wire 1 G Carry_out $end
$var wire 64 t Carry_intermediate [63:0] $end
$var wire 64 u B [63:0] $end
$var wire 64 v A_xor_B_and_cin [63:0] $end
$var wire 3 w ALU_Sel [2:0] $end
$var wire 64 x A [63:0] $end
$var reg 64 y ALU_Out [63:0] $end
$upscope $end
$scope module ALU_Mux_A $end
$var wire 64 z a [63:0] $end
$var wire 64 { c [63:0] $end
$var wire 64 | d [63:0] $end
$var wire 64 } y [63:0] $end
$var wire 2 ~ s [1:0] $end
$var wire 64 !" b [63:0] $end
$upscope $end
$scope module ALU_Mux_B $end
$var wire 64 "" c [63:0] $end
$var wire 64 #" d [63:0] $end
$var wire 64 $" y [63:0] $end
$var wire 2 %" s [1:0] $end
$var wire 64 &" b [63:0] $end
$var wire 64 '" a [63:0] $end
$upscope $end
$scope module Imm_Gen $end
$var wire 32 (" imm_in [31:0] $end
$var wire 2 )" imm_src [1:0] $end
$var wire 64 *" imm_out [63:0] $end
$upscope $end
$scope module Imm_Sel $end
$var wire 64 +" a [63:0] $end
$var wire 64 ," b [63:0] $end
$var wire 1 Z s $end
$var wire 64 -" c [63:0] $end
$upscope $end
$scope module PC_Adder_Imm $end
$var wire 64 ." a [63:0] $end
$var wire 64 /" b [63:0] $end
$var wire 64 0" c [63:0] $end
$upscope $end
$scope module PC_Adder_Regular $end
$var wire 64 1" b [63:0] $end
$var wire 64 2" c [63:0] $end
$var wire 64 3" a [63:0] $end
$upscope $end
$scope module PC_Update_Mux $end
$var wire 64 4" a [63:0] $end
$var wire 64 5" b [63:0] $end
$var wire 1 - s $end
$var wire 64 6" c [63:0] $end
$upscope $end
$scope module PC_block $end
$var wire 64 7" PC_NEXT [63:0] $end
$var wire 1 ! clk $end
$var wire 1 " rst $end
$var wire 1 0 stall $end
$var reg 64 8" PC [63:0] $end
$upscope $end
$scope module Write_Back_Mux $end
$var wire 64 9" a [63:0] $end
$var wire 64 :" b [63:0] $end
$var wire 1 n s $end
$var wire 64 ;" c [63:0] $end
$upscope $end
$scope module control_unit_alu $end
$var wire 3 <" ALUOp [2:0] $end
$var wire 4 =" funct [3:0] $end
$var wire 1 >" funct7_5 $end
$var wire 3 ?" funct3 [2:0] $end
$var reg 3 @" ALUControl [2:0] $end
$var reg 1 2 sub $end
$upscope $end
$scope module control_unit_main $end
$var wire 7 A" opcode [6:0] $end
$var wire 1 3 RegWrite $end
$var wire 1 : MemtoReg $end
$var wire 1 ; MemWrite $end
$var wire 1 < MemRead $end
$var wire 2 B" Imm_Src [1:0] $end
$var wire 1 D Branch $end
$var wire 1 J ALUSrc $end
$var wire 3 C" ALUOp [2:0] $end
$upscope $end
$scope module forwarding_unit $end
$var wire 5 D" EX_MEM_RD [4:0] $end
$var wire 1 W EX_MEM_RegWrite $end
$var wire 5 E" ID_EX_RS1 [4:0] $end
$var wire 5 F" ID_EX_RS2 [4:0] $end
$var wire 5 G" MEM_WB_RD [4:0] $end
$var wire 1 o MEM_WB_RegWrite $end
$var wire 2 H" Forward_B [1:0] $end
$var wire 2 I" Forward_A [1:0] $end
$upscope $end
$scope module hazard_detection_unit $end
$var wire 1 D branch $end
$var wire 1 b mem_read_1 $end
$var wire 1 Q mem_read_2 $end
$var wire 7 J" opcode [6:0] $end
$var wire 5 K" rd [4:0] $end
$var wire 5 L" rs1 [4:0] $end
$var wire 5 M" rs2 [4:0] $end
$var wire 1 0 stall $end
$upscope $end
$scope module register_file $end
$var wire 5 N" ReadReg1 [4:0] $end
$var wire 5 O" ReadReg2 [4:0] $end
$var wire 1 o RegWrite $end
$var wire 64 P" WriteData [63:0] $end
$var wire 5 Q" WriteReg [4:0] $end
$var wire 1 " rst $end
$var wire 64 R" ReadData2 [63:0] $end
$var wire 64 S" ReadData1 [63:0] $end
$var integer 32 T" fd [31:0] $end
$var integer 32 U" i [31:0] $end
$upscope $end
$upscope $end
$scope module data_memory $end
$var wire 1 ) MemRead $end
$var wire 1 ( MemWrite $end
$var wire 64 V" WriteData [63:0] $end
$var wire 64 W" address [63:0] $end
$var wire 1 " rst $end
$var wire 64 X" ReadData [63:0] $end
$var integer 32 Y" fd [31:0] $end
$var integer 32 Z" i [31:0] $end
$upscope $end
$scope module instruction_memory $end
$var wire 64 [" address [63:0] $end
$var wire 1 " rst $end
$var wire 32 \" instruction [31:0] $end
$upscope $end
$upscope $end
$upscope $end
$enddefinitions $end
$comment Show the parameter values. $end
$dumpall
$end
#0
$dumpvars
b0 \"
b1111111111111111111111111111111111111111111111111111111111111100 ["
bx Z"
bx Y"
b0 X"
b0 W"
b0 V"
bx U"
bx T"
b0 S"
b0 R"
b0 Q"
b0 P"
b0 O"
b0 N"
b0 M"
b0 L"
b0 K"
b0 J"
b0 I"
b0 H"
b0 G"
b0 F"
b0 E"
b0 D"
bx C"
bx B"
b0 A"
b0 @"
b0 ?"
0>"
b0 ="
b0 <"
b0 ;"
b0 :"
b0 9"
b1111111111111111111111111111111111111111111111111111111111111100 8"
b0 7"
b0 6"
b0 5"
b0 4"
b1111111111111111111111111111111111111111111111111111111111111100 3"
b0 2"
b100 1"
b0 0"
b0 /"
b0 ."
b0 -"
b0 ,"
b0 +"
b0 *"
bx )"
b0 ("
b0 '"
b0 &"
b0 %"
b0 $"
b0 #"
b0 ""
b0 !"
b0 ~
b0 }
b0 |
b0 {
b0 z
b0 y
b0 x
b0 w
b0 v
b0 u
b0 t
b0 s
b0 r
b0 q
b0 p
0o
0n
b0 m
b0 l
b0 k
b0 j
b0 i
0h
b0 g
b0 f
b0 e
0d
0c
0b
b0 a
b0 `
b0 _
b0 ^
b0 ]
b0 \
0[
0Z
b0 Y
0X
0W
b0 V
b0 U
b0 T
0S
0R
0Q
b0 P
b0 O
0N
b0 M
b0 L
bx K
0J
b0 I
b0 H
0G
b0 F
1E
0D
b0 C
b0 B
b0 A
b0 @
b0 ?
b0 >
bx =
0<
0;
0:
b1111111111111111111111111111111111111111111111111111111111111100 9
b0 8
b0 7
b0 6
b0 5
b0 4
13
02
b0 1
00
b0 /
b1111111111111111111111111111111111111111111111111111111111111100 .
0-
b0 ,
b0 +
b0 *
0)
0(
b0 '
b0 &
b0 %
b1111111111111111111111111111111111111111111111111111111111111100 $
b0 #
1"
1!
$end
#50
0!
#100
1!
#150
0!
#200
1!
#250
0!
#300
1!
#350
0!
#400
1!
#450
0!
#500
xG
bx t
bx v
xE
bx q
bx s
bx r
x2
bx L
bx w
bx @"
b100 8
b100 6"
b100 7"
1X
bx Y
bx <"
1h
b1111111111111111111111111111111111111111111111111111111111111100 j
b100 6
b100 2"
b100 4"
b0 $
b0 .
b0 ["
b0 9
b0 3"
b0 8"
b100000000000001010010011 /
b100000000000001010010011 #
b100000000000001010010011 ?
b100000000000001010010011 \"
1!
0"
#550
0!
#600
1J
b1 K
b1 C"
b0 =
b0 )"
b0 B"
bx 4
bx R"
b101000000000001100010011 /
b101000000000001100010011 #
b101000000000001100010011 ?
b101000000000001100010011 \"
b1000 >
b1000 *"
b1000 8
b1000 6"
b1000 7"
b10011 A"
b1000 O"
b1000 M"
b1000 6
b1000 2"
b1000 4"
b100 $
b100 .
b100 ["
b100 9
b100 3"
b100 8"
b0 j
b100000000000001010010011 i
b100000000000001010010011 ("
b1111111111111111111111111111111111111111111111111111111111111100 7
b1111111111111111111111111111111111111111111111111111111111111100 0"
b1111111111111111111111111111111111111111111111111111111111111100 e
b1111111111111111111111111111111111111111111111111111111111111100 ."
1W
xX
1!
#650
0!
#700
0E
0G
b1000 s
b1000 q
b0 t
b1000 r
b0 v
b1000 F
b1000 y
b1000 H
b1000 u
b1000 $"
b1010 >
b1010 *"
b101000010100010011 /
b101000010100010011 #
b101000010100010011 ?
b101000010100010011 \"
02
b0 L
b0 w
b0 @"
b1000 @
b1000 '"
b1000 -"
b1010 O"
b1010 M"
b1100 8
b1100 6"
b1100 7"
1o
b1111111111111111111111111111111111111111111111111111111111111100 U
b1111111111111111111111111111111111111111111111111111111111111100 5"
b1 Y
b1 <"
1Z
b0 e
b0 ."
bx g
bx #"
bx +"
b1000 7
b1000 0"
b1000 \
b1000 ,"
b1000 /"
b1000 _
b1000 F"
b101 ]
b101 K"
b10011 a
b10011 J"
b100 j
b101000000000001100010011 i
b101000000000001100010011 ("
b1100 6
b1100 2"
b1100 4"
b1000 $
b1000 .
b1000 ["
b1000 9
b1000 3"
b1000 8"
1!
#750
0!
#800
b1010 F
b1010 y
b1010 s
b1010 q
bx 5
bx S"
b0 4
b0 R"
b1010 r
b110000010110010011 /
b110000010110010011 #
b110000010110010011 ?
b110000010110010011 \"
b0 >
b0 *"
b1010 H
b1010 u
b1010 $"
b10000 8
b10000 6"
b10000 7"
b101 N"
b0 O"
b101 L"
b0 M"
b1010 @
b1010 '"
b1010 -"
b10000 6
b10000 2"
b10000 4"
b1100 $
b1100 .
b1100 ["
b1100 9
b1100 3"
b1100 8"
b1000 j
b101000010100010011 i
b101000010100010011 ("
b100 e
b100 ."
b1110 7
b1110 0"
b1010 \
b1010 ,"
b1010 /"
b1010 _
b1010 F"
b110 ]
b110 K"
b1000 U
b1000 5"
0X
b1000 %
b1000 ,
b1000 W"
b1000 M
b1000 {
b1000 ""
bx &
bx +
bx V"
bx V
b101 O
b101 D"
b10011 T
1!
#850
0!
#900
b0 v
b1 B
b1 ~
b1 I"
b0 t
b1000 F
b1000 y
0E
b1000 s
b0 r
b0 p
b1000 q
b0 H
b0 u
b0 $"
b1000000000000000011101111 /
b1000000000000000011101111 #
b1000000000000000011101111 ?
b1000000000000000011101111 \"
b1000 1
b1000 !"
b1000 &"
b1000 ;"
b1000 P"
b100000 U"
b10000000000000000000000000000011 T"
b1000 I
b1000 x
b1000 }
b0 @
b0 '"
b0 -"
b110 N"
b110 L"
b10100 8
b10100 6"
b10100 7"
b1000 k
b1000 9"
b101 m
b101 G"
b101 Q"
b1110 U
b1110 5"
b1010 %
b1010 ,
b1010 W"
b1010 M
b1010 {
b1010 ""
b110 O
b110 D"
b1000 e
b1000 ."
bx f
bx z
b0 g
b0 #"
b0 +"
b1000 7
b1000 0"
b0 \
b0 ,"
b0 /"
b0 _
b0 F"
b101 ^
b101 E"
b1010 ]
b1010 K"
b1100 j
b110000010110010011 i
b110000010110010011 ("
b10100 6
b10100 2"
b10100 4"
b10000 $
b10000 .
b10000 ["
b10000 9
b10000 3"
b10000 8"
1!
#950
0!
#1000
b1010 F
b1010 y
b1010 s
0J
b1010 q
b101 K
b101 C"
b11 =
b11 )"
b11 B"
b0 5
b0 S"
bx 4
bx R"
b1010 I
b1010 x
b1010 }
b101110100000000100010010011 /
b101110100000000100010010011 #
b101110100000000100010010011 ?
b101110100000000100010010011 \"
b10000 >
b10000 *"
b11000 8
b11000 6"
b11000 7"
b1101111 A"
b0 N"
b10000 O"
b0 L"
b10000 M"
b1010 1
b1010 !"
b1010 &"
b1010 ;"
b1010 P"
b100000 U"
b11000 6
b11000 2"
b11000 4"
b10100 $
b10100 .
b10100 ["
b10100 9
b10100 3"
b10100 8"
b10000 j
b1000000000000000011101111 i
b1000000000000000011101111 ("
b1100 7
b1100 0"
b1100 e
b1100 ."
b110 ^
b110 E"
b1011 ]
b1011 K"
b1000 U
b1000 5"
b1000 %
b1000 ,
b1000 W"
b1000 M
b1000 {
b1000 ""
b0 &
b0 +
b0 V"
b0 V
b1010 O
b1010 D"
b1010 k
b1010 9"
b110 m
b110 G"
b110 Q"
1!
#1050
0!
#1100
xE
bx F
bx y
bx s
bx q
b1011101 >
b1011101 *"
1J
b0 I
b0 x
b0 }
bx r
b0 B
b0 ~
b0 I"
b1 K
b1 C"
b0 =
b0 )"
b0 B"
bx H
bx u
bx $"
b10100010011 /
b10100010011 #
b10100010011 ?
b10100010011 \"
b1000 1
b1000 !"
b1000 &"
b1000 ;"
b1000 P"
b100000 U"
bx @
bx '"
bx -"
b10011 A"
b11101 O"
b11101 M"
b11100 8
b11100 6"
b11100 7"
b1000 k
b1000 9"
b1010 m
b1010 G"
b1010 Q"
b1100 U
b1100 5"
b1010 %
b1010 ,
b1010 W"
b1010 M
b1010 {
b1010 ""
b1011 O
b1011 D"
b101 Y
b101 <"
0Z
b10000 e
b10000 ."
b0 f
b0 z
bx g
bx #"
bx +"
b100000 7
b100000 0"
b10000 \
b10000 ,"
b10000 /"
b10000 _
b10000 F"
b0 ^
b0 E"
b1 ]
b1 K"
b1101111 a
b1101111 J"
b10100 j
b101110100000000100010010011 i
b101110100000000100010010011 ("
b11100 6
b11100 2"
b11100 4"
b11000 $
b11000 .
b11000 ["
b11000 9
b11000 3"
b11000 8"
1!
#1150
0!
#1200
b1011101 F
b1011101 y
0E
b1011101 s
b1011101 q
b1011101 r
b0 4
b0 R"
b1011101 H
b1011101 u
b1011101 $"
b1110011 /
b1110011 #
b1110011 ?
b1110011 \"
b0 >
b0 *"
b1011101 @
b1011101 '"
b1011101 -"
b100000 8
b100000 6"
b100000 7"
b0 O"
b0 M"
1-
b1010 1
b1010 !"
b1010 &"
b1010 ;"
b1010 P"
b100000 U"
b100000 6
b100000 2"
b100000 4"
b11100 $
b11100 .
b11100 ["
b11100 9
b11100 3"
b11100 8"
b11000 j
b10100010011 i
b10100010011 ("
b1 Y
b1 <"
1Z
b10100 e
b10100 ."
b1110001 7
b1110001 0"
b1011101 \
b1011101 ,"
b1011101 /"
b11101 _
b11101 F"
b10001 ]
b10001 K"
b10011 a
b10011 J"
b100000 U
b100000 5"
xX
bx %
bx ,
bx W"
bx M
bx {
bx ""
bx &
bx +
bx V"
bx V
b1 O
b1 D"
b1101111 T
b1010 k
b1010 9"
b1011 m
b1011 G"
b1011 Q"
1!
#1250
0!
#1300
b0 F
b0 y
1E
b0 s
b0 q
0J
b0 r
bx K
bx C"
bx =
bx )"
bx B"
b0 B
b0 ~
b0 I"
b0 H
b0 u
b0 $"
b11111111100000010000000100010011 /
b11111111100000010000000100010011 #
b11111111100000010000000100010011 ?
b11111111100000010000000100010011 \"
bx 1
bx !"
bx &"
bx ;"
bx P"
b100000 U"
b100100 8
b100100 6"
b100100 7"
0-
b0 @
b0 '"
b0 -"
b0 A"
bx k
bx 9"
b1 m
b1 G"
b1 Q"
0W
b0 U
b0 5"
0X
b0 %
b0 ,
b0 W"
b0 M
b0 {
b0 ""
b0 &
b0 +
b0 V"
b0 V
b0 O
b0 D"
b0 T
b0 Y
b0 <"
0Z
0h
b0 e
b0 ."
b0 g
b0 #"
b0 +"
b0 7
b0 0"
b0 \
b0 ,"
b0 /"
b0 _
b0 F"
b0 ]
b0 K"
b0 a
b0 J"
b0 j
b0 i
b0 ("
b100100 6
b100100 2"
b100100 4"
b100000 $
b100000 .
b100000 ["
b100000 9
b100000 3"
b100000 8"
1!
#1350
0!
#1400
xG
bx t
bx v
1J
b1 K
b1 C"
b0 =
b0 )"
b0 B"
bx 5
bx S"
bx 4
bx R"
xE
bx q
b0 B
b0 ~
b0 I"
b100010011000000100011 /
b100010011000000100011 #
b100010011000000100011 ?
b100010011000000100011 \"
b1111111111111111111111111111111111111111111111111111111111111000 >
b1111111111111111111111111111111111111111111111111111111111111000 *"
bx s
bx r
b101000 8
b101000 6"
b101000 7"
b10011 A"
b10 N"
b11000 O"
b10 L"
b11000 M"
x2
bx L
bx w
bx @"
b0 1
b0 !"
b0 &"
b0 ;"
b0 P"
b101000 6
b101000 2"
b101000 4"
b100100 $
b100100 .
b100100 ["
b100100 9
b100100 3"
b100100 8"
b100000 j
b11111111100000010000000100010011 i
b11111111100000010000000100010011 ("
bx Y
bx <"
1h
1X
0o
b0 k
b0 9"
b0 m
b0 G"
b0 Q"
1!
#1450
0!
#1500
bx000 t
b1111111111111111111111111111111111111111111111111111111111111000 r
03
b11 K
b11 C"
b1 =
b1 )"
b1 B"
bx0000 v
bx000 p
bx F
bx y
b1111111111111111111111111111111111111111111111111111111111111000 H
b1111111111111111111111111111111111111111111111111111111111111000 u
b1111111111111111111111111111111111111111111111111111111111111000 $"
1;
b0 >
b0 *"
b1010010011 /
b1010010011 #
b1010010011 ?
b1010010011 \"
02
b0 L
b0 w
b0 @"
bx I
bx x
bx }
b1111111111111111111111111111111111111111111111111111111111111000 @
b1111111111111111111111111111111111111111111111111111111111111000 '"
b1111111111111111111111111111111111111111111111111111111111111000 -"
1>"
b100011 A"
b1 O"
b1 M"
b101100 8
b101100 6"
b101100 7"
1W
xX
b1 Y
b1 <"
1Z
b100000 e
b100000 ."
bx f
bx z
bx g
bx #"
bx +"
b11000 7
b11000 0"
b1111111111111111111111111111111111111111111111111111111111111000 \
b1111111111111111111111111111111111111111111111111111111111111000 ,"
b1111111111111111111111111111111111111111111111111111111111111000 /"
b11000 _
b11000 F"
b10 ^
b10 E"
b1000 `
b1000 ="
b10 ]
b10 K"
b10011 a
b10011 J"
b100100 j
b100010011000000100011 i
b100010011000000100011 ("
b101100 6
b101100 2"
b101100 4"
b101000 $
b101000 .
b101000 ["
b101000 9
b101000 3"
b101000 8"
1!
#1550
0!
#1600
0G
bx F
bx y
b0 v
b0 t
bx s
13
bx q
b0 p
bx I
bx x
bx }
b1 K
b1 C"
b0 =
b0 )"
b0 B"
1J
b0 5
b0 S"
b0 4
b0 R"
b0 >
b0 *"
b0 r
b10 B
b10 ~
b10 I"
b100101100101101111001100011 /
b100101100101101111001100011 #
b100101100101101111001100011 ?
b100101100101101111001100011 \"
0;
b0 H
b0 u
b0 $"
b110000 8
b110000 6"
b110000 7"
b10011 A"
b0 N"
b0 O"
b0 L"
b0 M"
b0 @
b0 '"
b0 -"
b11 ?"
0>"
b110000 6
b110000 2"
b110000 4"
b101100 $
b101100 .
b101100 ["
b101100 9
b101100 3"
b101100 8"
b101000 j
b1010010011 i
b1010010011 ("
b11 Y
b11 <"
1c
0h
b100100 e
b100100 ."
b100100 7
b100100 0"
b0 \
b0 ,"
b0 /"
b1 _
b1 F"
b11 `
b11 ="
b0 ]
b0 K"
b100011 a
b100011 J"
b11000 U
b11000 5"
bx %
bx ,
bx W"
bx M
bx {
bx ""
bx &
bx +
bx V"
bx V
b10 O
b10 D"
b10011 T
b1000 P
1o
1!
#1650
0!
#1700
b0 F
b0 y
1E
b0 s
b0 q
b0 I
b0 x
b0 }
0J
03
b0 B
b0 ~
b0 I"
b0 A
b0 %"
b0 H"
b100 K
b100 C"
b10 =
b10 )"
b10 B"
b1000 5
b1000 S"
b1010 4
b1010 R"
1D
b1011100 >
b1011100 *"
b1100010011 /
b1100010011 #
b1100010011 ?
b1100010011 \"
bx 1
bx !"
bx &"
bx ;"
bx P"
b100000 U"
b10000000000 Z"
b10000000000000000000000000000011 Y"
b0 ?"
b1100011 A"
b101 N"
b1011 O"
b101 L"
b1011 M"
b110100 8
b110100 6"
b110100 7"
bx k
bx 9"
b10 m
b10 G"
b10 Q"
1(
1R
0W
b100100 U
b100100 5"
b0 O
b0 D"
b100011 T
b11 P
b1 Y
b1 <"
0c
1h
b101000 7
b101000 0"
b101000 e
b101000 ."
b0 f
b0 z
b0 g
b0 #"
b0 +"
b0 _
b0 F"
b0 ^
b0 E"
b0 `
b0 ="
b101 ]
b101 K"
b10011 a
b10011 J"
b101100 j
b100101100101101111001100011 i
b100101100101101111001100011 ("
b110100 6
b110100 2"
b110100 4"
b110000 $
b110000 .
b110000 ["
b110000 9
b110000 3"
b110000 8"
1!
#1750
0!
#1800
b1 t
b1 v
1J
13
b0 >
b0 *"
b1 K
b1 C"
b0 =
b0 )"
b0 B"
0E
b1111111111111111111111111111111111111111111111111111111111110110 F
b1111111111111111111111111111111111111111111111111111111111110110 y
b10 B
b10 ~
b10 I"
b1000000010101011000001110110011 /
b1000000010101011000001110110011 #
b1000000010101011000001110110011 ?
b1000000010101011000001110110011 \"
0D
b0 5
b0 S"
b0 4
b0 R"
b1111111111111111111111111111111111111111111111111111111111110110 s
b1111111111111111111111111111111111111111111111111111111111110101 r
b1111111111111111111111111111111111111111111111111111111111110101 q
b1010 H
b1010 u
b1010 $"
b111000 8
b111000 6"
b111000 7"
b10011 A"
b0 N"
b0 O"
b0 L"
b0 M"
12
b0 I
b0 x
b0 }
b1010 @
b1010 '"
b1010 -"
b101 ?"
b111000 6
b111000 2"
b111000 4"
b110100 $
b110100 .
b110100 ["
b110100 9
b110100 3"
b110100 8"
b110000 j
b1100010011 i
b1100010011 ("
1[
b100 Y
b100 <"
0Z
0h
b101100 e
b101100 ."
b1000 f
b1000 z
b1010 g
b1010 #"
b1010 +"
b10001000 7
b10001000 0"
b1011100 \
b1011100 ,"
b1011100 /"
b1011 _
b1011 F"
b101 ^
b101 E"
b101 `
b101 ="
b11100 ]
b11100 K"
b1100011 a
b1100011 J"
0(
0R
1W
b101000 U
b101000 5"
1X
b0 %
b0 ,
b0 W"
b0 M
b0 {
b0 ""
b0 &
b0 +
b0 V"
b0 V
b101 O
b101 D"
b10011 T
b0 P
0o
b0 m
b0 G"
b0 Q"
1!
#1850
0!
#1900
1E
b0 t
0J
b0 q
b0 F
b0 y
bx =
bx )"
bx B"
b1010 5
b1010 S"
0-
b0 s
b0 r
b0 v
b0 H
b0 u
b0 $"
b0 B
b0 ~
b0 I"
b0 K
b0 C"
b0x0xx000xx0000000xxx >
b0x0xx000xx0000000xxx *"
b11111111111100111000001110010011 /
b11111111111100111000001110010011 #
b11111111111100111000001110010011 ?
b11111111111100111000001110010011 \"
b0 1
b0 !"
b0 &"
b0 ;"
b0 P"
b100000 U"
02
b0 @
b0 '"
b0 -"
b0 ?"
b110011 A"
b1011 N"
b101 O"
b1011 L"
b101 M"
b111100 8
b111100 6"
b111100 7"
1o
b0 k
b0 9"
b101 m
b101 G"
b101 Q"
1N
0W
b10001000 U
b10001000 5"
0X
b1111111111111111111111111111111111111111111111111111111111110110 %
b1111111111111111111111111111111111111111111111111111111111110110 ,
b1111111111111111111111111111111111111111111111111111111111110110 W"
b1111111111111111111111111111111111111111111111111111111111110110 M
b1111111111111111111111111111111111111111111111111111111111110110 {
b1111111111111111111111111111111111111111111111111111111111110110 ""
b1010 &
b1010 +
b1010 V"
b1010 V
b11100 O
b11100 D"
b1100011 T
b101 P
0[
b1 Y
b1 <"
1Z
1h
b110000 e
b110000 ."
b0 f
b0 z
b0 g
b0 #"
b0 +"
b110000 7
b110000 0"
b0 \
b0 ,"
b0 /"
b0 _
b0 F"
b0 ^
b0 E"
b0 `
b0 ="
b110 ]
b110 K"
b10011 a
b10011 J"
b110100 j
b1000000010101011000001110110011 i
b1000000010101011000001110110011 ("
b111100 6
b111100 2"
b111100 4"
b111000 $
b111000 .
b111000 ["
b111000 9
b111000 3"
b111000 8"
1!
#1950
0!
#2000
1G
b1111111111111111111111111111111111111111111111111111111111110101 v
b1111111111111111111111111111111111111111111111111111111111111111 t
1J
b0 =
b0 )"
b0 B"
0E
b1010 p
b1010 F
b1010 y
b100011100110101001001100011 /
b100011100110101001001100011 #
b100011100110101001001100011 ?
b100011100110101001001100011 \"
b1 K
b1 C"
bx 5
bx S"
bx 4
bx R"
b1111111111111111111111111111111111111111111111111111111111111111 >
b1111111111111111111111111111111111111111111111111111111111111111 *"
b1010 s
b1111111111111111111111111111111111111111111111111111111111111111 r
b1111111111111111111111111111111111111111111111111111111111110101 q
b0 H
b0 u
b0 $"
b1000000 8
b1000000 6"
b1000000 7"
b10011 A"
b111 N"
b11111 O"
b111 L"
b11111 M"
12
b1010 I
b1010 x
b1010 }
b0 @
b0 '"
b0 -"
1>"
b1111111111111111111111111111111111111111111111111111111111110110 1
b1111111111111111111111111111111111111111111111111111111111110110 !"
b1111111111111111111111111111111111111111111111111111111111110110 &"
b1111111111111111111111111111111111111111111111111111111111110110 ;"
b1111111111111111111111111111111111111111111111111111111111110110 P"
b1000000 6
b1000000 2"
b1000000 4"
b111100 $
b111100 .
b111100 ["
b111100 9
b111100 3"
b111100 8"
b111000 j
b11111111111100111000001110010011 i
b11111111111100111000001110010011 ("
b0 Y
b0 <"
0Z
b110100 e
b110100 ."
b1010 f
b1010 z
bx 7
bx 0"
b0x0xx000xx0000000xxx \
b0x0xx000xx0000000xxx ,"
b0x0xx000xx0000000xxx /"
b101 _
b101 F"
b1011 ^
b1011 E"
b1000 `
b1000 ="
b111 ]
b111 K"
b110011 a
b110011 J"
0N
1W
b110000 U
b110000 5"
1X
b0 %
b0 ,
b0 W"
b0 M
b0 {
b0 ""
b0 &
b0 +
b0 V"
b0 V
b110 O
b110 D"
b10011 T
b0 P
0o
b1111111111111111111111111111111111111111111111111111111111110110 k
b1111111111111111111111111111111111111111111111111111111111110110 9"
b11100 m
b11100 G"
b11100 Q"
1!
#2050
0!
