SS.vcd
$date
	Mon Sep 15 21:37:18 2025
$end
$version
	Icarus Verilog
$end
$timescale
	1s
$end
$scope module Multi_Stage_tb $end
$scope module Bus_Top $end
$var wire 1 ! clk $end
$var wire 1 " rst $end
$var wire 32 # CPU_IMEM_instruction [31:0] $end
$var wire 64 $ CPU_IMEM_address [63:0] $end
$var wire 64 % CPU_Bus_address [63:0] $end
$var wire 64 & CPU_Bus_WriteData [63:0] $end
$var wire 64 ' CPU_Bus_ReadData [63:0] $end
$var wire 1 ( CPU_Bus_MemWrite $end
$var wire 1 ) CPU_Bus_MemRead $end
$var wire 64 * Bus_DMEM_address [63:0] $end
$var wire 64 + Bus_DMEM_WriteData [63:0] $end
$var wire 64 , Bus_DMEM_ReadData [63:0] $end
$var wire 1 - Bus_DMEM_MemWrite $end
$var wire 1 . Bus_DMEM_MemRead $end
$scope module bus_interconnect $end
$var wire 1 . d_MemRead $end
$var wire 1 - d_MemWrite $end
$var wire 64 / d_WriteData [63:0] $end
$var wire 64 0 d_address [63:0] $end
$var wire 64 1 m_ReadData [63:0] $end
$var wire 64 2 m_address [63:0] $end
$var wire 64 3 m_WriteData [63:0] $end
$var wire 1 ( m_MemWrite $end
$var wire 1 ) m_MemRead $end
$var wire 64 4 d_ReadData [63:0] $end
$upscope $end
$scope module cpu $end
$var wire 1 ( DMEM_MemWrite $end
$var wire 64 5 DMEM_READ_DATA [63:0] $end
$var wire 64 6 DMEM_ReadData [63:0] $end
$var wire 64 7 DMEM_address [63:0] $end
$var wire 1 8 Flush $end
$var wire 64 9 IMEM_address [63:0] $end
$var wire 32 : INSTRUCTION_BUS [31:0] $end
$var wire 1 ! clk $end
$var wire 1 " rst $end
$var wire 1 ; stall $end
$var wire 64 < WRITE_DATA [63:0] $end
$var wire 1 = SUB $end
$var wire 1 > RegWrite $end
$var wire 64 ? READ_DATA2 [63:0] $end
$var wire 64 @ READ_DATA1 [63:0] $end
$var wire 64 A PC_NEXT_REG [63:0] $end
$var wire 64 B PC_NEXT_IMM [63:0] $end
$var wire 64 C PC_NEXT [63:0] $end
$var wire 64 D PC_CURR [63:0] $end
$var wire 1 E MemtoReg $end
$var wire 1 F MemWrite $end
$var wire 1 G MemRead $end
$var wire 2 H Imm_Src [1:0] $end
$var wire 64 I IMM_OUT [63:0] $end
$var wire 32 J IMEM_instruction [31:0] $end
$var wire 64 K ID_EX_READ_DATA2_IMM [63:0] $end
$var wire 1 L Forward_C $end
$var wire 2 M Forward_B [1:0] $end
$var wire 2 N Forward_A [1:0] $end
$var wire 64 O DMEM_WriteData [63:0] $end
$var wire 1 ) DMEM_MemRead $end
$var wire 1 P Branch $end
$var wire 1 Q ALU_ZERO $end
$var wire 64 R ALU_OUT [63:0] $end
$var wire 1 S ALU_CARRY $end
$var wire 64 T ALU_B [63:0] $end
$var wire 64 U ALU_A [63:0] $end
$var wire 1 V ALUSrc $end
$var wire 3 W ALUOp [2:0] $end
$var wire 3 X ALUCONTROL [2:0] $end
$var reg 64 Y EX_MEM_ALU_OUT [63:0] $end
$var reg 1 Z EX_MEM_Branch $end
$var reg 5 [ EX_MEM_INSTRUCTION_11_7 [4:0] $end
$var reg 5 \ EX_MEM_INSTRUCTION_24_20 [4:0] $end
$var reg 4 ] EX_MEM_INSTRUCTION_30_14_12 [3:0] $end
$var reg 1 ) EX_MEM_MemRead $end
$var reg 1 ^ EX_MEM_MemWrite $end
$var reg 1 _ EX_MEM_MemtoReg $end
$var reg 7 ` EX_MEM_OPCODE [6:0] $end
$var reg 64 a EX_MEM_PC_NEXT_IMM [63:0] $end
$var reg 64 b EX_MEM_READ_DATA_2 [63:0] $end
$var reg 1 c EX_MEM_RegWrite $end
$var reg 1 d EX_MEM_zero $end
$var reg 3 e ID_EX_ALUOp [2:0] $end
$var reg 1 f ID_EX_ALUSrc $end
$var reg 1 g ID_EX_Branch $end
$var reg 64 h ID_EX_IMM_OUT [63:0] $end
$var reg 5 i ID_EX_INSTRUCTION_11_7 [4:0] $end
$var reg 5 j ID_EX_INSTRUCTION_19_15 [4:0] $end
$var reg 5 k ID_EX_INSTRUCTION_24_20 [4:0] $end
$var reg 4 l ID_EX_INSTRUCTION_30_14_12 [3:0] $end
$var reg 7 m ID_EX_INSTRUCTION_OPCODE [6:0] $end
$var reg 1 n ID_EX_MemRead $end
$var reg 1 o ID_EX_MemWrite $end
$var reg 1 p ID_EX_MemtoReg $end
$var reg 64 q ID_EX_PC_CURR [63:0] $end
$var reg 64 r ID_EX_READ_DATA1 [63:0] $end
$var reg 64 s ID_EX_READ_DATA2 [63:0] $end
$var reg 1 t ID_EX_RegWrite $end
$var reg 32 u IF_ID_INSTRUCTION_BUS [31:0] $end
$var reg 64 v IF_ID_PC_CURR [63:0] $end
$var reg 64 w MEM_WB_ALU_OUT [63:0] $end
$var reg 64 x MEM_WB_DMEM_READ_DATA [63:0] $end
$var reg 5 y MEM_WB_INSTRUCTION_11_7 [4:0] $end
$var reg 1 z MEM_WB_MemRead $end
$var reg 1 { MEM_WB_MemtoReg $end
$var reg 1 | MEM_WB_RegWrite $end
$scope module ALU $end
$var wire 64 } A_and_B [63:0] $end
$var wire 64 ~ A_xor_B [63:0] $end
$var wire 64 !" B_comp [63:0] $end
$var wire 64 "" sum [63:0] $end
$var wire 1 Q zero $end
$var wire 1 = sub $end
$var wire 1 S Carry_out $end
$var wire 64 #" Carry_intermediate [63:0] $end
$var wire 64 $" B [63:0] $end
$var wire 64 %" A_xor_B_and_cin [63:0] $end
$var wire 3 &" ALU_Sel [2:0] $end
$var wire 64 '" A [63:0] $end
$var reg 64 (" ALU_Out [63:0] $end
$upscope $end
$scope module ALU_Mux_A $end
$var wire 64 )" a [63:0] $end
$var wire 64 *" c [63:0] $end
$var wire 64 +" d [63:0] $end
$var wire 64 ," y [63:0] $end
$var wire 2 -" s [1:0] $end
$var wire 64 ." b [63:0] $end
$upscope $end
$scope module ALU_Mux_B $end
$var wire 64 /" c [63:0] $end
$var wire 64 0" d [63:0] $end
$var wire 64 1" y [63:0] $end
$var wire 2 2" s [1:0] $end
$var wire 64 3" b [63:0] $end
$var wire 64 4" a [63:0] $end
$upscope $end
$scope module DMEM_WriteData_Mux $end
$var wire 64 5" a [63:0] $end
$var wire 1 L s $end
$var wire 64 6" c [63:0] $end
$var wire 64 7" b [63:0] $end
$upscope $end
$scope module Imm_Gen $end
$var wire 32 8" imm_in [31:0] $end
$var wire 2 9" imm_src [1:0] $end
$var wire 64 :" imm_out [63:0] $end
$upscope $end
$scope module Imm_Sel $end
$var wire 64 ;" a [63:0] $end
$var wire 64 <" b [63:0] $end
$var wire 1 f s $end
$var wire 64 =" c [63:0] $end
$upscope $end
$scope module PC_Adder_Imm $end
$var wire 64 >" a [63:0] $end
$var wire 64 ?" b [63:0] $end
$var wire 64 @" c [63:0] $end
$upscope $end
$scope module PC_Adder_Regular $end
$var wire 64 A" b [63:0] $end
$var wire 64 B" c [63:0] $end
$var wire 64 C" a [63:0] $end
$upscope $end
$scope module PC_Update_Mux $end
$var wire 64 D" a [63:0] $end
$var wire 64 E" b [63:0] $end
$var wire 1 8 s $end
$var wire 64 F" c [63:0] $end
$upscope $end
$scope module PC_block $end
$var wire 64 G" PC_NEXT [63:0] $end
$var wire 1 ! clk $end
$var wire 1 " rst $end
$var wire 1 ; stall $end
$var reg 64 H" PC [63:0] $end
$upscope $end
$scope module Write_Back_Mux $end
$var wire 64 I" a [63:0] $end
$var wire 64 J" b [63:0] $end
$var wire 1 { s $end
$var wire 64 K" c [63:0] $end
$upscope $end
$scope module control_unit_alu $end
$var wire 3 L" ALUOp [2:0] $end
$var wire 4 M" funct [3:0] $end
$var wire 1 N" funct7_5 $end
$var wire 3 O" funct3 [2:0] $end
$var reg 3 P" ALUControl [2:0] $end
$var reg 1 = sub $end
$upscope $end
$scope module control_unit_main $end
$var wire 7 Q" opcode [6:0] $end
$var wire 1 > RegWrite $end
$var wire 1 E MemtoReg $end
$var wire 1 F MemWrite $end
$var wire 1 G MemRead $end
$var wire 2 R" Imm_Src [1:0] $end
$var wire 1 P Branch $end
$var wire 1 V ALUSrc $end
$var wire 3 S" ALUOp [2:0] $end
$upscope $end
$scope module forwarding_unit $end
$var wire 1 ^ EX_MEM_MemWrite $end
$var wire 5 T" EX_MEM_RDes [4:0] $end
$var wire 5 U" EX_MEM_RS2 [4:0] $end
$var wire 1 c EX_MEM_RegWrite $end
$var wire 1 g ID_EX_Branch $end
$var wire 1 o ID_EX_MemWrite $end
$var wire 5 V" ID_EX_RS1 [4:0] $end
$var wire 5 W" ID_EX_RS2 [4:0] $end
$var wire 3 X" INSTR_TYPE [2:0] $end
$var wire 1 z MEM_WB_MemRead $end
$var wire 5 Y" MEM_WB_RDes [4:0] $end
$var wire 1 | MEM_WB_RegWrite $end
$var wire 1 L Forward_C $end
$var wire 2 Z" Forward_B_intermediate [1:0] $end
$var wire 2 [" Forward_B [1:0] $end
$var wire 2 \" Forward_A_intermediate [1:0] $end
$var wire 2 ]" Forward_A [1:0] $end
$upscope $end
$scope module hazard_detection_unit $end
$var wire 5 ^" ENTERING_RS1 [4:0] $end
$var wire 5 _" ENTERING_RS2 [4:0] $end
$var wire 7 `" ENTERING_opcode [6:0] $end
$var wire 1 n ID_EX_MemRead $end
$var wire 5 a" ID_EX_RD [4:0] $end
$var wire 5 b" IF_ID_RS1 [4:0] $end
$var wire 5 c" IF_ID_RS2 [4:0] $end
$var wire 1 P IF_ID_branch $end
$var wire 7 d" IF_ID_opcode [6:0] $end
$var wire 1 ; stall $end
$upscope $end
$scope module register_file $end
$var wire 5 e" ReadReg1 [4:0] $end
$var wire 5 f" ReadReg2 [4:0] $end
$var wire 1 | RegWrite $end
$var wire 64 g" WriteData [63:0] $end
$var wire 5 h" WriteReg [4:0] $end
$var wire 1 " rst $end
$var wire 64 i" ReadData2 [63:0] $end
$var wire 64 j" ReadData1 [63:0] $end
$var integer 32 k" fd [31:0] $end
$var integer 32 l" i [31:0] $end
$upscope $end
$upscope $end
$scope module data_memory $end
$var wire 1 . MemRead $end
$var wire 1 - MemWrite $end
$var wire 64 m" WriteData [63:0] $end
$var wire 64 n" address [63:0] $end
$var wire 1 " rst $end
$var wire 64 o" ReadData [63:0] $end
$var integer 32 p" fd [31:0] $end
$var integer 32 q" i [31:0] $end
$upscope $end
$scope module instruction_memory $end
$var wire 64 r" address [63:0] $end
$var wire 1 " rst $end
$var wire 32 s" instruction [31:0] $end
$upscope $end
$upscope $end
$upscope $end
$enddefinitions $end
$comment Show the parameter values. $end
$dumpall
$end
#0
$dumpvars
b0 s"
b1111111111111111111111111111111111111111111111111111111111111100 r"
bx q"
bx p"
b0 o"
b0 n"
b0 m"
b100000 l"
bx k"
b0 j"
b0 i"
b0 h"
b0 g"
b0 f"
b0 e"
b0 d"
b0 c"
b0 b"
b0 a"
b0 `"
b0 _"
b0 ^"
b0 ]"
b0 \"
b0 ["
b0 Z"
b0 Y"
b0 X"
b0 W"
b0 V"
b0 U"
b0 T"
bx S"
bx R"
b0 Q"
b0 P"
b0 O"
0N"
b0 M"
b0 L"
b0 K"
b0 J"
b0 I"
b1111111111111111111111111111111111111111111111111111111111111100 H"
b0 G"
b0 F"
b0 E"
b0 D"
b1111111111111111111111111111111111111111111111111111111111111100 C"
b0 B"
b100 A"
b0 @"
b0 ?"
b0 >"
b0 ="
b0 <"
b0 ;"
b0 :"
bx 9"
b0 8"
b0 7"
b0 6"
b0 5"
b0 4"
b0 3"
b0 2"
b0 1"
b0 0"
b0 /"
b0 ."
b0 -"
b0 ,"
b0 +"
b0 *"
b0 )"
b0 ("
b0 '"
b0 &"
b0 %"
b0 $"
b0 #"
b0 ""
b0 !"
b0 ~
b0 }
0|
0{
0z
b0 y
b0 x
b0 w
b0 v
b0 u
0t
b0 s
b0 r
b0 q
0p
0o
0n
b0 m
b0 l
b0 k
b0 j
b0 i
b0 h
0g
0f
b0 e
0d
0c
b0 b
b0 a
b0 `
0_
0^
b0 ]
b0 \
b0 [
0Z
b0 Y
b0 X
bx W
0V
b0 U
b0 T
0S
b0 R
1Q
0P
b0 O
b0 N
b0 M
0L
b0 K
b0 J
b0 I
bx H
0G
0F
0E
b1111111111111111111111111111111111111111111111111111111111111100 D
b0 C
b0 B
b0 A
b0 @
b0 ?
1>
0=
b0 <
0;
b0 :
b1111111111111111111111111111111111111111111111111111111111111100 9
08
b0 7
b0 6
b0 5
b0 4
b0 3
b0 2
b0 1
b0 0
b0 /
0.
0-
b0 ,
b0 +
b0 *
0)
0(
b0 '
b0 &
b0 %
b1111111111111111111111111111111111111111111111111111111111111100 $
b0 #
1"
1!
$end
#50
0!
#100
1!
#150
0!
#200
1!
#250
0!
#300
1!
#350
0!
#400
1!
#450
0!
#500
xS
bx #"
bx %"
xQ
bx ~
bx ""
bx !"
x=
bx X
bx &"
bx P"
b100 C
b100 F"
b100 G"
1d
bx e
bx L"
bx X"
1t
b1111111111111111111111111111111111111111111111111111111111111100 v
b100 A
b100 B"
b100 D"
b0 $
b0 9
b0 r"
b0 D
b0 C"
b0 H"
b0 ^"
b1000 _"
b10011 `"
b100000000000001010010011 :
b100000000000001010010011 #
b100000000000001010010011 J
b100000000000001010010011 s"
1!
0"
#550
0!
#600
b1 W
b1 S"
1V
b1010 _"
b0 H
b0 9"
b0 R"
b101000000000001100010011 :
b101000000000001100010011 #
b101000000000001100010011 J
b101000000000001100010011 s"
b1000 I
b1000 :"
b1000 C
b1000 F"
b1000 G"
b10011 Q"
b1000 f"
b1000 c"
b10011 d"
b1000 A
b1000 B"
b1000 D"
b100 $
b100 9
b100 r"
b100 D
b100 C"
b100 H"
b0 v
b100000000000001010010011 u
b100000000000001010010011 8"
b1111111111111111111111111111111111111111111111111111111111111100 B
b1111111111111111111111111111111111111111111111111111111111111100 @"
b1111111111111111111111111111111111111111111111111111111111111100 q
b1111111111111111111111111111111111111111111111111111111111111100 >"
1c
xd
1!
#650
0!
#700
0Q
0S
b1000 ""
b0 #"
b1000 ~
b1000 T
b1000 $"
b1000 1"
b101 ^"
b0 _"
b1000 !"
b0 %"
b1000 R
b1000 ("
b1000 K
b1000 4"
b1000 ="
b1010 I
b1010 :"
b101000010100010011 :
b101000010100010011 #
b101000010100010011 J
b101000010100010011 s"
0=
b0 X
b0 &"
b0 P"
b1010 f"
b1010 c"
b1100 C
b1100 F"
b1100 G"
1|
b1111111111111111111111111111111111111111111111111111111111111100 a
b1111111111111111111111111111111111111111111111111111111111111100 E"
b1 e
b1 L"
b1 X"
1f
b0 q
b0 >"
b1000 B
b1000 @"
b1000 h
b1000 <"
b1000 ?"
b1000 k
b1000 W"
b101 i
b101 a"
b10011 m
b100 v
b101000000000001100010011 u
b101000000000001100010011 8"
b1100 A
b1100 B"
b1100 D"
b1000 $
b1000 9
b1000 r"
b1000 D
b1000 C"
b1000 H"
1!
#750
0!
#800
b1010 R
b1010 ("
b1010 ""
b1010 ~
b110 ^"
b1010 !"
b110000010110010011 :
b110000010110010011 #
b110000010110010011 J
b110000010110010011 s"
b0 I
b0 :"
b1010 T
b1010 $"
b1010 1"
b10000 C
b10000 F"
b10000 G"
b101 e"
b0 f"
b101 b"
b0 c"
b1010 K
b1010 4"
b1010 ="
b10000 A
b10000 B"
b10000 D"
b1100 $
b1100 9
b1100 r"
b1100 D
b1100 C"
b1100 H"
b1000 v
b101000010100010011 u
b101000010100010011 8"
b100 q
b100 >"
b1110 B
b1110 @"
b1010 h
b1010 <"
b1010 ?"
b1010 k
b1010 W"
b110 i
b110 a"
b1000 a
b1000 E"
0d
b1000 *
b1000 0
b1000 n"
b1000 %
b1000 2
b1000 7
b1000 Y
b1000 *"
b1000 /"
b1000 \
b1000 U"
b101 [
b101 T"
b10011 `
1!
#850
0!
#900
b1000 U
b1000 '"
b1000 ,"
b1 N
b1 -"
b1 ]"
b1000 R
b1000 ("
0Q
b1 \"
b1000 ""
b1000 ~
b0 !"
b0 ^"
b10000 _"
b1101111 `"
b0 T
b0 $"
b0 1"
b1000000000000000001101111 :
b1000000000000000001101111 #
b1000000000000000001101111 J
b1000000000000000001101111 s"
b1000 <
b1000 ."
b1000 3"
b1000 7"
b1000 K"
b1000 g"
b100000 l"
b10000000000000000000000000000011 k"
b0 K
b0 4"
b0 ="
b110 e"
b110 b"
b10100 C
b10100 F"
b10100 G"
b1000 w
b1000 I"
b101 y
b101 Y"
b101 h"
b1110 a
b1110 E"
b1010 *
b1010 0
b1010 n"
b1010 %
b1010 2
b1010 7
b1010 Y
b1010 *"
b1010 /"
b1010 \
b1010 U"
b110 [
b110 T"
b1000 q
b1000 >"
b1000 B
b1000 @"
b0 h
b0 <"
b0 ?"
b0 k
b0 W"
b101 j
b101 V"
b1010 i
b1010 a"
b1100 v
b110000010110010011 u
b110000010110010011 8"
b10100 A
b10100 B"
b10100 D"
b10000 $
b10000 9
b10000 r"
b10000 D
b10000 C"
b10000 H"
1!
#950
0!
#1000
b1010 R
b1010 ("
b1010 ""
b101 W
b101 S"
0V
b1010 ~
b11101 _"
b10011 `"
b11 H
b11 9"
b11 R"
b1010 U
b1010 '"
b1010 ,"
b101110100000000100010010011 :
b101110100000000100010010011 #
b101110100000000100010010011 J
b101110100000000100010010011 s"
b10000 I
b10000 :"
b11000 C
b11000 F"
b11000 G"
b1101111 Q"
b0 e"
b10000 f"
b0 b"
b10000 c"
b1101111 d"
b1010 <
b1010 ."
b1010 3"
b1010 7"
b1010 K"
b1010 g"
b100000 l"
b11000 A
b11000 B"
b11000 D"
b10100 $
b10100 9
b10100 r"
b10100 D
b10100 C"
b10100 H"
b10000 v
b1000000000000000001101111 u
b1000000000000000001101111 8"
b1100 B
b1100 @"
b1100 q
b1100 >"
b110 j
b110 V"
b1011 i
b1011 a"
b1000 a
b1000 E"
b1000 *
b1000 0
b1000 n"
b1000 %
b1000 2
b1000 7
b1000 Y
b1000 *"
b1000 /"
b0 \
b0 U"
b1010 [
b1010 T"
b1010 w
b1010 I"
b110 y
b110 Y"
b110 h"
1!
#1050
0!
#1100
1Q
b0 R
b0 ("
b0 ""
b0 ~
b0 \"
b1 W
b1 S"
b1011101 I
b1011101 :"
1V
b0 U
b0 '"
b0 ,"
b0 !"
b0 H
b0 9"
b0 R"
b0 _"
b0 N
b0 -"
b0 ]"
b0 T
b0 $"
b0 1"
b10100010011 :
b10100010011 #
b10100010011 J
b10100010011 s"
b1000 <
b1000 ."
b1000 3"
b1000 7"
b1000 K"
b1000 g"
b100000 l"
b0 K
b0 4"
b0 ="
b10011 Q"
b11101 f"
b11101 c"
b10011 d"
b11100 C
b11100 F"
b11100 G"
b1000 w
b1000 I"
b1010 y
b1010 Y"
b1010 h"
b1100 a
b1100 E"
b1010 *
b1010 0
b1010 n"
b1010 %
b1010 2
b1010 7
b1010 Y
b1010 *"
b1010 /"
b1011 [
b1011 T"
b101 e
b101 L"
b101 X"
0f
b10000 q
b10000 >"
b100000 B
b100000 @"
b10000 h
b10000 <"
b10000 ?"
b10000 k
b10000 W"
b0 j
b0 V"
b0 i
b0 a"
b1101111 m
b10100 v
b101110100000000100010010011 u
b101110100000000100010010011 8"
b11100 A
b11100 B"
b11100 D"
b11000 $
b11000 9
b11000 r"
b11000 D
b11000 C"
b11000 H"
1!
#1150
0!
#1200
b1011101 R
b1011101 ("
0Q
b1011101 ""
b1011101 ~
b1011101 !"
b1110011 `"
b1011101 T
b1011101 $"
b1011101 1"
b1110011 :
b1110011 #
b1110011 J
b1110011 s"
b0 I
b0 :"
b0 N
b0 -"
b0 ]"
b1011101 K
b1011101 4"
b1011101 ="
b0 \"
b100000 C
b100000 F"
b100000 G"
b0 f"
b0 c"
18
b1010 <
b1010 ."
b1010 3"
b1010 7"
b1010 K"
b1010 g"
b100000 l"
b100000 A
b100000 B"
b100000 D"
b11100 $
b11100 9
b11100 r"
b11100 D
b11100 C"
b11100 H"
b11000 v
b10100010011 u
b10100010011 8"
b1 e
b1 L"
b1 X"
1f
b10100 q
b10100 >"
b1110001 B
b1110001 @"
b1011101 h
b1011101 <"
b1011101 ?"
b11101 k
b11101 W"
b10001 i
b10001 a"
b10011 m
b100000 a
b100000 E"
1d
b0 *
b0 0
b0 n"
b0 %
b0 2
b0 7
b0 Y
b0 *"
b0 /"
b10000 \
b10000 U"
b0 [
b0 T"
b1101111 `
b1010 w
b1010 I"
b1011 y
b1011 Y"
b1011 h"
1!
#1250
0!
#1300
b0 M
b0 2"
b0 ["
b0 R
b0 ("
1Q
b0 N
b0 -"
b0 ]"
b0 Z"
b0 ""
b0 \"
b0 ~
bx W
bx S"
0V
b0 !"
bx H
bx 9"
bx R"
b10 ^"
b11000 _"
b10011 `"
b0 T
b0 $"
b0 1"
b11111111100000010000000100010011 :
b11111111100000010000000100010011 #
b11111111100000010000000100010011 J
b11111111100000010000000100010011 s"
b0 <
b0 ."
b0 3"
b0 7"
b0 K"
b0 g"
b100100 C
b100100 F"
b100100 G"
08
b0 K
b0 4"
b0 ="
b0 Q"
b0 d"
b0 w
b0 I"
b0 y
b0 Y"
b0 h"
0c
b0 a
b0 E"
0d
b0 \
b0 U"
b0 `
b0 e
b0 L"
b0 X"
0f
0t
b0 q
b0 >"
b0 B
b0 @"
b0 h
b0 <"
b0 ?"
b0 k
b0 W"
b0 i
b0 a"
b0 m
b0 v
b0 u
b0 8"
b100100 A
b100100 B"
b100100 D"
b100000 $
b100000 9
b100000 r"
b100000 D
b100000 C"
b100000 H"
1!
#1350
0!
#1400
xS
bx #"
bx %"
b1 W
b1 S"
1V
b1 _"
b100011 `"
b0 H
b0 9"
b0 R"
xQ
bx ~
b100010011000000100011 :
b100010011000000100011 #
b100010011000000100011 J
b100010011000000100011 s"
b1111111111111111111111111111111111111111111111111111111111111000 I
b1111111111111111111111111111111111111111111111111111111111111000 :"
bx ""
bx !"
b101000 C
b101000 F"
b101000 G"
b10011 Q"
b10 e"
b11000 f"
b10 b"
b11000 c"
b10011 d"
x=
bx X
bx &"
bx P"
b101000 A
b101000 B"
b101000 D"
b100100 $
b100100 9
b100100 r"
b100100 D
b100100 C"
b100100 H"
b100000 v
b11111111100000010000000100010011 u
b11111111100000010000000100010011 8"
bx e
bx L"
bx X"
1t
1d
0|
1!
#1450
0!
#1500
0Q
0S
b1111111111111111111111111111111111111111111111111111111111111000 ""
b0 #"
b11 W
b11 S"
0>
b1111111111111111111111111111111111111111111111111111111111111000 ~
b1111111111111111111111111111111111111111111111111111111111111000 T
b1111111111111111111111111111111111111111111111111111111111111000 $"
b1111111111111111111111111111111111111111111111111111111111111000 1"
b1 H
b1 9"
b1 R"
b0 ^"
b0 _"
b10011 `"
b1111111111111111111111111111111111111111111111111111111111111000 !"
b0 %"
b1111111111111111111111111111111111111111111111111111111111111000 R
b1111111111111111111111111111111111111111111111111111111111111000 ("
b1111111111111111111111111111111111111111111111111111111111111000 K
b1111111111111111111111111111111111111111111111111111111111111000 4"
b1111111111111111111111111111111111111111111111111111111111111000 ="
1F
b0 I
b0 :"
b1010010011 :
b1010010011 #
b1010010011 J
b1010010011 s"
0=
b0 X
b0 &"
b0 P"
1N"
b100011 Q"
b1 f"
b1 c"
b100011 d"
b101100 C
b101100 F"
b101100 G"
1c
xd
b1 e
b1 L"
b1 X"
1f
b100000 q
b100000 >"
b11000 B
b11000 @"
b1111111111111111111111111111111111111111111111111111111111111000 h
b1111111111111111111111111111111111111111111111111111111111111000 <"
b1111111111111111111111111111111111111111111111111111111111111000 ?"
b11000 k
b11000 W"
b10 j
b10 V"
b1000 l
b1000 M"
b10 i
b10 a"
b10011 m
b100100 v
b100010011000000100011 u
b100010011000000100011 8"
b101100 A
b101100 B"
b101100 D"
b101000 $
b101000 9
b101000 r"
b101000 D
b101000 C"
b101000 H"
1!
#1550
0!
#1600
b1111111111111111111111111111111111111111111111111111111111111000 U
b1111111111111111111111111111111111111111111111111111111111111000 '"
b1111111111111111111111111111111111111111111111111111111111111000 ,"
b1111111111111111111111111111111111111111111111111111111111111000 R
b1111111111111111111111111111111111111111111111111111111111111000 ("
0Q
b1111111111111111111111111111111111111111111111111111111111111000 ""
b1 W
b1 S"
1>
b1111111111111111111111111111111111111111111111111111111111111000 ~
b10 N
b10 -"
b10 ]"
b101 ^"
b1011 _"
b1100011 `"
b0 H
b0 9"
b0 R"
1V
b0 I
b0 :"
b0 !"
b10 \"
b100101100101101001001100011 :
b100101100101101001001100011 #
b100101100101101001001100011 J
b100101100101101001001100011 s"
0F
b0 T
b0 $"
b0 1"
b110000 C
b110000 F"
b110000 G"
b10011 Q"
b0 e"
b0 f"
b0 b"
b0 c"
b10011 d"
b0 K
b0 4"
b0 ="
b11 O"
0N"
b110000 A
b110000 B"
b110000 D"
b101100 $
b101100 9
b101100 r"
b101100 D
b101100 C"
b101100 H"
b101000 v
b1010010011 u
b1010010011 8"
b11 e
b11 L"
b11 X"
1o
0t
b100100 q
b100100 >"
b100100 B
b100100 @"
b0 h
b0 <"
b0 ?"
b1 k
b1 W"
b11 l
b11 M"
b0 i
b0 a"
b100011 m
b11000 a
b11000 E"
0d
b1111111111111111111111111111111111111111111111111111111111111000 *
b1111111111111111111111111111111111111111111111111111111111111000 0
b1111111111111111111111111111111111111111111111111111111111111000 n"
b1111111111111111111111111111111111111111111111111111111111111000 %
b1111111111111111111111111111111111111111111111111111111111111000 2
b1111111111111111111111111111111111111111111111111111111111111000 7
b1111111111111111111111111111111111111111111111111111111111111000 Y
b1111111111111111111111111111111111111111111111111111111111111000 *"
b1111111111111111111111111111111111111111111111111111111111111000 /"
b11000 \
b11000 U"
b10 [
b10 T"
b10011 `
b1000 ]
1|
1!
#1650
0!
#1700
b0 R
b0 ("
1Q
b0 ""
b0 ~
b0 U
b0 '"
b0 ,"
b0 N
b0 -"
b0 ]"
b100 W
b100 S"
0V
0>
b0 \"
b0 Z"
b10 H
b10 9"
b10 R"
b1000 @
b1000 j"
b1010 ?
b1010 i"
b0 ^"
b0 _"
b10011 `"
1P
b1000100 I
b1000100 :"
b1100010011 :
b1100010011 #
b1100010011 J
b1100010011 s"
b1111111111111111111111111111111111111111111111111111111111111000 <
b1111111111111111111111111111111111111111111111111111111111111000 ."
b1111111111111111111111111111111111111111111111111111111111111000 3"
b1111111111111111111111111111111111111111111111111111111111111000 7"
b1111111111111111111111111111111111111111111111111111111111111000 K"
b1111111111111111111111111111111111111111111111111111111111111000 g"
b100000 l"
b10000000000 q"
b10000000000000000000000000000011 p"
b0 O"
b1100011 Q"
b101 e"
b1011 f"
b101 b"
b1011 c"
b1100011 d"
b110100 C
b110100 F"
b110100 G"
b1111111111111111111111111111111111111111111111111111111111111000 w
b1111111111111111111111111111111111111111111111111111111111111000 I"
b10 y
b10 Y"
b10 h"
1-
1(
1^
0c
b100100 a
b100100 E"
b1 \
b1 U"
b0 [
b0 T"
b100011 `
b11 ]
b1 e
b1 L"
b1 X"
0o
1t
b101000 B
b101000 @"
b101000 q
b101000 >"
b0 k
b0 W"
b0 j
b0 V"
b0 l
b0 M"
b101 i
b101 a"
b10011 m
b101100 v
b100101100101101001001100011 u
b100101100101101001001100011 8"
b110100 A
b110100 B"
b110100 D"
b110000 $
b110000 9
b110000 r"
b110000 D
b110000 C"
b110000 H"
1!
#1750
0!
#1800
0S
b1 %"
b1 #"
b1 W
b1 S"
1V
1>
b0 I
b0 :"
b10 N
b10 -"
b10 ]"
b1011 ^"
b101 _"
b110011 `"
b0 H
b0 9"
b0 R"
0Q
b0 }
b1111111111111111111111111111111111111111111111111111111111110110 R
b1111111111111111111111111111111111111111111111111111111111110110 ("
b10 \"
b1000000010101011000001110110011 :
b1000000010101011000001110110011 #
b1000000010101011000001110110011 J
b1000000010101011000001110110011 s"
0P
b0 @
b0 j"
b0 ?
b0 i"
b1111111111111111111111111111111111111111111111111111111111110110 ""
b1111111111111111111111111111111111111111111111111111111111110101 !"
b1111111111111111111111111111111111111111111111111111111111110101 ~
b1010 T
b1010 $"
b1010 1"
b111000 C
b111000 F"
b111000 G"
b10011 Q"
b0 e"
b0 f"
b0 b"
b0 c"
b10011 d"
1=
b0 U
b0 '"
b0 ,"
b1010 K
b1010 4"
b1010 ="
b101 O"
b111000 A
b111000 B"
b111000 D"
b110100 $
b110100 9
b110100 r"
b110100 D
b110100 C"
b110100 H"
b110000 v
b1100010011 u
b1100010011 8"
1g
b100 e
b100 L"
b100 X"
0f
0t
b101100 q
b101100 >"
b1000 r
b1000 )"
b1010 s
b1010 ;"
b1110000 B
b1110000 @"
b1000100 h
b1000100 <"
b1000100 ?"
b1011 k
b1011 W"
b101 j
b101 V"
b101 l
b101 M"
b100 i
b100 a"
b1100011 m
0-
0(
0^
1c
b101000 a
b101000 E"
1d
b0 *
b0 0
b0 n"
b0 %
b0 2
b0 7
b0 Y
b0 *"
b0 /"
b0 \
b0 U"
b101 [
b101 T"
b10011 `
b0 ]
0|
b0 y
b0 Y"
b0 h"
1!
#1850
0!
