SS.vcd
$date
	Thu Aug 28 00:18:12 2025
$end
$version
	Icarus Verilog
$end
$timescale
	1s
$end
$scope module Single_Stage_tb $end
$scope module Single_Stage_Top $end
$var wire 1 ! Flush $end
$var wire 1 " clk $end
$var wire 1 # rst $end
$var wire 1 $ stall $end
$var wire 64 % WRITE_DATA [63:0] $end
$var wire 1 & SUB $end
$var wire 1 ' RegWrite $end
$var wire 64 ( READ_DATA2 [63:0] $end
$var wire 64 ) READ_DATA1 [63:0] $end
$var wire 64 * PC_NEXT_REG [63:0] $end
$var wire 64 + PC_NEXT_IMM [63:0] $end
$var wire 64 , PC_NEXT [63:0] $end
$var wire 64 - PC_CURR [63:0] $end
$var wire 1 . MemtoReg $end
$var wire 1 / MemWrite $end
$var wire 1 0 MemRead $end
$var wire 2 1 Imm_Src [1:0] $end
$var wire 32 2 INSTRUCTION_BUS [31:0] $end
$var wire 64 3 IMM_OUT [63:0] $end
$var wire 64 4 ID_EX_READ_DATA2_IMM [63:0] $end
$var wire 2 5 Forward_B [1:0] $end
$var wire 2 6 Forward_A [1:0] $end
$var wire 64 7 DMEM_READ_DATA [63:0] $end
$var wire 1 8 Branch $end
$var wire 1 9 ALU_ZERO $end
$var wire 64 : ALU_OUT [63:0] $end
$var wire 1 ; ALU_CARRY $end
$var wire 64 < ALU_B [63:0] $end
$var wire 64 = ALU_A [63:0] $end
$var wire 1 > ALUSrc $end
$var wire 3 ? ALUOp [2:0] $end
$var wire 3 @ ALUCONTROL [2:0] $end
$var reg 64 A EX_MEM_ALU_OUT [63:0] $end
$var reg 1 B EX_MEM_Branch $end
$var reg 5 C EX_MEM_INSTRUCTION_11_7 [4:0] $end
$var reg 4 D EX_MEM_INSTRUCTION_30_14_12 [3:0] $end
$var reg 1 E EX_MEM_MemRead $end
$var reg 1 F EX_MEM_MemWrite $end
$var reg 1 G EX_MEM_MemtoReg $end
$var reg 7 H EX_MEM_OPCODE [6:0] $end
$var reg 64 I EX_MEM_PC_NEXT_IMM [63:0] $end
$var reg 64 J EX_MEM_READ_DATA_2 [63:0] $end
$var reg 1 K EX_MEM_RegWrite $end
$var reg 1 L EX_MEM_zero $end
$var reg 3 M ID_EX_ALUOp [2:0] $end
$var reg 1 N ID_EX_ALUSrc $end
$var reg 1 O ID_EX_Branch $end
$var reg 64 P ID_EX_IMM_OUT [63:0] $end
$var reg 5 Q ID_EX_INSTRUCTION_11_7 [4:0] $end
$var reg 5 R ID_EX_INSTRUCTION_19_15 [4:0] $end
$var reg 5 S ID_EX_INSTRUCTION_24_20 [4:0] $end
$var reg 4 T ID_EX_INSTRUCTION_30_14_12 [3:0] $end
$var reg 7 U ID_EX_INSTRUCTION_OPCODE [6:0] $end
$var reg 1 V ID_EX_MemRead $end
$var reg 1 W ID_EX_MemWrite $end
$var reg 1 X ID_EX_MemtoReg $end
$var reg 64 Y ID_EX_PC_CURR [63:0] $end
$var reg 64 Z ID_EX_READ_DATA1 [63:0] $end
$var reg 64 [ ID_EX_READ_DATA2 [63:0] $end
$var reg 1 \ ID_EX_RegWrite $end
$var reg 32 ] IF_ID_INSTRUCTION_BUS [31:0] $end
$var reg 64 ^ IF_ID_PC_CURR [63:0] $end
$var reg 64 _ MEM_WB_ALU_OUT [63:0] $end
$var reg 64 ` MEM_WB_DMEM_READ_DATA [63:0] $end
$var reg 5 a MEM_WB_INSTRUCTION_11_7 [4:0] $end
$var reg 1 b MEM_WB_MemtoReg $end
$var reg 1 c MEM_WB_RegWrite $end
$scope module ALU $end
$var wire 64 d A_and_B [63:0] $end
$var wire 64 e A_xor_B [63:0] $end
$var wire 64 f B_comp [63:0] $end
$var wire 64 g sum [63:0] $end
$var wire 1 9 zero $end
$var wire 1 & sub $end
$var wire 1 ; Carry_out $end
$var wire 64 h Carry_intermediate [63:0] $end
$var wire 64 i B [63:0] $end
$var wire 64 j A_xor_B_and_cin [63:0] $end
$var wire 3 k ALU_Sel [2:0] $end
$var wire 64 l A [63:0] $end
$var reg 64 m ALU_Out [63:0] $end
$upscope $end
$scope module ALU_Mux_A $end
$var wire 64 n a [63:0] $end
$var wire 64 o c [63:0] $end
$var wire 64 p d [63:0] $end
$var wire 64 q y [63:0] $end
$var wire 2 r s [1:0] $end
$var wire 64 s b [63:0] $end
$upscope $end
$scope module ALU_Mux_B $end
$var wire 64 t c [63:0] $end
$var wire 64 u d [63:0] $end
$var wire 64 v y [63:0] $end
$var wire 2 w s [1:0] $end
$var wire 64 x b [63:0] $end
$var wire 64 y a [63:0] $end
$upscope $end
$scope module Imm_Gen $end
$var wire 32 z imm_in [31:0] $end
$var wire 2 { imm_src [1:0] $end
$var wire 64 | imm_out [63:0] $end
$upscope $end
$scope module Imm_Sel $end
$var wire 64 } a [63:0] $end
$var wire 64 ~ b [63:0] $end
$var wire 1 N s $end
$var wire 64 !" c [63:0] $end
$upscope $end
$scope module PC_Adder_Imm $end
$var wire 64 "" a [63:0] $end
$var wire 64 #" b [63:0] $end
$var wire 64 $" c [63:0] $end
$upscope $end
$scope module PC_Adder_Regular $end
$var wire 64 %" b [63:0] $end
$var wire 64 &" c [63:0] $end
$var wire 64 '" a [63:0] $end
$upscope $end
$scope module PC_Update_Mux $end
$var wire 64 (" a [63:0] $end
$var wire 64 )" b [63:0] $end
$var wire 1 ! s $end
$var wire 64 *" c [63:0] $end
$upscope $end
$scope module PC_block $end
$var wire 64 +" PC_NEXT [63:0] $end
$var wire 1 " clk $end
$var wire 1 # rst $end
$var wire 1 $ stall $end
$var reg 64 ," PC [63:0] $end
$upscope $end
$scope module Write_Back_Mux $end
$var wire 64 -" a [63:0] $end
$var wire 64 ." b [63:0] $end
$var wire 1 b s $end
$var wire 64 /" c [63:0] $end
$upscope $end
$scope module control_unit_alu $end
$var wire 3 0" ALUOp [2:0] $end
$var wire 4 1" funct [3:0] $end
$var wire 1 2" funct7_5 $end
$var wire 3 3" funct3 [2:0] $end
$var reg 3 4" ALUControl [2:0] $end
$var reg 1 & sub $end
$upscope $end
$scope module control_unit_main $end
$var wire 7 5" opcode [6:0] $end
$var wire 1 ' RegWrite $end
$var wire 1 . MemtoReg $end
$var wire 1 / MemWrite $end
$var wire 1 0 MemRead $end
$var wire 2 6" Imm_Src [1:0] $end
$var wire 1 8 Branch $end
$var wire 1 > ALUSrc $end
$var wire 3 7" ALUOp [2:0] $end
$upscope $end
$scope module data_memory $end
$var wire 1 E MemRead $end
$var wire 1 F MemWrite $end
$var wire 64 8" WriteData [63:0] $end
$var wire 64 9" address [63:0] $end
$var wire 1 # rst $end
$var wire 1 L zero $end
$var wire 64 :" ReadData [63:0] $end
$var integer 32 ;" fd [31:0] $end
$var integer 32 <" i [31:0] $end
$upscope $end
$scope module forwarding_unit $end
$var wire 5 =" EX_MEM_RD [4:0] $end
$var wire 1 K EX_MEM_RegWrite $end
$var wire 5 >" ID_EX_RS1 [4:0] $end
$var wire 5 ?" ID_EX_RS2 [4:0] $end
$var wire 5 @" MEM_WB_RD [4:0] $end
$var wire 1 c MEM_WB_RegWrite $end
$var wire 2 A" Forward_B [1:0] $end
$var wire 2 B" Forward_A [1:0] $end
$upscope $end
$scope module hazard_detection_unit $end
$var wire 1 8 branch $end
$var wire 1 V mem_read_1 $end
$var wire 1 E mem_read_2 $end
$var wire 7 C" opcode [6:0] $end
$var wire 5 D" rd [4:0] $end
$var wire 5 E" rs1 [4:0] $end
$var wire 5 F" rs2 [4:0] $end
$var wire 1 $ stall $end
$upscope $end
$scope module instruction_memory $end
$var wire 64 G" PC [63:0] $end
$var wire 1 # rst $end
$var wire 32 H" instruction [31:0] $end
$upscope $end
$scope module register_file $end
$var wire 5 I" ReadReg1 [4:0] $end
$var wire 5 J" ReadReg2 [4:0] $end
$var wire 1 c RegWrite $end
$var wire 64 K" WriteData [63:0] $end
$var wire 5 L" WriteReg [4:0] $end
$var wire 1 # rst $end
$var wire 64 M" ReadData2 [63:0] $end
$var wire 64 N" ReadData1 [63:0] $end
$var integer 32 O" fd [31:0] $end
$var integer 32 P" i [31:0] $end
$upscope $end
$upscope $end
$upscope $end
$enddefinitions $end
$comment Show the parameter values. $end
$dumpall
$end
#0
$dumpvars
bx P"
bx O"
b0 N"
b0 M"
b0 L"
b0 K"
b0 J"
b0 I"
b0 H"
b1111111111111111111111111111111111111111111111111111111111111100 G"
b0 F"
b0 E"
b0 D"
b0 C"
b0 B"
b0 A"
b0 @"
b0 ?"
b0 >"
b0 ="
bx <"
bx ;"
b0 :"
b0 9"
b0 8"
bx 7"
bx 6"
b0 5"
b0 4"
b0 3"
02"
b0 1"
b0 0"
b0 /"
b0 ."
b0 -"
b1111111111111111111111111111111111111111111111111111111111111100 ,"
b0 +"
b0 *"
b0 )"
b0 ("
b1111111111111111111111111111111111111111111111111111111111111100 '"
b0 &"
b100 %"
b0 $"
b0 #"
b0 ""
b0 !"
b0 ~
b0 }
b0 |
bx {
b0 z
b0 y
b0 x
b0 w
b0 v
b0 u
b0 t
b0 s
b0 r
b0 q
b0 p
b0 o
b0 n
b0 m
b0 l
b0 k
b0 j
b0 i
b0 h
b0 g
b0 f
b0 e
b0 d
0c
0b
b0 a
b0 `
b0 _
b0 ^
b0 ]
0\
b0 [
b0 Z
b0 Y
0X
0W
0V
b0 U
b0 T
b0 S
b0 R
b0 Q
b0 P
0O
0N
b0 M
0L
0K
b0 J
b0 I
b0 H
0G
0F
0E
b0 D
b0 C
0B
b0 A
b0 @
bx ?
0>
b0 =
b0 <
0;
b0 :
19
08
b0 7
b0 6
b0 5
b0 4
b0 3
b0 2
bx 1
00
0/
0.
b1111111111111111111111111111111111111111111111111111111111111100 -
b0 ,
b0 +
b0 *
b0 )
b0 (
1'
0&
b0 %
0$
1#
1"
0!
$end
#50
0"
#100
1"
#150
0"
#200
1"
#250
0"
#300
1"
#350
0"
#400
1"
#450
0"
#500
x;
bx h
bx j
x9
bx e
bx g
bx f
x&
bx @
bx k
bx 4"
b100 ,
b100 *"
b100 +"
1L
bx M
bx 0"
1\
b1111111111111111111111111111111111111111111111111111111111111100 ^
b100 *
b100 &"
b100 ("
b0 -
b0 '"
b0 ,"
b0 G"
b100000000000001010010011 2
b100000000000001010010011 H"
1"
0#
#550
0"
#600
1>
b1 ?
b1 7"
b0 1
b0 {
b0 6"
bx (
bx M"
b101000000000001100010011 2
b101000000000001100010011 H"
b1000 3
b1000 |
b1000 ,
b1000 *"
b1000 +"
b10011 5"
b1000 J"
b1000 F"
b1000 *
b1000 &"
b1000 ("
b100 -
b100 '"
b100 ,"
b100 G"
b0 ^
b100000000000001010010011 ]
b100000000000001010010011 z
b1111111111111111111111111111111111111111111111111111111111111100 +
b1111111111111111111111111111111111111111111111111111111111111100 $"
b1111111111111111111111111111111111111111111111111111111111111100 Y
b1111111111111111111111111111111111111111111111111111111111111100 ""
1K
xL
1"
#650
0"
#700
09
0;
b1000 g
b1000 e
b0 h
b1000 f
b0 j
b1000 :
b1000 m
b1000 <
b1000 i
b1000 v
b1010 3
b1010 |
b101000010100010011 2
b101000010100010011 H"
0&
b0 @
b0 k
b0 4"
b1000 4
b1000 y
b1000 !"
b1010 J"
b1010 F"
b1100 ,
b1100 *"
b1100 +"
1c
b1111111111111111111111111111111111111111111111111111111111111100 I
b1111111111111111111111111111111111111111111111111111111111111100 )"
b1 M
b1 0"
1N
b0 Y
b0 ""
bx [
bx u
bx }
b1000 +
b1000 $"
b1000 P
b1000 ~
b1000 #"
b1000 S
b1000 ?"
b101 Q
b101 D"
b10011 U
b10011 C"
b100 ^
b101000000000001100010011 ]
b101000000000001100010011 z
b1100 *
b1100 &"
b1100 ("
b1000 -
b1000 '"
b1000 ,"
b1000 G"
1"
#750
0"
#800
b1010 :
b1010 m
b1010 g
b1010 e
bx )
bx N"
b0 (
b0 M"
b1010 f
b110000010110010011 2
b110000010110010011 H"
b0 3
b0 |
b1010 <
b1010 i
b1010 v
b10000 ,
b10000 *"
b10000 +"
b101 I"
b0 J"
b101 E"
b0 F"
b1010 4
b1010 y
b1010 !"
b10000 *
b10000 &"
b10000 ("
b1100 -
b1100 '"
b1100 ,"
b1100 G"
b1000 ^
b101000010100010011 ]
b101000010100010011 z
b100 Y
b100 ""
b1110 +
b1110 $"
b1010 P
b1010 ~
b1010 #"
b1010 S
b1010 ?"
b110 Q
b110 D"
b1000 I
b1000 )"
0L
b1000 A
b1000 o
b1000 t
b1000 9"
bx J
bx 8"
b101 C
b101 ="
b10011 H
1"
#850
0"
#900
b0 j
b1 6
b1 r
b1 B"
b0 h
b1000 :
b1000 m
09
b1000 g
b0 f
b0 d
b1000 e
b0 <
b0 i
b0 v
b1000000000000000011101111 2
b1000000000000000011101111 H"
b1000 %
b1000 s
b1000 x
b1000 /"
b1000 K"
b100000 P"
b10000000000000000000000000000011 O"
b1000 =
b1000 l
b1000 q
b0 4
b0 y
b0 !"
b110 I"
b110 E"
b10100 ,
b10100 *"
b10100 +"
b1000 _
b1000 -"
b101 a
b101 @"
b101 L"
b1110 I
b1110 )"
b1010 A
b1010 o
b1010 t
b1010 9"
b110 C
b110 ="
b1000 Y
b1000 ""
bx Z
bx n
b0 [
b0 u
b0 }
b1000 +
b1000 $"
b0 P
b0 ~
b0 #"
b0 S
b0 ?"
b101 R
b101 >"
b1010 Q
b1010 D"
b1100 ^
b110000010110010011 ]
b110000010110010011 z
b10100 *
b10100 &"
b10100 ("
b10000 -
b10000 '"
b10000 ,"
b10000 G"
1"
#950
0"
#1000
b1010 :
b1010 m
b1010 g
0>
b1010 e
b101 ?
b101 7"
b11 1
b11 {
b11 6"
b0 )
b0 N"
bx (
bx M"
b1010 =
b1010 l
b1010 q
b101110100000000100010010011 2
b101110100000000100010010011 H"
b10000 3
b10000 |
b11000 ,
b11000 *"
b11000 +"
b1101111 5"
b0 I"
b10000 J"
b0 E"
b10000 F"
b1010 %
b1010 s
b1010 x
b1010 /"
b1010 K"
b100000 P"
b11000 *
b11000 &"
b11000 ("
b10100 -
b10100 '"
b10100 ,"
b10100 G"
b10000 ^
b1000000000000000011101111 ]
b1000000000000000011101111 z
b1100 +
b1100 $"
b1100 Y
b1100 ""
b110 R
b110 >"
b1011 Q
b1011 D"
b1000 I
b1000 )"
b1000 A
b1000 o
b1000 t
b1000 9"
b0 J
b0 8"
b1010 C
b1010 ="
b1010 _
b1010 -"
b110 a
b110 @"
b110 L"
1"
#1050
0"
#1100
x9
bx :
bx m
bx g
bx e
b1011101 3
b1011101 |
1>
b0 =
b0 l
b0 q
bx f
b0 6
b0 r
b0 B"
b1 ?
b1 7"
b0 1
b0 {
b0 6"
bx <
bx i
bx v
b10100010011 2
b10100010011 H"
b1000 %
b1000 s
b1000 x
b1000 /"
b1000 K"
b100000 P"
bx 4
bx y
bx !"
b10011 5"
b11101 J"
b11101 F"
b11100 ,
b11100 *"
b11100 +"
b1000 _
b1000 -"
b1010 a
b1010 @"
b1010 L"
b1100 I
b1100 )"
b1010 A
b1010 o
b1010 t
b1010 9"
b1011 C
b1011 ="
b101 M
b101 0"
0N
b10000 Y
b10000 ""
b0 Z
b0 n
bx [
bx u
bx }
b100000 +
b100000 $"
b10000 P
b10000 ~
b10000 #"
b10000 S
b10000 ?"
b0 R
b0 >"
b1 Q
b1 D"
b1101111 U
b1101111 C"
b10100 ^
b101110100000000100010010011 ]
b101110100000000100010010011 z
b11100 *
b11100 &"
b11100 ("
b11000 -
b11000 '"
b11000 ,"
b11000 G"
1"
#1150
0"
#1200
b1011101 :
b1011101 m
09
b1011101 g
b1011101 e
b1011101 f
b0 (
b0 M"
b1011101 <
b1011101 i
b1011101 v
b1110011 2
b1110011 H"
b0 3
b0 |
b1011101 4
b1011101 y
b1011101 !"
b100000 ,
b100000 *"
b100000 +"
b0 J"
b0 F"
1!
b1010 %
b1010 s
b1010 x
b1010 /"
b1010 K"
b100000 P"
b100000 *
b100000 &"
b100000 ("
b11100 -
b11100 '"
b11100 ,"
b11100 G"
b11000 ^
b10100010011 ]
b10100010011 z
b1 M
b1 0"
1N
b10100 Y
b10100 ""
b1110001 +
b1110001 $"
b1011101 P
b1011101 ~
b1011101 #"
b11101 S
b11101 ?"
b10001 Q
b10001 D"
b10011 U
b10011 C"
b100000 I
b100000 )"
xL
bx A
bx o
bx t
bx 9"
bx J
bx 8"
b1 C
b1 ="
b1101111 H
b1010 _
b1010 -"
b1011 a
b1011 @"
b1011 L"
1"
#1250
0"
#1300
b0 :
b0 m
19
b0 g
b0 e
0>
b0 f
bx ?
bx 7"
bx 1
bx {
bx 6"
b0 6
b0 r
b0 B"
b0 <
b0 i
b0 v
b11111111100000010000000100010011 2
b11111111100000010000000100010011 H"
bx %
bx s
bx x
bx /"
bx K"
b100000 P"
b100100 ,
b100100 *"
b100100 +"
0!
b0 4
b0 y
b0 !"
b0 5"
bx _
bx -"
b1 a
b1 @"
b1 L"
0K
b0 I
b0 )"
0L
b0 A
b0 o
b0 t
b0 9"
b0 J
b0 8"
b0 C
b0 ="
b0 H
b0 M
b0 0"
0N
0\
b0 Y
b0 ""
b0 [
b0 u
b0 }
b0 +
b0 $"
b0 P
b0 ~
b0 #"
b0 S
b0 ?"
b0 Q
b0 D"
b0 U
b0 C"
b0 ^
b0 ]
b0 z
b100100 *
b100100 &"
b100100 ("
b100000 -
b100000 '"
b100000 ,"
b100000 G"
1"
#1350
0"
#1400
x;
bx h
bx j
1>
b1 ?
b1 7"
b0 1
b0 {
b0 6"
bx )
bx N"
bx (
bx M"
x9
bx e
b0 6
b0 r
b0 B"
b100010011000000100011 2
b100010011000000100011 H"
b1111111111111111111111111111111111111111111111111111111111111000 3
b1111111111111111111111111111111111111111111111111111111111111000 |
bx g
bx f
b101000 ,
b101000 *"
b101000 +"
b10011 5"
b10 I"
b11000 J"
b10 E"
b11000 F"
x&
bx @
bx k
bx 4"
b0 %
b0 s
b0 x
b0 /"
b0 K"
b101000 *
b101000 &"
b101000 ("
b100100 -
b100100 '"
b100100 ,"
b100100 G"
b100000 ^
b11111111100000010000000100010011 ]
b11111111100000010000000100010011 z
bx M
bx 0"
1\
1L
0c
b0 _
b0 -"
b0 a
b0 @"
b0 L"
1"
#1450
0"
#1500
bx000 h
b1111111111111111111111111111111111111111111111111111111111111000 f
0'
b11 ?
b11 7"
b1 1
b1 {
b1 6"
bx0000 j
bx000 d
bx :
bx m
b1111111111111111111111111111111111111111111111111111111111111000 <
b1111111111111111111111111111111111111111111111111111111111111000 i
b1111111111111111111111111111111111111111111111111111111111111000 v
1/
b0 3
b0 |
b1010010011 2
b1010010011 H"
0&
b0 @
b0 k
b0 4"
bx =
bx l
bx q
b1111111111111111111111111111111111111111111111111111111111111000 4
b1111111111111111111111111111111111111111111111111111111111111000 y
b1111111111111111111111111111111111111111111111111111111111111000 !"
12"
b100011 5"
b1 J"
b1 F"
b101100 ,
b101100 *"
b101100 +"
1K
xL
b1 M
b1 0"
1N
b100000 Y
b100000 ""
bx Z
bx n
bx [
bx u
bx }
b11000 +
b11000 $"
b1111111111111111111111111111111111111111111111111111111111111000 P
b1111111111111111111111111111111111111111111111111111111111111000 ~
b1111111111111111111111111111111111111111111111111111111111111000 #"
b11000 S
b11000 ?"
b10 R
b10 >"
b1000 T
b1000 1"
b10 Q
b10 D"
b10011 U
b10011 C"
b100100 ^
b100010011000000100011 ]
b100010011000000100011 z
b101100 *
b101100 &"
b101100 ("
b101000 -
b101000 '"
b101000 ,"
b101000 G"
1"
#1550
0"
#1600
0;
bx :
bx m
b0 j
b0 h
bx g
1'
bx e
b0 d
bx =
bx l
bx q
b1 ?
b1 7"
b0 1
b0 {
b0 6"
1>
b0 )
b0 N"
b0 (
b0 M"
b0 3
b0 |
b0 f
b10 6
b10 r
b10 B"
b100101100101101111001100011 2
b100101100101101111001100011 H"
0/
b0 <
b0 i
b0 v
b110000 ,
b110000 *"
b110000 +"
b10011 5"
b0 I"
b0 J"
b0 E"
b0 F"
b0 4
b0 y
b0 !"
b11 3"
02"
b110000 *
b110000 &"
b110000 ("
b101100 -
b101100 '"
b101100 ,"
b101100 G"
b101000 ^
b1010010011 ]
b1010010011 z
b11 M
b11 0"
1W
0\
b100100 Y
b100100 ""
b100100 +
b100100 $"
b0 P
b0 ~
b0 #"
b1 S
b1 ?"
b11 T
b11 1"
b0 Q
b0 D"
b100011 U
b100011 C"
b11000 I
b11000 )"
bx A
bx o
bx t
bx 9"
bx J
bx 8"
b10 C
b10 ="
b10011 H
b1000 D
1c
1"
#1650
0"
#1700
b0 :
b0 m
19
b0 g
b0 e
b0 =
b0 l
b0 q
0>
0'
b0 6
b0 r
b0 B"
b0 5
b0 w
b0 A"
b100 ?
b100 7"
b10 1
b10 {
b10 6"
b1000 )
b1000 N"
b1010 (
b1010 M"
18
b1011100 3
b1011100 |
b1100010011 2
b1100010011 H"
bx %
bx s
bx x
bx /"
bx K"
b100000 P"
b10000000000 <"
b10000000000000000000000000000011 ;"
b0 3"
b1100011 5"
b101 I"
b1011 J"
b101 E"
b1011 F"
b110100 ,
b110100 *"
b110100 +"
bx _
bx -"
b10 a
b10 @"
b10 L"
1F
0K
b100100 I
b100100 )"
b0 C
b0 ="
b100011 H
b11 D
b1 M
b1 0"
0W
1\
b101000 +
b101000 $"
b101000 Y
b101000 ""
b0 Z
b0 n
b0 [
b0 u
b0 }
b0 S
b0 ?"
b0 R
b0 >"
b0 T
b0 1"
b101 Q
b101 D"
b10011 U
b10011 C"
b101100 ^
b100101100101101111001100011 ]
b100101100101101111001100011 z
b110100 *
b110100 &"
b110100 ("
b110000 -
b110000 '"
b110000 ,"
b110000 G"
1"
#1750
0"
#1800
b1 h
b1 j
1>
1'
b0 3
b0 |
b1 ?
b1 7"
b0 1
b0 {
b0 6"
09
b1111111111111111111111111111111111111111111111111111111111110110 :
b1111111111111111111111111111111111111111111111111111111111110110 m
b10 6
b10 r
b10 B"
b1000000010101011000001110110011 2
b1000000010101011000001110110011 H"
08
b0 )
b0 N"
b0 (
b0 M"
b1111111111111111111111111111111111111111111111111111111111110110 g
b1111111111111111111111111111111111111111111111111111111111110101 f
b1111111111111111111111111111111111111111111111111111111111110101 e
b1010 <
b1010 i
b1010 v
b111000 ,
b111000 *"
b111000 +"
b10011 5"
b0 I"
b0 J"
b0 E"
b0 F"
1&
b0 =
b0 l
b0 q
b1010 4
b1010 y
b1010 !"
b101 3"
b111000 *
b111000 &"
b111000 ("
b110100 -
b110100 '"
b110100 ,"
b110100 G"
b110000 ^
b1100010011 ]
b1100010011 z
1O
b100 M
b100 0"
0N
0\
b101100 Y
b101100 ""
b1000 Z
b1000 n
b1010 [
b1010 u
b1010 }
b10001000 +
b10001000 $"
b1011100 P
b1011100 ~
b1011100 #"
b1011 S
b1011 ?"
b101 R
b101 >"
b101 T
b101 1"
b11100 Q
b11100 D"
b1100011 U
b1100011 C"
0F
1K
b101000 I
b101000 )"
1L
b0 A
b0 o
b0 t
b0 9"
b0 J
b0 8"
b101 C
b101 ="
b10011 H
b0 D
0c
b0 a
b0 @"
b0 L"
1"
#1850
0"
#1900
19
b0 h
0>
b0 e
b0 :
b0 m
bx 1
bx {
bx 6"
b1010 )
b1010 N"
0!
b0 g
b0 f
b0 j
b0 <
b0 i
b0 v
b0 6
b0 r
b0 B"
b0 ?
b0 7"
b0x0xx000xx0000000xxx 3
b0x0xx000xx0000000xxx |
b11111111111100111000001110010011 2
b11111111111100111000001110010011 H"
b0 %
b0 s
b0 x
b0 /"
b0 K"
b100000 P"
0&
b0 4
b0 y
b0 !"
b0 3"
b110011 5"
b1011 I"
b101 J"
b1011 E"
b101 F"
b111100 ,
b111100 *"
b111100 +"
1c
b0 _
b0 -"
b101 a
b101 @"
b101 L"
1B
0K
b10001000 I
b10001000 )"
0L
b1111111111111111111111111111111111111111111111111111111111110110 A
b1111111111111111111111111111111111111111111111111111111111110110 o
b1111111111111111111111111111111111111111111111111111111111110110 t
b1111111111111111111111111111111111111111111111111111111111110110 9"
b1010 J
b1010 8"
b11100 C
b11100 ="
b1100011 H
b101 D
0O
b1 M
b1 0"
1N
1\
b110000 Y
b110000 ""
b0 Z
b0 n
b0 [
b0 u
b0 }
b110000 +
b110000 $"
b0 P
b0 ~
b0 #"
b0 S
b0 ?"
b0 R
b0 >"
b0 T
b0 1"
b110 Q
b110 D"
b10011 U
b10011 C"
b110100 ^
b1000000010101011000001110110011 ]
b1000000010101011000001110110011 z
b111100 *
b111100 &"
b111100 ("
b111000 -
b111000 '"
b111000 ,"
b111000 G"
1"
#1950
0"
#2000
1;
b1111111111111111111111111111111111111111111111111111111111110101 j
b1111111111111111111111111111111111111111111111111111111111111111 h
1>
b0 1
b0 {
b0 6"
09
b1010 d
b1010 :
b1010 m
b100011100110101001001100011 2
b100011100110101001001100011 H"
b1 ?
b1 7"
bx )
bx N"
bx (
bx M"
b1111111111111111111111111111111111111111111111111111111111111111 3
b1111111111111111111111111111111111111111111111111111111111111111 |
b1010 g
b1111111111111111111111111111111111111111111111111111111111111111 f
b1111111111111111111111111111111111111111111111111111111111110101 e
b0 <
b0 i
b0 v
b1000000 ,
b1000000 *"
b1000000 +"
b10011 5"
b111 I"
b11111 J"
b111 E"
b11111 F"
1&
b1010 =
b1010 l
b1010 q
b0 4
b0 y
b0 !"
12"
b1111111111111111111111111111111111111111111111111111111111110110 %
b1111111111111111111111111111111111111111111111111111111111110110 s
b1111111111111111111111111111111111111111111111111111111111110110 x
b1111111111111111111111111111111111111111111111111111111111110110 /"
b1111111111111111111111111111111111111111111111111111111111110110 K"
b1000000 *
b1000000 &"
b1000000 ("
b111100 -
b111100 '"
b111100 ,"
b111100 G"
b111000 ^
b11111111111100111000001110010011 ]
b11111111111100111000001110010011 z
b0 M
b0 0"
0N
b110100 Y
b110100 ""
b1010 Z
b1010 n
bx +
bx $"
b0x0xx000xx0000000xxx P
b0x0xx000xx0000000xxx ~
b0x0xx000xx0000000xxx #"
b101 S
b101 ?"
b1011 R
b1011 >"
b1000 T
b1000 1"
b111 Q
b111 D"
b110011 U
b110011 C"
0B
1K
b110000 I
b110000 )"
1L
b0 A
b0 o
b0 t
b0 9"
b0 J
b0 8"
b110 C
b110 ="
b10011 H
b0 D
0c
b1111111111111111111111111111111111111111111111111111111111110110 _
b1111111111111111111111111111111111111111111111111111111111110110 -"
b11100 a
b11100 @"
b11100 L"
1"
#2050
0"
#2100
1;
b1111111111111111111111111111111111111111111111111111111111111110 h
0>
0'
09
b1001 :
b1001 m
b100 ?
b100 7"
b10 1
b10 {
b10 6"
b10 6
b10 r
b10 B"
b1001 g
b1111111111111111111111111111111111111111111111111111111111111111 f
b1111111111111111111111111111111111111111111111111111111111110100 j
b1010 d
b1111111111111111111111111111111111111111111111111111111111110101 e
b1111111111111111111111111111111111111111111111111111111111111111 <
b1111111111111111111111111111111111111111111111111111111111111111 i
b1111111111111111111111111111111111111111111111111111111111111111 v
18
b0 )
b0 N"
b1000100 3
b1000100 |
b1100110001010000010011 2
b1100110001010000010011 H"
b0 %
b0 s
b0 x
b0 /"
b0 K"
b100000 P"
0&
b1010 =
b1010 l
b1010 q
b1111111111111111111111111111111111111111111111111111111111111111 4
b1111111111111111111111111111111111111111111111111111111111111111 y
b1111111111111111111111111111111111111111111111111111111111111111 !"
b1100011 5"
b110 I"
b111 J"
b110 E"
b111 F"
b1000100 ,
b1000100 *"
b1000100 +"
1c
b0 _
b0 -"
b110 a
b110 @"
b110 L"
bx I
bx )"
0L
b1010 A
b1010 o
b1010 t
b1010 9"
b111 C
b111 ="
b110011 H
b1000 D
b1 M
b1 0"
1N
b111000 Y
b111000 ""
bx Z
bx n
bx [
bx u
bx }
b110111 +
b110111 $"
b1111111111111111111111111111111111111111111111111111111111111111 P
b1111111111111111111111111111111111111111111111111111111111111111 ~
b1111111111111111111111111111111111111111111111111111111111111111 #"
b11111 S
b11111 ?"
b111 R
b111 >"
b10011 U
b10011 C"
b111100 ^
b100011100110101001001100011 ]
b100011100110101001001100011 z
b1000100 *
b1000100 &"
b1000100 ("
b1000000 -
b1000000 '"
b1000000 ,"
b1000000 G"
1"
#2150
0"
#2200
0;
09
1>
1'
b11 3
b11 |
b0 h
b1 ?
b1 7"
b0 1
b0 {
b0 6"
b1111111111111111111111111111111111111111111111111111111111110110 e
b0 d
b1111111111111111111111111111111111111111111111111111111111110111 :
b1111111111111111111111111111111111111111111111111111111111110111 m
b10 5
b10 w
b10 A"
b0 =
b0 l
b0 q
b100001010000010000110011 2
b100001010000010000110011 H"
08
b1111111111111111111111111111111111111111111111111111111111110111 g
b1111111111111111111111111111111111111111111111111111111111110110 f
b0 j
b1001 <
b1001 i
b1001 v
b0 6
b0 r
b0 B"
b1001000 ,
b1001000 *"
b1001000 +"
b10011 5"
b11 J"
b11 F"
1&
bx 4
bx y
bx !"
b101 3"
02"
b1010 %
b1010 s
b1010 x
b1010 /"
b1010 K"
b100000 P"
b1001000 *
b1001000 &"
b1001000 ("
b1000100 -
b1000100 '"
b1000100 ,"
b1000100 G"
b1000000 ^
b1100110001010000010011 ]
b1100110001010000010011 z
1O
b100 M
b100 0"
0N
0\
b111100 Y
b111100 ""
b0 Z
b0 n
b10000000 +
b10000000 $"
b1000100 P
b1000100 ~
b1000100 #"
b111 S
b111 ?"
b110 R
b110 >"
b101 T
b101 1"
b100 Q
b100 D"
b1100011 U
b1100011 C"
b110111 I
b110111 )"
b1001 A
b1001 o
b1001 t
b1001 9"
bx J
bx 8"
b10011 H
b1010 _
b1010 -"
b111 a
b111 @"
b111 L"
1"
#2250
0"
