SS.vcd
$date
	Mon Aug 25 15:15:37 2025
$end
$version
	Icarus Verilog
$end
$timescale
	1s
$end
$scope module Single_Stage_tb $end
$scope module Single_Stage_Top $end
$var wire 1 ! clk $end
$var wire 1 " rst $end
$var wire 1 # stall $end
$var wire 64 $ WRITE_DATA [63:0] $end
$var wire 1 % SUB $end
$var wire 1 & RegWrite $end
$var wire 64 ' READ_DATA2 [63:0] $end
$var wire 64 ( READ_DATA1 [63:0] $end
$var wire 64 ) PC_NEXT_REG [63:0] $end
$var wire 64 * PC_NEXT_IMM [63:0] $end
$var wire 64 + PC_NEXT [63:0] $end
$var wire 64 , PC_CURR [63:0] $end
$var wire 1 - MemtoReg $end
$var wire 1 . MemWrite $end
$var wire 1 / MemRead $end
$var wire 2 0 Imm_Src [1:0] $end
$var wire 32 1 INSTRUCTION_BUS [31:0] $end
$var wire 64 2 IMM_OUT [63:0] $end
$var wire 64 3 ID_EX_READ_DATA2_IMM [63:0] $end
$var wire 2 4 Forward_B [1:0] $end
$var wire 2 5 Forward_A [1:0] $end
$var wire 64 6 DMEM_READ_DATA [63:0] $end
$var wire 1 7 Branch $end
$var wire 1 8 ALU_ZERO $end
$var wire 64 9 ALU_OUT [63:0] $end
$var wire 1 : ALU_CARRY $end
$var wire 64 ; ALU_B [63:0] $end
$var wire 64 < ALU_A [63:0] $end
$var wire 1 = ALUSrc $end
$var wire 3 > ALUOp [2:0] $end
$var wire 3 ? ALUCONTROL [2:0] $end
$var reg 64 @ EX_MEM_ALU_OUT [63:0] $end
$var reg 1 A EX_MEM_Branch $end
$var reg 5 B EX_MEM_INSTRUCTION_11_7 [4:0] $end
$var reg 1 C EX_MEM_MemRead $end
$var reg 1 D EX_MEM_MemWrite $end
$var reg 1 E EX_MEM_MemtoReg $end
$var reg 7 F EX_MEM_OPCODE [6:0] $end
$var reg 64 G EX_MEM_PC_NEXT_IMM [63:0] $end
$var reg 64 H EX_MEM_READ_DATA_2 [63:0] $end
$var reg 1 I EX_MEM_RegWrite $end
$var reg 1 J EX_MEM_zero $end
$var reg 3 K ID_EX_ALUOp [2:0] $end
$var reg 1 L ID_EX_ALUSrc $end
$var reg 1 M ID_EX_Branch $end
$var reg 64 N ID_EX_IMM_OUT [63:0] $end
$var reg 5 O ID_EX_INSTRUCTION_11_7 [4:0] $end
$var reg 5 P ID_EX_INSTRUCTION_19_15 [4:0] $end
$var reg 5 Q ID_EX_INSTRUCTION_24_20 [4:0] $end
$var reg 4 R ID_EX_INSTRUCTION_30_14_12 [3:0] $end
$var reg 7 S ID_EX_INSTRUCTION_OPCODE [6:0] $end
$var reg 1 T ID_EX_MemRead $end
$var reg 1 U ID_EX_MemWrite $end
$var reg 1 V ID_EX_MemtoReg $end
$var reg 64 W ID_EX_PC_CURR [63:0] $end
$var reg 64 X ID_EX_READ_DATA1 [63:0] $end
$var reg 64 Y ID_EX_READ_DATA2 [63:0] $end
$var reg 1 Z ID_EX_RegWrite $end
$var reg 32 [ IF_ID_INSTRUCTION_BUS [31:0] $end
$var reg 64 \ IF_ID_PC_CURR [63:0] $end
$var reg 64 ] MEM_WB_ALU_OUT [63:0] $end
$var reg 64 ^ MEM_WB_DMEM_READ_DATA [63:0] $end
$var reg 5 _ MEM_WB_INSTRUCTION_11_7 [4:0] $end
$var reg 1 ` MEM_WB_MemtoReg $end
$var reg 1 a MEM_WB_RegWrite $end
$scope module ALU $end
$var wire 64 b A_and_B [63:0] $end
$var wire 64 c A_xor_B [63:0] $end
$var wire 64 d B_comp [63:0] $end
$var wire 64 e sum [63:0] $end
$var wire 1 8 zero $end
$var wire 1 % sub $end
$var wire 1 : Carry_out $end
$var wire 64 f Carry_intermediate [63:0] $end
$var wire 64 g B [63:0] $end
$var wire 64 h A_xor_B_and_cin [63:0] $end
$var wire 3 i ALU_Sel [2:0] $end
$var wire 64 j A [63:0] $end
$var reg 64 k ALU_Out [63:0] $end
$upscope $end
$scope module ALU_Mux_A $end
$var wire 64 l a [63:0] $end
$var wire 64 m c [63:0] $end
$var wire 64 n d [63:0] $end
$var wire 64 o y [63:0] $end
$var wire 2 p s [1:0] $end
$var wire 64 q b [63:0] $end
$upscope $end
$scope module ALU_Mux_B $end
$var wire 64 r c [63:0] $end
$var wire 64 s d [63:0] $end
$var wire 64 t y [63:0] $end
$var wire 2 u s [1:0] $end
$var wire 64 v b [63:0] $end
$var wire 64 w a [63:0] $end
$upscope $end
$scope module Imm_Gen $end
$var wire 32 x imm_in [31:0] $end
$var wire 2 y imm_src [1:0] $end
$var wire 64 z imm_out [63:0] $end
$upscope $end
$scope module Imm_Sel $end
$var wire 64 { a [63:0] $end
$var wire 64 | b [63:0] $end
$var wire 1 L s $end
$var wire 64 } c [63:0] $end
$upscope $end
$scope module PC_Adder_Imm $end
$var wire 64 ~ a [63:0] $end
$var wire 64 !" b [63:0] $end
$var wire 64 "" c [63:0] $end
$upscope $end
$scope module PC_Adder_Regular $end
$var wire 64 #" b [63:0] $end
$var wire 64 $" c [63:0] $end
$var wire 64 %" a [63:0] $end
$upscope $end
$scope module PC_Update_Mux $end
$var wire 64 &" a [63:0] $end
$var wire 64 '" b [63:0] $end
$var wire 1 (" s $end
$var wire 64 )" c [63:0] $end
$upscope $end
$scope module PC_block $end
$var wire 64 *" PC_NEXT [63:0] $end
$var wire 1 ! clk $end
$var wire 1 " rst $end
$var wire 1 # stall $end
$var reg 64 +" PC [63:0] $end
$upscope $end
$scope module Write_Back_Mux $end
$var wire 64 ," a [63:0] $end
$var wire 64 -" b [63:0] $end
$var wire 1 ` s $end
$var wire 64 ." c [63:0] $end
$upscope $end
$scope module control_unit_alu $end
$var wire 3 /" ALUOp [2:0] $end
$var wire 4 0" funct [3:0] $end
$var wire 1 1" funct7_5 $end
$var wire 3 2" funct3 [2:0] $end
$var reg 3 3" ALUControl [2:0] $end
$var reg 1 % sub $end
$upscope $end
$scope module control_unit_main $end
$var wire 7 4" opcode [6:0] $end
$var wire 1 & RegWrite $end
$var wire 1 - MemtoReg $end
$var wire 1 . MemWrite $end
$var wire 1 / MemRead $end
$var wire 2 5" Imm_Src [1:0] $end
$var wire 1 7 Branch $end
$var wire 1 = ALUSrc $end
$var wire 3 6" ALUOp [2:0] $end
$upscope $end
$scope module data_memory $end
$var wire 1 C MemRead $end
$var wire 1 D MemWrite $end
$var wire 64 7" WriteData [63:0] $end
$var wire 64 8" address [63:0] $end
$var wire 1 " rst $end
$var wire 1 J zero $end
$var wire 64 9" ReadData [63:0] $end
$var integer 32 :" fd [31:0] $end
$var integer 32 ;" i [31:0] $end
$upscope $end
$scope module forwarding_unit $end
$var wire 5 <" EX_MEM_RD [4:0] $end
$var wire 1 I EX_MEM_RegWrite $end
$var wire 5 =" ID_EX_RS1 [4:0] $end
$var wire 5 >" ID_EX_RS2 [4:0] $end
$var wire 5 ?" MEM_WB_RD [4:0] $end
$var wire 1 a MEM_WB_RegWrite $end
$var wire 2 @" Forward_B [1:0] $end
$var wire 2 A" Forward_A [1:0] $end
$upscope $end
$scope module hazard_detection_unit $end
$var wire 1 7 branch $end
$var wire 1 T mem_read_1 $end
$var wire 1 C mem_read_2 $end
$var wire 7 B" opcode [6:0] $end
$var wire 5 C" rd [4:0] $end
$var wire 5 D" rs1 [4:0] $end
$var wire 5 E" rs2 [4:0] $end
$var wire 1 # stall $end
$upscope $end
$scope module instruction_memory $end
$var wire 64 F" PC [63:0] $end
$var wire 1 " rst $end
$var wire 32 G" instruction [31:0] $end
$upscope $end
$scope module register_file $end
$var wire 5 H" ReadReg1 [4:0] $end
$var wire 5 I" ReadReg2 [4:0] $end
$var wire 1 a RegWrite $end
$var wire 64 J" WriteData [63:0] $end
$var wire 5 K" WriteReg [4:0] $end
$var wire 1 " rst $end
$var wire 64 L" ReadData2 [63:0] $end
$var wire 64 M" ReadData1 [63:0] $end
$var integer 32 N" fd [31:0] $end
$var integer 32 O" i [31:0] $end
$upscope $end
$upscope $end
$upscope $end
$enddefinitions $end
$comment Show the parameter values. $end
$dumpall
$end
#0
$dumpvars
bx O"
bx N"
b0 M"
b0 L"
b0 K"
b0 J"
b0 I"
b0 H"
b0 G"
b0 F"
b0 E"
b0 D"
b0 C"
b0 B"
b0 A"
b0 @"
b0 ?"
b0 >"
b0 ="
b0 <"
bx ;"
bx :"
b0 9"
b0 8"
b0 7"
bx 6"
bx 5"
b0 4"
b0 3"
b0 2"
01"
b0 0"
b0 /"
b0 ."
b0 -"
b0 ,"
b0 +"
b100 *"
b100 )"
0("
b0 '"
b100 &"
b0 %"
b100 $"
b100 #"
b0 ""
b0 !"
b0 ~
b0 }
b0 |
b0 {
b0 z
bx y
b0 x
b0 w
b0 v
b0 u
b0 t
b0 s
b0 r
b0 q
b0 p
b0 o
b0 n
b0 m
b0 l
b0 k
b0 j
b0 i
b0 h
b0 g
b0 f
b0 e
b0 d
b0 c
b0 b
0a
0`
b0 _
b0 ^
b0 ]
b0 \
b0 [
0Z
b0 Y
b0 X
b0 W
0V
0U
0T
b0 S
b0 R
b0 Q
b0 P
b0 O
b0 N
0M
0L
b0 K
0J
0I
b0 H
b0 G
b0 F
0E
0D
0C
b0 B
0A
b0 @
b0 ?
bx >
0=
b0 <
b0 ;
0:
b0 9
18
07
b0 6
b0 5
b0 4
b0 3
b0 2
b0 1
bx 0
0/
0.
0-
b0 ,
b100 +
b0 *
b100 )
b0 (
b0 '
1&
0%
b0 $
0#
1"
1!
$end
#50
0!
#100
1!
#150
0!
#200
1!
#250
0!
#300
1!
#350
0!
#400
1!
#450
0!
#500
x:
bx f
bx h
x8
bx c
bx e
bx d
x%
bx ?
bx i
bx 3"
b1000 +
b1000 )"
b1000 *"
1J
bx K
bx /"
1Z
b1000 )
b1000 $"
b1000 &"
b100 ,
b100 %"
b100 +"
b100 F"
b11000010011 1
b11000010011 G"
1!
0"
#550
0!
#600
1=
b1 >
b1 6"
b0 0
b0 y
b0 5"
b0 2
b0 z
b1100 +
b1100 )"
b1100 *"
b10011 4"
b1100 )
b1100 $"
b1100 &"
b1000 ,
b1000 %"
b1000 +"
b1000 F"
b100 \
b11000010011 [
b11000010011 x
b100 *
b100 ""
b100 W
b100 ~
1I
xJ
1!
#650
0!
#700
bx 9
bx k
b0 ?
b0 i
b0 3"
b10000 +
b10000 )"
b10000 *"
1a
b100 G
b100 '"
b1 K
b1 /"
1L
b1000 *
b1000 ""
b1000 W
b1000 ~
b1100 O
b1100 C"
b10011 S
b10011 B"
b1000 \
b10000 )
b10000 $"
b10000 &"
b1100 ,
b1100 %"
b1100 +"
b1100 F"
1!
#750
0!
#800
b10100 +
b10100 )"
b10100 *"
b10100 )
b10100 $"
b10100 &"
b10000 ,
b10000 %"
b10000 +"
b10000 F"
b1100 \
b1100 *
b1100 ""
b1100 W
b1100 ~
b1000 G
b1000 '"
bx @
bx m
bx r
bx 8"
b1100 B
b1100 <"
b10011 F
1!
#850
0!
#900
b11111111010111111111000001101111 1
b11111111010111111111000001101111 G"
bx $
bx q
bx v
bx ."
bx J"
b100000 O"
b10000000000000000000000000000011 N"
b11000 +
b11000 )"
b11000 *"
bx ]
bx ,"
b1100 _
b1100 ?"
b1100 K"
b1100 G
b1100 '"
b10000 *
b10000 ""
b10000 W
b10000 ~
b10000 \
b11000 )
b11000 $"
b11000 &"
b10100 ,
b10100 %"
b10100 +"
b10100 F"
1!
#950
0!
#1000
0=
b101 >
b101 6"
b11 0
b11 y
b11 5"
bx (
bx M"
bx '
bx L"
b11000010011 1
b11000010011 G"
b1111111111111111111111111111111111111111111111111111111111110100 2
b1111111111111111111111111111111111111111111111111111111111110100 z
b11100 +
b11100 )"
b11100 *"
b1101111 4"
b11111 H"
b10101 I"
b11111 D"
b10101 E"
b11100 )
b11100 $"
b11100 &"
b11000 ,
b11000 %"
b11000 +"
b11000 F"
b10100 \
b11111111010111111111000001101111 [
b11111111010111111111000001101111 x
b10100 *
b10100 ""
b10100 W
b10100 ~
b10000 G
b10000 '"
1!
#1050
0!
#1100
bx f
b0 2
b0 z
1=
b1 >
b1 6"
b0 0
b0 y
b0 5"
b0 (
b0 M"
b0 '
b0 L"
bx d
bx0 h
bx b
bx ;
bx g
bx t
bx 1
bx G"
0%
bx <
bx j
bx o
bx 3
bx w
bx }
b111 2"
11"
b10011 4"
b0 H"
b0 I"
b0 D"
b0 E"
b100000 +
b100000 )"
b100000 *"
b10100 G
b10100 '"
b101 K
b101 /"
0L
b11000 W
b11000 ~
bx X
bx l
bx Y
bx {
b1100 *
b1100 ""
b1111111111111111111111111111111111111111111111111111111111110100 N
b1111111111111111111111111111111111111111111111111111111111110100 s
b1111111111111111111111111111111111111111111111111111111111110100 |
b1111111111111111111111111111111111111111111111111111111111110100 !"
b10101 Q
b10101 >"
b11111 P
b11111 ="
b1111 R
b1111 0"
b0 O
b0 C"
b1101111 S
b1101111 B"
b11000 \
b11000010011 [
b11000010011 x
b100000 )
b100000 $"
b100000 &"
b11100 ,
b11100 %"
b11100 +"
b11100 F"
1!
#1150
0!
#1200
18
0:
b0 9
b0 k
b0 h
b0 e
x=
b0 f
b0 c
bx 0
bx y
bx 5"
x&
bx (
bx M"
bx '
bx L"
b0 d
x7
x/
x-
bx >
bx 6"
x.
bx 2
bx z
b0 b
b0 ;
b0 g
b0 t
b1100 +
b1100 )"
b1100 *"
bx 4"
bx H"
bx I"
bx D"
bx E"
b0 <
b0 j
b0 o
b0 3
b0 w
b0 }
b0 2"
01"
1("
b100100 )
b100100 $"
b100100 &"
b100000 ,
b100000 %"
b100000 +"
b100000 F"
b11100 \
bx [
bx x
b1 K
b1 /"
1L
b11100 W
b11100 ~
b0 X
b0 l
b0 Y
b0 {
b11100 *
b11100 ""
b0 N
b0 s
b0 |
b0 !"
b0 Q
b0 >"
b0 P
b0 ="
b0 R
b0 0"
b1100 O
b1100 C"
b10011 S
b10011 B"
b1100 G
b1100 '"
bx H
bx 7"
b0 B
b0 <"
b1101111 F
1!
#1250
0!
#1300
x:
bx f
x#
bx h
bx0 4
bx0 u
bx0 @"
x8
bx b
bx0 5
bx0 p
bx0 A"
bx e
bx d
bx c
bx ;
bx g
bx t
b11000010011 1
b11000010011 G"
b10000 +
b10000 )"
b10000 *"
0("
x%
bx ?
bx i
bx 3"
bx <
bx j
bx o
bx 3
bx w
bx }
bx 2"
x1"
b0 _
b0 ?"
b0 K"
b11100 G
b11100 '"
1J
b0 @
b0 m
b0 r
b0 8"
b0 H
b0 7"
b1100 B
b1100 <"
b10011 F
xM
xT
xV
bx K
bx /"
xU
xL
xZ
b100000 W
b100000 ~
bx X
bx l
bx Y
bx {
bx *
bx ""
bx N
bx s
bx |
bx !"
bx Q
bx >"
bx P
bx ="
bx R
bx 0"
bx O
bx C"
bx S
bx B"
b100000 \
b10000 )
b10000 $"
b10000 &"
b1100 ,
b1100 %"
b1100 +"
b1100 F"
1!
#1350
0!
#1400
bx 4
bx u
bx @"
1=
1&
bx 5
bx p
bx A"
b0 0
b0 y
b0 5"
b0 (
b0 M"
b0 '
b0 L"
07
0/
0-
b1 >
b1 6"
0.
b0 2
b0 z
b0x0x0 6
b0x0x0 9"
bx +
bx )"
bx *"
b10011 4"
b0 H"
b0 I"
b0 D"
b0 E"
x("
b0 $
b0 q
b0 v
b0 ."
b0 J"
b100000 O"
b10100 )
b10100 $"
b10100 &"
b10000 ,
b10000 %"
b10000 +"
b10000 F"
b1100 \
b11000010011 [
b11000010011 x
b1100 W
b1100 ~
xA
xC
xE
xD
xI
bx G
bx '"
xJ
bx H
bx 7"
bx B
bx <"
bx F
b0 ]
b0 ,"
b1100 _
b1100 ?"
b1100 K"
1!
#1450
0!
#1500
0#
b0x0x0 ;
b0x0x0 g
b0x0x0 t
b0x0x0 $
b0x0x0 q
b0x0x0 v
b0x0x0 ."
b0x0x0 J"
b0x0x0 b
bx 9
bx k
bx 1
bx G"
b0 ?
b0 i
b0 3"
b0x0x0 <
b0x0x0 j
b0x0x0 o
b0 3
b0 w
b0 }
b0 2"
01"
x`
xa
b0x0x0 ^
b0x0x0 -"
bx _
bx ?"
bx K"
0M
0T
0V
b1 K
b1 /"
0U
1L
1Z
b10000 W
b10000 ~
b0 X
b0 l
b0 Y
b0 {
b10000 *
b10000 ""
b0 N
b0 s
b0 |
b0 !"
b0 Q
b0 >"
b0 P
b0 ="
b0 R
b0 0"
b1100 O
b1100 C"
b10011 S
b10011 B"
b10000 \
bx )
bx $"
bx &"
bx ,
bx %"
bx +"
bx F"
1!
#1550
0!
#1600
x=
b0x0x0 b
bx 0
bx y
bx 5"
x&
bx (
bx M"
bx '
bx L"
b0x0x0 <
b0x0x0 j
b0x0x0 o
b0x0x0 ;
b0x0x0 g
b0x0x0 t
b0x 4
b0x u
b0x @"
x7
x/
x-
bx >
bx 6"
x.
bx 2
bx z
0("
b0 6
b0 9"
b0x 5
b0x p
b0x A"
bx 4"
bx H"
bx I"
bx D"
bx E"
bx \
bx [
bx x
bx *
bx ""
bx W
bx ~
0A
0C
0E
0D
1I
b10000 G
b10000 '"
bx @
bx m
bx r
bx 8"
b0 H
b0 7"
b1100 B
b1100 <"
b10011 F
1!
#1650
0!
#1700
x#
bx 4
bx u
bx @"
bx b
b0 9
b0 k
bx ;
bx g
bx t
bx 5
bx p
bx A"
bx $
bx q
bx v
bx ."
bx J"
b100000 O"
bx ?
bx i
bx 3"
bx <
bx j
bx o
bx 3
bx w
bx }
bx 2"
x1"
0`
1a
b0 ^
b0 -"
bx ]
bx ,"
b1100 _
b1100 ?"
b1100 K"
bx G
bx '"
xM
xT
xV
bx K
bx /"
xU
xL
xZ
bx X
bx l
bx Y
bx {
bx N
bx s
bx |
bx !"
bx Q
bx >"
bx P
bx ="
bx R
bx 0"
bx O
bx C"
bx S
bx B"
1!
#1750
0!
#1800
b0x0x0 6
b0x0x0 9"
x("
xA
xC
xE
xD
xI
b0 @
b0 m
b0 r
b0 8"
bx H
bx 7"
bx B
bx <"
bx F
1!
#1850
0!
#1900
b0x0x0 $
b0x0x0 q
b0x0x0 v
b0x0x0 ."
b0x0x0 J"
x`
xa
b0x0x0 ^
b0x0x0 -"
b0 ]
b0 ,"
bx _
bx ?"
bx K"
1!
