SS.vcd
$date
	Sun Sep 07 22:25:18 2025
$end
$version
	Icarus Verilog
$end
$timescale
	1s
$end
$scope module Multi_Stage_tb $end
$scope module Memory_Top $end
$var wire 1 ! clk $end
$var wire 1 " rst $end
$var wire 32 # CPU_IMEM_instruction [31:0] $end
$var wire 64 $ CPU_IMEM_address [63:0] $end
$var wire 64 % CPU_DMEM_address [63:0] $end
$var wire 64 & CPU_DMEM_WriteData [63:0] $end
$var wire 64 ' CPU_DMEM_ReadData [63:0] $end
$var wire 1 ( CPU_DMEM_MemWrite $end
$var wire 1 ) CPU_DMEM_MemRead $end
$scope module CPU_Top $end
$var wire 1 ( DMEM_MemWrite $end
$var wire 64 * DMEM_READ_DATA [63:0] $end
$var wire 64 + DMEM_WriteData [63:0] $end
$var wire 64 , DMEM_address [63:0] $end
$var wire 1 - Flush $end
$var wire 64 . IMEM_address [63:0] $end
$var wire 32 / INSTRUCTION_BUS [31:0] $end
$var wire 1 ! clk $end
$var wire 1 " rst $end
$var wire 1 0 stall $end
$var wire 64 1 WRITE_DATA [63:0] $end
$var wire 1 2 SUB $end
$var wire 1 3 RegWrite $end
$var wire 64 4 READ_DATA2 [63:0] $end
$var wire 64 5 READ_DATA1 [63:0] $end
$var wire 64 6 PC_NEXT_REG [63:0] $end
$var wire 64 7 PC_NEXT_IMM [63:0] $end
$var wire 64 8 PC_NEXT [63:0] $end
$var wire 64 9 PC_CURR [63:0] $end
$var wire 1 : MemtoReg $end
$var wire 1 ; MemWrite $end
$var wire 1 < MemRead $end
$var wire 2 = Imm_Src [1:0] $end
$var wire 64 > IMM_OUT [63:0] $end
$var wire 32 ? IMEM_instruction [31:0] $end
$var wire 64 @ ID_EX_READ_DATA2_IMM [63:0] $end
$var wire 2 A Forward_B [1:0] $end
$var wire 2 B Forward_A [1:0] $end
$var wire 64 C DMEM_ReadData [63:0] $end
$var wire 1 ) DMEM_MemRead $end
$var wire 1 D Branch $end
$var wire 1 E ALU_ZERO $end
$var wire 64 F ALU_OUT [63:0] $end
$var wire 1 G ALU_CARRY $end
$var wire 64 H ALU_B [63:0] $end
$var wire 64 I ALU_A [63:0] $end
$var wire 1 J ALUSrc $end
$var wire 3 K ALUOp [2:0] $end
$var wire 3 L ALUCONTROL [2:0] $end
$var reg 64 M EX_MEM_ALU_OUT [63:0] $end
$var reg 1 N EX_MEM_Branch $end
$var reg 5 O EX_MEM_INSTRUCTION_11_7 [4:0] $end
$var reg 4 P EX_MEM_INSTRUCTION_30_14_12 [3:0] $end
$var reg 1 ) EX_MEM_MemRead $end
$var reg 1 Q EX_MEM_MemWrite $end
$var reg 1 R EX_MEM_MemtoReg $end
$var reg 7 S EX_MEM_OPCODE [6:0] $end
$var reg 64 T EX_MEM_PC_NEXT_IMM [63:0] $end
$var reg 64 U EX_MEM_READ_DATA_2 [63:0] $end
$var reg 1 V EX_MEM_RegWrite $end
$var reg 1 W EX_MEM_zero $end
$var reg 3 X ID_EX_ALUOp [2:0] $end
$var reg 1 Y ID_EX_ALUSrc $end
$var reg 1 Z ID_EX_Branch $end
$var reg 64 [ ID_EX_IMM_OUT [63:0] $end
$var reg 5 \ ID_EX_INSTRUCTION_11_7 [4:0] $end
$var reg 5 ] ID_EX_INSTRUCTION_19_15 [4:0] $end
$var reg 5 ^ ID_EX_INSTRUCTION_24_20 [4:0] $end
$var reg 4 _ ID_EX_INSTRUCTION_30_14_12 [3:0] $end
$var reg 7 ` ID_EX_INSTRUCTION_OPCODE [6:0] $end
$var reg 1 a ID_EX_MemRead $end
$var reg 1 b ID_EX_MemWrite $end
$var reg 1 c ID_EX_MemtoReg $end
$var reg 64 d ID_EX_PC_CURR [63:0] $end
$var reg 64 e ID_EX_READ_DATA1 [63:0] $end
$var reg 64 f ID_EX_READ_DATA2 [63:0] $end
$var reg 1 g ID_EX_RegWrite $end
$var reg 32 h IF_ID_INSTRUCTION_BUS [31:0] $end
$var reg 64 i IF_ID_PC_CURR [63:0] $end
$var reg 64 j MEM_WB_ALU_OUT [63:0] $end
$var reg 64 k MEM_WB_DMEM_READ_DATA [63:0] $end
$var reg 5 l MEM_WB_INSTRUCTION_11_7 [4:0] $end
$var reg 1 m MEM_WB_MemtoReg $end
$var reg 1 n MEM_WB_RegWrite $end
$scope module ALU $end
$var wire 64 o A_and_B [63:0] $end
$var wire 64 p A_xor_B [63:0] $end
$var wire 64 q B_comp [63:0] $end
$var wire 64 r sum [63:0] $end
$var wire 1 E zero $end
$var wire 1 2 sub $end
$var wire 1 G Carry_out $end
$var wire 64 s Carry_intermediate [63:0] $end
$var wire 64 t B [63:0] $end
$var wire 64 u A_xor_B_and_cin [63:0] $end
$var wire 3 v ALU_Sel [2:0] $end
$var wire 64 w A [63:0] $end
$var reg 64 x ALU_Out [63:0] $end
$upscope $end
$scope module ALU_Mux_A $end
$var wire 64 y a [63:0] $end
$var wire 64 z c [63:0] $end
$var wire 64 { d [63:0] $end
$var wire 64 | y [63:0] $end
$var wire 2 } s [1:0] $end
$var wire 64 ~ b [63:0] $end
$upscope $end
$scope module ALU_Mux_B $end
$var wire 64 !" c [63:0] $end
$var wire 64 "" d [63:0] $end
$var wire 64 #" y [63:0] $end
$var wire 2 $" s [1:0] $end
$var wire 64 %" b [63:0] $end
$var wire 64 &" a [63:0] $end
$upscope $end
$scope module Imm_Gen $end
$var wire 32 '" imm_in [31:0] $end
$var wire 2 (" imm_src [1:0] $end
$var wire 64 )" imm_out [63:0] $end
$upscope $end
$scope module Imm_Sel $end
$var wire 64 *" a [63:0] $end
$var wire 64 +" b [63:0] $end
$var wire 1 Y s $end
$var wire 64 ," c [63:0] $end
$upscope $end
$scope module PC_Adder_Imm $end
$var wire 64 -" a [63:0] $end
$var wire 64 ." b [63:0] $end
$var wire 64 /" c [63:0] $end
$upscope $end
$scope module PC_Adder_Regular $end
$var wire 64 0" b [63:0] $end
$var wire 64 1" c [63:0] $end
$var wire 64 2" a [63:0] $end
$upscope $end
$scope module PC_Update_Mux $end
$var wire 64 3" a [63:0] $end
$var wire 64 4" b [63:0] $end
$var wire 1 - s $end
$var wire 64 5" c [63:0] $end
$upscope $end
$scope module PC_block $end
$var wire 64 6" PC_NEXT [63:0] $end
$var wire 1 ! clk $end
$var wire 1 " rst $end
$var wire 1 0 stall $end
$var reg 64 7" PC [63:0] $end
$upscope $end
$scope module Write_Back_Mux $end
$var wire 64 8" a [63:0] $end
$var wire 64 9" b [63:0] $end
$var wire 1 m s $end
$var wire 64 :" c [63:0] $end
$upscope $end
$scope module control_unit_alu $end
$var wire 3 ;" ALUOp [2:0] $end
$var wire 4 <" funct [3:0] $end
$var wire 1 =" funct7_5 $end
$var wire 3 >" funct3 [2:0] $end
$var reg 3 ?" ALUControl [2:0] $end
$var reg 1 2 sub $end
$upscope $end
$scope module control_unit_main $end
$var wire 7 @" opcode [6:0] $end
$var wire 1 3 RegWrite $end
$var wire 1 : MemtoReg $end
$var wire 1 ; MemWrite $end
$var wire 1 < MemRead $end
$var wire 2 A" Imm_Src [1:0] $end
$var wire 1 D Branch $end
$var wire 1 J ALUSrc $end
$var wire 3 B" ALUOp [2:0] $end
$upscope $end
$scope module forwarding_unit $end
$var wire 5 C" EX_MEM_RD [4:0] $end
$var wire 1 V EX_MEM_RegWrite $end
$var wire 5 D" ID_EX_RS1 [4:0] $end
$var wire 5 E" ID_EX_RS2 [4:0] $end
$var wire 5 F" MEM_WB_RD [4:0] $end
$var wire 1 n MEM_WB_RegWrite $end
$var wire 2 G" Forward_B [1:0] $end
$var wire 2 H" Forward_A [1:0] $end
$upscope $end
$scope module hazard_detection_unit $end
$var wire 1 a MemRead_ID_EX $end
$var wire 1 < MemRead_IF_ID $end
$var wire 5 I" RD_ID_EX [4:0] $end
$var wire 5 J" RD_IF_ID [4:0] $end
$var wire 5 K" RS1_ENTERING [4:0] $end
$var wire 5 L" RS2_ENTERING [4:0] $end
$var wire 1 D branch $end
$var wire 7 M" opcode_ENTERING [6:0] $end
$var wire 1 0 stall $end
$upscope $end
$scope module register_file $end
$var wire 5 N" ReadReg1 [4:0] $end
$var wire 5 O" ReadReg2 [4:0] $end
$var wire 1 n RegWrite $end
$var wire 64 P" WriteData [63:0] $end
$var wire 5 Q" WriteReg [4:0] $end
$var wire 1 " rst $end
$var wire 64 R" ReadData2 [63:0] $end
$var wire 64 S" ReadData1 [63:0] $end
$var integer 32 T" fd [31:0] $end
$var integer 32 U" i [31:0] $end
$upscope $end
$upscope $end
$scope module data_memory $end
$var wire 1 ) MemRead $end
$var wire 1 ( MemWrite $end
$var wire 64 V" WriteData [63:0] $end
$var wire 64 W" address [63:0] $end
$var wire 1 " rst $end
$var wire 64 X" ReadData [63:0] $end
$var integer 32 Y" fd [31:0] $end
$var integer 32 Z" i [31:0] $end
$upscope $end
$scope module instruction_memory $end
$var wire 64 [" address [63:0] $end
$var wire 1 " rst $end
$var wire 32 \" instruction [31:0] $end
$upscope $end
$upscope $end
$upscope $end
$enddefinitions $end
$comment Show the parameter values. $end
$dumpall
$end
#0
$dumpvars
b0 \"
b1111111111111111111111111111111111111111111111111111111111111100 ["
bx Z"
bx Y"
b0 X"
b0 W"
b0 V"
bx U"
bx T"
b0 S"
b0 R"
b0 Q"
b0 P"
b0 O"
b0 N"
b0 M"
b0 L"
b0 K"
b0 J"
b0 I"
b0 H"
b0 G"
b0 F"
b0 E"
b0 D"
b0 C"
bx B"
bx A"
b0 @"
b0 ?"
b0 >"
0="
b0 <"
b0 ;"
b0 :"
b0 9"
b0 8"
b1111111111111111111111111111111111111111111111111111111111111100 7"
b0 6"
b0 5"
b0 4"
b0 3"
b1111111111111111111111111111111111111111111111111111111111111100 2"
b0 1"
b100 0"
b0 /"
b0 ."
b0 -"
b0 ,"
b0 +"
b0 *"
b0 )"
bx ("
b0 '"
b0 &"
b0 %"
b0 $"
b0 #"
b0 ""
b0 !"
b0 ~
b0 }
b0 |
b0 {
b0 z
b0 y
b0 x
b0 w
b0 v
b0 u
b0 t
b0 s
b0 r
b0 q
b0 p
b0 o
0n
0m
b0 l
b0 k
b0 j
b0 i
b0 h
0g
b0 f
b0 e
b0 d
0c
0b
0a
b0 `
b0 _
b0 ^
b0 ]
b0 \
b0 [
0Z
0Y
b0 X
0W
0V
b0 U
b0 T
b0 S
0R
0Q
b0 P
b0 O
0N
b0 M
b0 L
bx K
0J
b0 I
b0 H
0G
b0 F
1E
0D
b0 C
b0 B
b0 A
b0 @
b0 ?
b0 >
bx =
0<
0;
0:
b1111111111111111111111111111111111111111111111111111111111111100 9
b0 8
b0 7
b0 6
b0 5
b0 4
13
02
b0 1
00
b0 /
b1111111111111111111111111111111111111111111111111111111111111100 .
0-
b0 ,
b0 +
b0 *
0)
0(
b0 '
b0 &
b0 %
b1111111111111111111111111111111111111111111111111111111111111100 $
b0 #
1"
1!
$end
#50
0!
#100
1!
#150
0!
#200
1!
#250
0!
#300
1!
#350
0!
#400
1!
#450
0!
#500
xG
bx s
bx u
xE
bx p
bx r
bx q
x2
bx L
bx v
bx ?"
b100 8
b100 5"
b100 6"
1W
bx X
bx ;"
1g
b1111111111111111111111111111111111111111111111111111111111111100 i
b100 6
b100 1"
b100 3"
b0 $
b0 .
b0 ["
b0 9
b0 2"
b0 7"
b0 K"
b1000 L"
b10011 M"
b100000000000001010010011 /
b100000000000001010010011 #
b100000000000001010010011 ?
b100000000000001010010011 \"
1!
0"
#550
0!
#600
1J
b1010 L"
b1 K
b1 B"
b0 =
b0 ("
b0 A"
bx 4
bx R"
b101000000000001100010011 /
b101000000000001100010011 #
b101000000000001100010011 ?
b101000000000001100010011 \"
b1000 >
b1000 )"
b1000 8
b1000 5"
b1000 6"
b10011 @"
b1000 O"
b101 J"
b1000 6
b1000 1"
b1000 3"
b100 $
b100 .
b100 ["
b100 9
b100 2"
b100 7"
b0 i
b100000000000001010010011 h
b100000000000001010010011 '"
b1111111111111111111111111111111111111111111111111111111111111100 7
b1111111111111111111111111111111111111111111111111111111111111100 /"
b1111111111111111111111111111111111111111111111111111111111111100 d
b1111111111111111111111111111111111111111111111111111111111111100 -"
1V
xW
1!
#650
0!
#700
0E
0G
b1000 r
b1000 p
b0 s
b1000 q
b101 K"
b0 L"
b0 u
b1000 F
b1000 x
b1000 H
b1000 t
b1000 #"
b1010 >
b1010 )"
b101000010100010011 /
b101000010100010011 #
b101000010100010011 ?
b101000010100010011 \"
02
b0 L
b0 v
b0 ?"
b1000 @
b1000 &"
b1000 ,"
b1010 O"
b110 J"
b1100 8
b1100 5"
b1100 6"
1n
b1111111111111111111111111111111111111111111111111111111111111100 T
b1111111111111111111111111111111111111111111111111111111111111100 4"
b1 X
b1 ;"
1Y
b0 d
b0 -"
bx f
bx ""
bx *"
b1000 7
b1000 /"
b1000 [
b1000 +"
b1000 ."
b1000 ^
b1000 E"
b101 \
b101 I"
b10011 `
b100 i
b101000000000001100010011 h
b101000000000001100010011 '"
b1100 6
b1100 1"
b1100 3"
b1000 $
b1000 .
b1000 ["
b1000 9
b1000 2"
b1000 7"
1!
#750
0!
#800
b1010 F
b1010 x
b1010 r
b1010 p
b110 K"
bx 5
bx S"
b0 4
b0 R"
b1010 q
b110000010110010011 /
b110000010110010011 #
b110000010110010011 ?
b110000010110010011 \"
b0 >
b0 )"
b1010 H
b1010 t
b1010 #"
b10000 8
b10000 5"
b10000 6"
b101 N"
b0 O"
b1010 J"
b1010 @
b1010 &"
b1010 ,"
b10000 6
b10000 1"
b10000 3"
b1100 $
b1100 .
b1100 ["
b1100 9
b1100 2"
b1100 7"
b1000 i
b101000010100010011 h
b101000010100010011 '"
b100 d
b100 -"
b1110 7
b1110 /"
b1010 [
b1010 +"
b1010 ."
b1010 ^
b1010 E"
b110 \
b110 I"
b1000 T
b1000 4"
0W
b1000 %
b1000 ,
b1000 W"
b1000 M
b1000 z
b1000 !"
bx &
bx +
bx V"
bx U
b101 O
b101 C"
b10011 S
1!
#850
0!
#900
b0 u
b1 B
b1 }
b1 H"
b0 s
b1000 F
b1000 x
0E
b1000 r
b0 q
b0 K"
b10000 L"
b1101111 M"
b0 o
b1000 p
b0 H
b0 t
b0 #"
b1000000000000000011101111 /
b1000000000000000011101111 #
b1000000000000000011101111 ?
b1000000000000000011101111 \"
b1000 1
b1000 ~
b1000 %"
b1000 :"
b1000 P"
b100000 U"
b10000000000000000000000000000011 T"
b1000 I
b1000 w
b1000 |
b0 @
b0 &"
b0 ,"
b110 N"
b1011 J"
b10100 8
b10100 5"
b10100 6"
b1000 j
b1000 8"
b101 l
b101 F"
b101 Q"
b1110 T
b1110 4"
b1010 %
b1010 ,
b1010 W"
b1010 M
b1010 z
b1010 !"
b110 O
b110 C"
b1000 d
b1000 -"
bx e
bx y
b0 f
b0 ""
b0 *"
b1000 7
b1000 /"
b0 [
b0 +"
b0 ."
b0 ^
b0 E"
b101 ]
b101 D"
b1010 \
b1010 I"
b1100 i
b110000010110010011 h
b110000010110010011 '"
b10100 6
b10100 1"
b10100 3"
b10000 $
b10000 .
b10000 ["
b10000 9
b10000 2"
b10000 7"
1!
#950
0!
#1000
b1010 F
b1010 x
b1010 r
0J
b1010 p
b11101 L"
b10011 M"
b101 K
b101 B"
b11 =
b11 ("
b11 A"
b0 5
b0 S"
bx 4
bx R"
b1010 I
b1010 w
b1010 |
b101110100000000100010010011 /
b101110100000000100010010011 #
b101110100000000100010010011 ?
b101110100000000100010010011 \"
b10000 >
b10000 )"
b11000 8
b11000 5"
b11000 6"
b1101111 @"
b0 N"
b10000 O"
b1 J"
b1010 1
b1010 ~
b1010 %"
b1010 :"
b1010 P"
b100000 U"
b11000 6
b11000 1"
b11000 3"
b10100 $
b10100 .
b10100 ["
b10100 9
b10100 2"
b10100 7"
b10000 i
b1000000000000000011101111 h
b1000000000000000011101111 '"
b1100 7
b1100 /"
b1100 d
b1100 -"
b110 ]
b110 D"
b1011 \
b1011 I"
b1000 T
b1000 4"
b1000 %
b1000 ,
b1000 W"
b1000 M
b1000 z
b1000 !"
b0 &
b0 +
b0 V"
b0 U
b1010 O
b1010 C"
b1010 j
b1010 8"
b110 l
b110 F"
b110 Q"
1!
#1050
0!
#1100
xE
bx F
bx x
bx r
bx p
b1011101 >
b1011101 )"
1J
b0 I
b0 w
b0 |
bx q
b0 B
b0 }
b0 H"
b1 K
b1 B"
b0 =
b0 ("
b0 A"
b0 L"
bx H
bx t
bx #"
b10100010011 /
b10100010011 #
b10100010011 ?
b10100010011 \"
b1000 1
b1000 ~
b1000 %"
b1000 :"
b1000 P"
b100000 U"
bx @
bx &"
bx ,"
b10011 @"
b11101 O"
b10001 J"
b11100 8
b11100 5"
b11100 6"
b1000 j
b1000 8"
b1010 l
b1010 F"
b1010 Q"
b1100 T
b1100 4"
b1010 %
b1010 ,
b1010 W"
b1010 M
b1010 z
b1010 !"
b1011 O
b1011 C"
b101 X
b101 ;"
0Y
b10000 d
b10000 -"
b0 e
b0 y
bx f
bx ""
bx *"
b100000 7
b100000 /"
b10000 [
b10000 +"
b10000 ."
b10000 ^
b10000 E"
b0 ]
b0 D"
b1 \
b1 I"
b1101111 `
b10100 i
b101110100000000100010010011 h
b101110100000000100010010011 '"
b11100 6
b11100 1"
b11100 3"
b11000 $
b11000 .
b11000 ["
b11000 9
b11000 2"
b11000 7"
1!
#1150
0!
#1200
b1011101 F
b1011101 x
0E
b1011101 r
b1011101 p
b1011101 q
b1110011 M"
b0 4
b0 R"
b1011101 H
b1011101 t
b1011101 #"
b1110011 /
b1110011 #
b1110011 ?
b1110011 \"
b0 >
b0 )"
b1011101 @
b1011101 &"
b1011101 ,"
b100000 8
b100000 5"
b100000 6"
b0 O"
b1010 J"
1-
b1010 1
b1010 ~
b1010 %"
b1010 :"
b1010 P"
b100000 U"
b100000 6
b100000 1"
b100000 3"
b11100 $
b11100 .
b11100 ["
b11100 9
b11100 2"
b11100 7"
b11000 i
b10100010011 h
b10100010011 '"
b1 X
b1 ;"
1Y
b10100 d
b10100 -"
b1110001 7
b1110001 /"
b1011101 [
b1011101 +"
b1011101 ."
b11101 ^
b11101 E"
b10001 \
b10001 I"
b10011 `
b100000 T
b100000 4"
xW
bx %
bx ,
bx W"
bx M
bx z
bx !"
bx &
bx +
bx V"
bx U
b1 O
b1 C"
b1101111 S
b1010 j
b1010 8"
b1011 l
b1011 F"
b1011 Q"
1!
#1250
0!
#1300
b0 F
b0 x
1E
b0 r
b0 p
0J
b0 q
bx K
bx B"
bx =
bx ("
bx A"
b10 K"
b11000 L"
b10011 M"
b0 B
b0 }
b0 H"
b0 H
b0 t
b0 #"
b11111111100000010000000100010011 /
b11111111100000010000000100010011 #
b11111111100000010000000100010011 ?
b11111111100000010000000100010011 \"
bx 1
bx ~
bx %"
bx :"
bx P"
b100000 U"
b100100 8
b100100 5"
b100100 6"
0-
b0 @
b0 &"
b0 ,"
b0 @"
b0 J"
bx j
bx 8"
b1 l
b1 F"
b1 Q"
0V
b0 T
b0 4"
0W
b0 %
b0 ,
b0 W"
b0 M
b0 z
b0 !"
b0 &
b0 +
b0 V"
b0 U
b0 O
b0 C"
b0 S
b0 X
b0 ;"
0Y
0g
b0 d
b0 -"
b0 f
b0 ""
b0 *"
b0 7
b0 /"
b0 [
b0 +"
b0 ."
b0 ^
b0 E"
b0 \
b0 I"
b0 `
b0 i
b0 h
b0 '"
b100100 6
b100100 1"
b100100 3"
b100000 $
b100000 .
b100000 ["
b100000 9
b100000 2"
b100000 7"
1!
#1350
0!
#1400
xG
bx s
bx u
1J
b1 L"
b100011 M"
b1 K
b1 B"
b0 =
b0 ("
b0 A"
bx 5
bx S"
bx 4
bx R"
xE
bx p
b0 B
b0 }
b0 H"
b100010011000000100011 /
b100010011000000100011 #
b100010011000000100011 ?
b100010011000000100011 \"
b1111111111111111111111111111111111111111111111111111111111111000 >
b1111111111111111111111111111111111111111111111111111111111111000 )"
bx r
bx q
b101000 8
b101000 5"
b101000 6"
b10011 @"
b10 N"
b11000 O"
b10 J"
x2
bx L
bx v
bx ?"
b0 1
b0 ~
b0 %"
b0 :"
b0 P"
b101000 6
b101000 1"
b101000 3"
b100100 $
b100100 .
b100100 ["
b100100 9
b100100 2"
b100100 7"
b100000 i
b11111111100000010000000100010011 h
b11111111100000010000000100010011 '"
bx X
bx ;"
1g
1W
0n
b0 j
b0 8"
b0 l
b0 F"
b0 Q"
1!
#1450
0!
#1500
bx000 s
b1111111111111111111111111111111111111111111111111111111111111000 q
03
b11 K
b11 B"
b1 =
b1 ("
b1 A"
b0 K"
b0 L"
b10011 M"
bx0000 u
bx000 o
bx F
bx x
b1111111111111111111111111111111111111111111111111111111111111000 H
b1111111111111111111111111111111111111111111111111111111111111000 t
b1111111111111111111111111111111111111111111111111111111111111000 #"
1;
b0 >
b0 )"
b1010010011 /
b1010010011 #
b1010010011 ?
b1010010011 \"
02
b0 L
b0 v
b0 ?"
bx I
bx w
bx |
b1111111111111111111111111111111111111111111111111111111111111000 @
b1111111111111111111111111111111111111111111111111111111111111000 &"
b1111111111111111111111111111111111111111111111111111111111111000 ,"
1="
b100011 @"
b1 O"
b0 J"
b101100 8
b101100 5"
b101100 6"
1V
xW
b1 X
b1 ;"
1Y
b100000 d
b100000 -"
bx e
bx y
bx f
bx ""
bx *"
b11000 7
b11000 /"
b1111111111111111111111111111111111111111111111111111111111111000 [
b1111111111111111111111111111111111111111111111111111111111111000 +"
b1111111111111111111111111111111111111111111111111111111111111000 ."
b11000 ^
b11000 E"
b10 ]
b10 D"
b1000 _
b1000 <"
b10 \
b10 I"
b10011 `
b100100 i
b100010011000000100011 h
b100010011000000100011 '"
b101100 6
b101100 1"
b101100 3"
b101000 $
b101000 .
b101000 ["
b101000 9
b101000 2"
b101000 7"
1!
#1550
0!
#1600
0G
bx F
bx x
b0 u
b0 s
bx r
13
bx p
b0 o
bx I
bx w
bx |
b101 K"
b1011 L"
b1100011 M"
b1 K
b1 B"
b0 =
b0 ("
b0 A"
1J
b0 5
b0 S"
b0 4
b0 R"
b0 >
b0 )"
b0 q
b10 B
b10 }
b10 H"
b100101100101101010001100011 /
b100101100101101010001100011 #
b100101100101101010001100011 ?
b100101100101101010001100011 \"
0;
b0 H
b0 t
b0 #"
b110000 8
b110000 5"
b110000 6"
b10011 @"
b0 N"
b0 O"
b101 J"
b0 @
b0 &"
b0 ,"
b11 >"
0="
b110000 6
b110000 1"
b110000 3"
b101100 $
b101100 .
b101100 ["
b101100 9
b101100 2"
b101100 7"
b101000 i
b1010010011 h
b1010010011 '"
b11 X
b11 ;"
1b
0g
b100100 d
b100100 -"
b100100 7
b100100 /"
b0 [
b0 +"
b0 ."
b1 ^
b1 E"
b11 _
b11 <"
b0 \
b0 I"
b100011 `
b11000 T
b11000 4"
bx %
bx ,
bx W"
bx M
bx z
bx !"
bx &
bx +
bx V"
bx U
b10 O
b10 C"
b10011 S
b1000 P
1n
1!
#1650
0!
#1700
b0 F
b0 x
1E
b0 r
b0 p
b0 I
b0 w
b0 |
0J
03
b0 B
b0 }
b0 H"
b0 A
b0 $"
b0 G"
b100 K
b100 B"
b10 =
b10 ("
b10 A"
b1000 5
b1000 S"
b1010 4
b1010 R"
b0 K"
b0 L"
b10011 M"
1D
b1001000 >
b1001000 )"
b1100010011 /
b1100010011 #
b1100010011 ?
b1100010011 \"
bx 1
bx ~
bx %"
bx :"
bx P"
b100000 U"
b10000000000 Z"
b10000000000000000000000000000011 Y"
b0 >"
b1100011 @"
b101 N"
b1011 O"
b1000 J"
b110100 8
b110100 5"
b110100 6"
bx j
bx 8"
b10 l
b10 F"
b10 Q"
1(
1Q
0V
b100100 T
b100100 4"
b0 O
b0 C"
b100011 S
b11 P
b1 X
b1 ;"
0b
1g
b101000 7
b101000 /"
b101000 d
b101000 -"
b0 e
b0 y
b0 f
b0 ""
b0 *"
b0 ^
b0 E"
b0 ]
b0 D"
b0 _
b0 <"
b101 \
b101 I"
b10011 `
b101100 i
b100101100101101010001100011 h
b100101100101101010001100011 '"
b110100 6
b110100 1"
b110100 3"
b110000 $
b110000 .
b110000 ["
b110000 9
b110000 2"
b110000 7"
1!
#1750
0!
#1800
b1 s
b1 u
1J
13
b0 >
b0 )"
b1011 K"
b101 L"
b110011 M"
b1 K
b1 B"
b0 =
b0 ("
b0 A"
0E
b1111111111111111111111111111111111111111111111111111111111110110 F
b1111111111111111111111111111111111111111111111111111111111110110 x
b10 B
b10 }
b10 H"
b1000000010101011000001110110011 /
b1000000010101011000001110110011 #
b1000000010101011000001110110011 ?
b1000000010101011000001110110011 \"
0D
b0 5
b0 S"
b0 4
b0 R"
b1111111111111111111111111111111111111111111111111111111111110110 r
b1111111111111111111111111111111111111111111111111111111111110101 q
b1111111111111111111111111111111111111111111111111111111111110101 p
b1010 H
b1010 t
b1010 #"
b111000 8
b111000 5"
b111000 6"
b10011 @"
b0 N"
b0 O"
b110 J"
12
b0 I
b0 w
b0 |
b1010 @
b1010 &"
b1010 ,"
b101 >"
b111000 6
b111000 1"
b111000 3"
b110100 $
b110100 .
b110100 ["
b110100 9
b110100 2"
b110100 7"
b110000 i
b1100010011 h
b1100010011 '"
1Z
b100 X
b100 ;"
0Y
0g
b101100 d
b101100 -"
b1000 e
b1000 y
b1010 f
b1010 ""
b1010 *"
b1110100 7
b1110100 /"
b1001000 [
b1001000 +"
b1001000 ."
b1011 ^
b1011 E"
b101 ]
b101 D"
b101 _
b101 <"
b1000 \
b1000 I"
b1100011 `
0(
0Q
1V
b101000 T
b101000 4"
1W
b0 %
b0 ,
b0 W"
b0 M
b0 z
b0 !"
b0 &
b0 +
b0 V"
b0 U
b101 O
b101 C"
b10011 S
b0 P
0n
b0 l
b0 F"
b0 Q"
1!
#1850
0!
#1900
1E
b0 s
0J
b0 p
b0 F
b0 x
bx =
bx ("
bx A"
b1010 5
b1010 S"
b111 K"
b11111 L"
b10011 M"
0-
b0 r
b0 q
b0 u
b0 H
b0 t
b0 #"
b0 B
b0 }
b0 H"
b0 K
b0 B"
b0x0xx000xx0000000xxx >
b0x0xx000xx0000000xxx )"
b11111111111100111000001110010011 /
b11111111111100111000001110010011 #
b11111111111100111000001110010011 ?
b11111111111100111000001110010011 \"
b0 1
b0 ~
b0 %"
b0 :"
b0 P"
b100000 U"
02
b0 @
b0 &"
b0 ,"
b0 >"
b110011 @"
b1011 N"
b101 O"
b111 J"
b111100 8
b111100 5"
b111100 6"
1n
b0 j
b0 8"
b101 l
b101 F"
b101 Q"
1N
0V
b1110100 T
b1110100 4"
0W
b1111111111111111111111111111111111111111111111111111111111110110 %
b1111111111111111111111111111111111111111111111111111111111110110 ,
b1111111111111111111111111111111111111111111111111111111111110110 W"
b1111111111111111111111111111111111111111111111111111111111110110 M
b1111111111111111111111111111111111111111111111111111111111110110 z
b1111111111111111111111111111111111111111111111111111111111110110 !"
b1010 &
b1010 +
b1010 V"
b1010 U
b1000 O
b1000 C"
b1100011 S
b101 P
0Z
b1 X
b1 ;"
1Y
1g
b110000 d
b110000 -"
b0 e
b0 y
b0 f
b0 ""
b0 *"
b110000 7
b110000 /"
b0 [
b0 +"
b0 ."
b0 ^
b0 E"
b0 ]
b0 D"
b0 _
b0 <"
b110 \
b110 I"
b10011 `
b110100 i
b1000000010101011000001110110011 h
b1000000010101011000001110110011 '"
b111100 6
b111100 1"
b111100 3"
b111000 $
b111000 .
b111000 ["
b111000 9
b111000 2"
b111000 7"
1!
#1950
0!
#2000
1G
b1111111111111111111111111111111111111111111111111111111111110101 u
b1111111111111111111111111111111111111111111111111111111111111111 s
1J
b110 K"
b111 L"
b1100011 M"
b0 =
b0 ("
b0 A"
0E
b1010 o
b1010 F
b1010 x
b10011100110101100001100011 /
b10011100110101100001100011 #
b10011100110101100001100011 ?
b10011100110101100001100011 \"
b1 K
b1 B"
bx 5
bx S"
bx 4
bx R"
b1111111111111111111111111111111111111111111111111111111111111111 >
b1111111111111111111111111111111111111111111111111111111111111111 )"
b1010 r
b1111111111111111111111111111111111111111111111111111111111111111 q
b1111111111111111111111111111111111111111111111111111111111110101 p
b0 H
b0 t
b0 #"
b1000000 8
b1000000 5"
b1000000 6"
b10011 @"
b111 N"
b11111 O"
12
b1010 I
b1010 w
b1010 |
b0 @
b0 &"
b0 ,"
1="
b1111111111111111111111111111111111111111111111111111111111110110 1
b1111111111111111111111111111111111111111111111111111111111110110 ~
b1111111111111111111111111111111111111111111111111111111111110110 %"
b1111111111111111111111111111111111111111111111111111111111110110 :"
b1111111111111111111111111111111111111111111111111111111111110110 P"
b1000000 6
b1000000 1"
b1000000 3"
b111100 $
b111100 .
b111100 ["
b111100 9
b111100 2"
b111100 7"
b111000 i
b11111111111100111000001110010011 h
b11111111111100111000001110010011 '"
b0 X
b0 ;"
0Y
b110100 d
b110100 -"
b1010 e
b1010 y
bx 7
bx /"
b0x0xx000xx0000000xxx [
b0x0xx000xx0000000xxx +"
b0x0xx000xx0000000xxx ."
b101 ^
b101 E"
b1011 ]
b1011 D"
b1000 _
b1000 <"
b111 \
b111 I"
b110011 `
0N
1V
b110000 T
b110000 4"
1W
b0 %
b0 ,
b0 W"
b0 M
b0 z
b0 !"
b0 &
b0 +
b0 V"
b0 U
b110 O
b110 C"
b10011 S
b0 P
0n
b1111111111111111111111111111111111111111111111111111111111110110 j
b1111111111111111111111111111111111111111111111111111111111110110 8"
b1000 l
b1000 F"
b1000 Q"
1!
#2050
0!
