SS.vcd
$date
	Wed Aug 27 18:50:15 2025
$end
$version
	Icarus Verilog
$end
$timescale
	1s
$end
$scope module Single_Stage_tb $end
$scope module Single_Stage_Top $end
$var wire 1 ! Flush $end
$var wire 1 " clk $end
$var wire 1 # rst $end
$var wire 1 $ stall $end
$var wire 64 % WRITE_DATA [63:0] $end
$var wire 1 & SUB $end
$var wire 1 ' RegWrite $end
$var wire 64 ( READ_DATA2 [63:0] $end
$var wire 64 ) READ_DATA1 [63:0] $end
$var wire 64 * PC_NEXT_REG [63:0] $end
$var wire 64 + PC_NEXT_IMM [63:0] $end
$var wire 64 , PC_NEXT [63:0] $end
$var wire 64 - PC_CURR [63:0] $end
$var wire 1 . MemtoReg $end
$var wire 1 / MemWrite $end
$var wire 1 0 MemRead $end
$var wire 2 1 Imm_Src [1:0] $end
$var wire 32 2 INSTRUCTION_BUS [31:0] $end
$var wire 64 3 IMM_OUT [63:0] $end
$var wire 64 4 ID_EX_READ_DATA2_IMM [63:0] $end
$var wire 2 5 Forward_B [1:0] $end
$var wire 2 6 Forward_A [1:0] $end
$var wire 64 7 DMEM_READ_DATA [63:0] $end
$var wire 1 8 Branch $end
$var wire 1 9 ALU_ZERO $end
$var wire 64 : ALU_OUT [63:0] $end
$var wire 1 ; ALU_CARRY $end
$var wire 64 < ALU_B [63:0] $end
$var wire 64 = ALU_A [63:0] $end
$var wire 1 > ALUSrc $end
$var wire 3 ? ALUOp [2:0] $end
$var wire 3 @ ALUCONTROL [2:0] $end
$var reg 64 A EX_MEM_ALU_OUT [63:0] $end
$var reg 1 B EX_MEM_Branch $end
$var reg 5 C EX_MEM_INSTRUCTION_11_7 [4:0] $end
$var reg 4 D EX_MEM_INSTRUCTION_30_14_12 [3:0] $end
$var reg 1 E EX_MEM_MemRead $end
$var reg 1 F EX_MEM_MemWrite $end
$var reg 1 G EX_MEM_MemtoReg $end
$var reg 7 H EX_MEM_OPCODE [6:0] $end
$var reg 64 I EX_MEM_PC_NEXT_IMM [63:0] $end
$var reg 64 J EX_MEM_READ_DATA_2 [63:0] $end
$var reg 1 K EX_MEM_RegWrite $end
$var reg 1 L EX_MEM_zero $end
$var reg 3 M ID_EX_ALUOp [2:0] $end
$var reg 1 N ID_EX_ALUSrc $end
$var reg 1 O ID_EX_Branch $end
$var reg 64 P ID_EX_IMM_OUT [63:0] $end
$var reg 5 Q ID_EX_INSTRUCTION_11_7 [4:0] $end
$var reg 5 R ID_EX_INSTRUCTION_19_15 [4:0] $end
$var reg 5 S ID_EX_INSTRUCTION_24_20 [4:0] $end
$var reg 4 T ID_EX_INSTRUCTION_30_14_12 [3:0] $end
$var reg 7 U ID_EX_INSTRUCTION_OPCODE [6:0] $end
$var reg 1 V ID_EX_MemRead $end
$var reg 1 W ID_EX_MemWrite $end
$var reg 1 X ID_EX_MemtoReg $end
$var reg 64 Y ID_EX_PC_CURR [63:0] $end
$var reg 64 Z ID_EX_READ_DATA1 [63:0] $end
$var reg 64 [ ID_EX_READ_DATA2 [63:0] $end
$var reg 1 \ ID_EX_RegWrite $end
$var reg 32 ] IF_ID_INSTRUCTION_BUS [31:0] $end
$var reg 64 ^ IF_ID_PC_CURR [63:0] $end
$var reg 64 _ MEM_WB_ALU_OUT [63:0] $end
$var reg 64 ` MEM_WB_DMEM_READ_DATA [63:0] $end
$var reg 5 a MEM_WB_INSTRUCTION_11_7 [4:0] $end
$var reg 1 b MEM_WB_MemtoReg $end
$var reg 1 c MEM_WB_RegWrite $end
$scope module ALU $end
$var wire 64 d A_and_B [63:0] $end
$var wire 64 e A_xor_B [63:0] $end
$var wire 64 f B_comp [63:0] $end
$var wire 64 g sum [63:0] $end
$var wire 1 9 zero $end
$var wire 1 & sub $end
$var wire 1 ; Carry_out $end
$var wire 64 h Carry_intermediate [63:0] $end
$var wire 64 i B [63:0] $end
$var wire 64 j A_xor_B_and_cin [63:0] $end
$var wire 3 k ALU_Sel [2:0] $end
$var wire 64 l A [63:0] $end
$var reg 64 m ALU_Out [63:0] $end
$upscope $end
$scope module ALU_Mux_A $end
$var wire 64 n a [63:0] $end
$var wire 64 o c [63:0] $end
$var wire 64 p d [63:0] $end
$var wire 64 q y [63:0] $end
$var wire 2 r s [1:0] $end
$var wire 64 s b [63:0] $end
$upscope $end
$scope module ALU_Mux_B $end
$var wire 64 t c [63:0] $end
$var wire 64 u d [63:0] $end
$var wire 64 v y [63:0] $end
$var wire 2 w s [1:0] $end
$var wire 64 x b [63:0] $end
$var wire 64 y a [63:0] $end
$upscope $end
$scope module Imm_Gen $end
$var wire 32 z imm_in [31:0] $end
$var wire 2 { imm_src [1:0] $end
$var wire 64 | imm_out [63:0] $end
$upscope $end
$scope module Imm_Sel $end
$var wire 64 } a [63:0] $end
$var wire 64 ~ b [63:0] $end
$var wire 1 N s $end
$var wire 64 !" c [63:0] $end
$upscope $end
$scope module PC_Adder_Imm $end
$var wire 64 "" a [63:0] $end
$var wire 64 #" b [63:0] $end
$var wire 64 $" c [63:0] $end
$upscope $end
$scope module PC_Adder_Regular $end
$var wire 64 %" b [63:0] $end
$var wire 64 &" c [63:0] $end
$var wire 64 '" a [63:0] $end
$upscope $end
$scope module PC_Update_Mux $end
$var wire 64 (" a [63:0] $end
$var wire 64 )" b [63:0] $end
$var wire 1 ! s $end
$var wire 64 *" c [63:0] $end
$upscope $end
$scope module PC_block $end
$var wire 64 +" PC_NEXT [63:0] $end
$var wire 1 " clk $end
$var wire 1 # rst $end
$var wire 1 $ stall $end
$var reg 64 ," PC [63:0] $end
$upscope $end
$scope module Write_Back_Mux $end
$var wire 64 -" a [63:0] $end
$var wire 64 ." b [63:0] $end
$var wire 1 b s $end
$var wire 64 /" c [63:0] $end
$upscope $end
$scope module control_unit_alu $end
$var wire 3 0" ALUOp [2:0] $end
$var wire 4 1" funct [3:0] $end
$var wire 1 2" funct7_5 $end
$var wire 3 3" funct3 [2:0] $end
$var reg 3 4" ALUControl [2:0] $end
$var reg 1 & sub $end
$upscope $end
$scope module control_unit_main $end
$var wire 7 5" opcode [6:0] $end
$var wire 1 ' RegWrite $end
$var wire 1 . MemtoReg $end
$var wire 1 / MemWrite $end
$var wire 1 0 MemRead $end
$var wire 2 6" Imm_Src [1:0] $end
$var wire 1 8 Branch $end
$var wire 1 > ALUSrc $end
$var wire 3 7" ALUOp [2:0] $end
$upscope $end
$scope module data_memory $end
$var wire 1 E MemRead $end
$var wire 1 F MemWrite $end
$var wire 64 8" WriteData [63:0] $end
$var wire 64 9" address [63:0] $end
$var wire 1 # rst $end
$var wire 1 L zero $end
$var wire 64 :" ReadData [63:0] $end
$var integer 32 ;" fd [31:0] $end
$var integer 32 <" i [31:0] $end
$upscope $end
$scope module forwarding_unit $end
$var wire 5 =" EX_MEM_RD [4:0] $end
$var wire 1 K EX_MEM_RegWrite $end
$var wire 5 >" ID_EX_RS1 [4:0] $end
$var wire 5 ?" ID_EX_RS2 [4:0] $end
$var wire 5 @" MEM_WB_RD [4:0] $end
$var wire 1 c MEM_WB_RegWrite $end
$var wire 2 A" Forward_B [1:0] $end
$var wire 2 B" Forward_A [1:0] $end
$upscope $end
$scope module hazard_detection_unit $end
$var wire 1 8 branch $end
$var wire 1 V mem_read_1 $end
$var wire 1 E mem_read_2 $end
$var wire 7 C" opcode [6:0] $end
$var wire 5 D" rd [4:0] $end
$var wire 5 E" rs1 [4:0] $end
$var wire 5 F" rs2 [4:0] $end
$var wire 1 $ stall $end
$upscope $end
$scope module instruction_memory $end
$var wire 64 G" PC [63:0] $end
$var wire 1 # rst $end
$var wire 32 H" instruction [31:0] $end
$upscope $end
$scope module register_file $end
$var wire 5 I" ReadReg1 [4:0] $end
$var wire 5 J" ReadReg2 [4:0] $end
$var wire 1 c RegWrite $end
$var wire 64 K" WriteData [63:0] $end
$var wire 5 L" WriteReg [4:0] $end
$var wire 1 # rst $end
$var wire 64 M" ReadData2 [63:0] $end
$var wire 64 N" ReadData1 [63:0] $end
$var integer 32 O" fd [31:0] $end
$var integer 32 P" i [31:0] $end
$upscope $end
$upscope $end
$upscope $end
$enddefinitions $end
$comment Show the parameter values. $end
$dumpall
$end
#0
$dumpvars
bx P"
bx O"
b0 N"
b0 M"
b0 L"
b0 K"
b0 J"
b0 I"
b0 H"
b1111111111111111111111111111111111111111111111111111111111111100 G"
b0 F"
b0 E"
b0 D"
b0 C"
b0 B"
b0 A"
b0 @"
b0 ?"
b0 >"
b0 ="
bx <"
bx ;"
b0 :"
b0 9"
b0 8"
bx 7"
bx 6"
b0 5"
b0 4"
b0 3"
02"
b0 1"
b0 0"
b0 /"
b0 ."
b0 -"
b1111111111111111111111111111111111111111111111111111111111111100 ,"
b0 +"
b0 *"
b0 )"
b0 ("
b1111111111111111111111111111111111111111111111111111111111111100 '"
b0 &"
b100 %"
b0 $"
b0 #"
b0 ""
b0 !"
b0 ~
b0 }
b0 |
bx {
b0 z
b0 y
b0 x
b0 w
b0 v
b0 u
b0 t
b0 s
b0 r
b0 q
b0 p
b0 o
b0 n
b0 m
b0 l
b0 k
b0 j
b0 i
b0 h
b0 g
b0 f
b0 e
b0 d
0c
0b
b0 a
b0 `
b0 _
b0 ^
b0 ]
0\
b0 [
b0 Z
b0 Y
0X
0W
0V
b0 U
b0 T
b0 S
b0 R
b0 Q
b0 P
0O
0N
b0 M
0L
0K
b0 J
b0 I
b0 H
0G
0F
0E
b0 D
b0 C
0B
b0 A
b0 @
bx ?
0>
b0 =
b0 <
0;
b0 :
19
08
b0 7
b0 6
b0 5
b0 4
b0 3
b0 2
bx 1
00
0/
0.
b1111111111111111111111111111111111111111111111111111111111111100 -
b0 ,
b0 +
b0 *
b0 )
b0 (
1'
0&
b0 %
0$
1#
1"
0!
$end
#50
0"
#100
1"
#150
0"
#200
1"
#250
0"
#300
1"
#350
0"
#400
1"
#450
0"
#500
x;
bx h
bx j
x9
bx e
bx g
bx f
x&
bx @
bx k
bx 4"
b100 ,
b100 *"
b100 +"
1L
bx M
bx 0"
1\
b1111111111111111111111111111111111111111111111111111111111111100 ^
b100 *
b100 &"
b100 ("
b0 -
b0 '"
b0 ,"
b0 G"
b0 2
b0 H"
1"
0#
#550
0"
#600
b10100010011 2
b10100010011 H"
b1000 ,
b1000 *"
b1000 +"
b1000 *
b1000 &"
b1000 ("
b100 -
b100 '"
b100 ,"
b100 G"
b0 ^
b1111111111111111111111111111111111111111111111111111111111111100 +
b1111111111111111111111111111111111111111111111111111111111111100 $"
b1111111111111111111111111111111111111111111111111111111111111100 Y
b1111111111111111111111111111111111111111111111111111111111111100 ""
1K
xL
1"
#650
0"
#700
1>
b1 ?
b1 7"
b0 1
b0 {
b0 6"
b0 3
b0 |
b1010011010110000011 2
b1010011010110000011 H"
b10011 5"
b1100 ,
b1100 *"
b1100 +"
1c
b1111111111111111111111111111111111111111111111111111111111111100 I
b1111111111111111111111111111111111111111111111111111111111111100 )"
b0 +
b0 $"
b0 Y
b0 ""
b100 ^
b10100010011 ]
b10100010011 z
b1100 *
b1100 &"
b1100 ("
b1000 -
b1000 '"
b1000 ,"
b1000 G"
1"
#750
0"
#800
19
0;
b0 g
b0 h
b10 ?
b10 7"
b0 e
b11000010011 2
b11000010011 H"
10
1.
b0 f
b0 j
b0 :
b0 m
b10000 ,
b10000 *"
b10000 +"
b11 5"
b1010 I"
b1010 E"
0&
b0 @
b0 k
b0 4"
b10000 *
b10000 &"
b10000 ("
b1100 -
b1100 '"
b1100 ,"
b1100 G"
b1000 ^
b1010011010110000011 ]
b1010011010110000011 z
b1 M
b1 0"
1N
b100 +
b100 $"
b100 Y
b100 ""
b1010 Q
b1010 D"
b10011 U
b10011 C"
b0 I
b0 )"
1"
#850
0"
#900
b10 6
b10 r
b10 B"
b1 ?
b1 7"
00
0.
b0 )
b0 N"
b100000000011010010011 2
b100000000011010010011 H"
b11 3"
b10011 5"
b0 I"
b0 E"
b10100 ,
b10100 *"
b10100 +"
b100 I
b100 )"
1L
b1010 C
b1010 ="
b10011 H
1V
1X
b10 M
b10 0"
b1000 +
b1000 $"
b1000 Y
b1000 ""
b1010 R
b1010 >"
b11 T
b11 1"
b1011 Q
b1011 D"
b11 U
b11 C"
b1100 ^
b11000010011 ]
b11000010011 z
b10100 *
b10100 &"
b10100 ("
b10000 -
b10000 '"
b10000 ,"
b10000 G"
1"
#950
0"
#1000
bx (
bx M"
b110101011100100001100011 2
b110101011100100001100011 H"
b1 3
b1 |
b1001 7
b1001 :"
b0 6
b0 r
b0 B"
b11000 ,
b11000 *"
b11000 +"
b1 J"
b1 F"
b0 3"
b100000 P"
b10000000000000000000000000000011 O"
b11000 *
b11000 &"
b11000 ("
b10100 -
b10100 '"
b10100 ,"
b10100 G"
b10000 ^
b100000000011010010011 ]
b100000000011010010011 z
0V
0X
b1 M
b1 0"
b1100 +
b1100 $"
b1100 Y
b1100 ""
b0 R
b0 >"
b0 T
b0 1"
b1100 Q
b1100 D"
b10011 U
b10011 C"
1E
1G
b1000 I
b1000 )"
b1011 C
b1011 ="
b11 H
b11 D
b1010 a
b1010 @"
b1010 L"
1"
#1050
0"
#1100
b1 :
b1 m
09
b1 g
b1001 )
b1001 N"
b1 e
0>
0'
b1 f
b100 ?
b100 7"
b10 1
b10 {
b10 6"
b1001 %
b1001 s
b1001 x
b1001 /"
b1001 K"
b0 7
b0 :"
b1 <
b1 i
b1 v
18
b10000 3
b10000 |
b110101100000011000110011 2
b110101100000011000110011 H"
b100000 P"
b1 4
b1 y
b1 !"
b1100011 5"
b1011 I"
b1101 J"
b1011 E"
b1101 F"
b11100 ,
b11100 *"
b11100 +"
1b
b1001 `
b1001 ."
b1011 a
b1011 @"
b1011 L"
0E
0G
b1100 I
b1100 )"
b1100 C
b1100 ="
b10011 H
b0 D
b10000 Y
b10000 ""
bx [
bx u
bx }
b10001 +
b10001 $"
b1 P
b1 ~
b1 #"
b1 S
b1 ?"
b1101 Q
b1101 D"
b10100 ^
b110101011100100001100011 ]
b110101011100100001100011 z
b11100 *
b11100 &"
b11100 ("
b11000 -
b11000 '"
b11000 ,"
b11000 G"
1"
#1150
0"
#1200
1;
bx 1
bx {
bx 6"
1'
b0xx00000x0000000xx0x 3
b0xx00000x0000000xx0x |
b1111111111111111111111111111111111111111111111111111111111111111 h
b1000 :
b1000 m
b10 5
b10 w
b10 A"
b0 )
b0 N"
b101101000011010010011 2
b101101000011010010011 H"
08
b0 ?
b0 7"
b1000 g
b1111111111111111111111111111111111111111111111111111111111111110 f
b1111111111111111111111111111111111111111111111111111111111110111 j
b1000 d
b1111111111111111111111111111111111111111111111111111111111110111 e
b1 <
b1 i
b1 v
b100000 ,
b100000 *"
b100000 +"
b110011 5"
b1100 I"
b1100 E"
1&
b1001 =
b1001 l
b1001 q
bx 4
bx y
bx !"
b100 3"
b0 %
b0 s
b0 x
b0 /"
b0 K"
b100000 P"
b100000 *
b100000 &"
b100000 ("
b11100 -
b11100 '"
b11100 ,"
b11100 G"
b11000 ^
b110101100000011000110011 ]
b110101100000011000110011 z
1O
b100 M
b100 0"
0N
0\
b10100 Y
b10100 ""
b1001 Z
b1001 n
b100100 +
b100100 $"
b10000 P
b10000 ~
b10000 #"
b1101 S
b1101 ?"
b1011 R
b1011 >"
b100 T
b100 1"
b10000 Q
b10000 D"
b1100011 U
b1100011 C"
b10001 I
b10001 )"
0L
b1 A
b1 o
b1 t
b1 9"
bx J
bx 8"
b1101 C
b1101 ="
0b
b0 `
b0 ."
b1100 a
b1100 @"
b1100 L"
1"
#1250
0"
#1300
0;
b0 h
1>
b1 )
b1 N"
b1 <
b1 i
b1 v
b1 5
b1 w
b1 A"
09
b1 :
b1 m
b0 1
b0 {
b0 6"
b1 g
b1 f
b0 j
b0 d
b1 e
b1 ?
b1 7"
b1 3
b1 |
b11111111010111111111000001101111 2
b11111111010111111111000001101111 H"
b1 %
b1 s
b1 x
b1 /"
b1 K"
b100000 P"
0&
b0 =
b0 l
b0 q
b0 3"
b10011 5"
b1101 I"
b1 J"
b1101 E"
b1 F"
b100100 ,
b100100 *"
b100100 +"
b1 _
b1 -"
b1101 a
b1101 @"
b1101 L"
1B
0K
b100100 I
b100100 )"
b1000 A
b1000 o
b1000 t
b1000 9"
b10000 C
b10000 ="
b1100011 H
b100 D
0O
b0 M
b0 0"
1\
b11000 Y
b11000 ""
b0 Z
b0 n
bx +
bx $"
b0xx00000x0000000xx0x P
b0xx00000x0000000xx0x ~
b0xx00000x0000000xx0x #"
b1100 R
b1100 >"
b0 T
b0 1"
b1100 Q
b1100 D"
b110011 U
b110011 C"
b11100 ^
b101101000011010010011 ]
b101101000011010010011 z
b100100 *
b100100 &"
b100100 ("
b100000 -
b100000 '"
b100000 ,"
b100000 G"
1"
#1350
0"
#1400
0>
b1 h
b10 :
b10 m
09
b1 f
b0 5
b0 w
b0 A"
b101 ?
b101 7"
b11 1
b11 {
b11 6"
b10 g
b1 <
b1 i
b1 v
b100000000010100010011 2
b100000000010100010011 H"
b0 )
b0 N"
b1111111111111111111111111111111111111111111111111111111111110100 3
b1111111111111111111111111111111111111111111111111111111111110100 |
b1 4
b1 y
b1 !"
b1 d
b0 e
b101000 ,
b101000 *"
b101000 +"
b1101111 5"
b11111 I"
b10101 J"
b11111 E"
b10101 F"
b1 =
b1 l
b1 q
b1000 %
b1000 s
b1000 x
b1000 /"
b1000 K"
b101000 *
b101000 &"
b101000 ("
b100100 -
b100100 '"
b100100 ,"
b100100 G"
b100000 ^
b11111111010111111111000001101111 ]
b11111111010111111111000001101111 z
b1 M
b1 0"
1N
b11100 Y
b11100 ""
b1 Z
b1 n
b11101 +
b11101 $"
b1 P
b1 ~
b1 #"
b1 S
b1 ?"
b1101 R
b1101 >"
b1101 Q
b1101 D"
b10011 U
b10011 C"
0B
1K
bx I
bx )"
b1 A
b1 o
b1 t
b1 9"
b1100 C
b1100 ="
b110011 H
b0 D
0c
b1000 _
b1000 -"
b10000 a
b10000 @"
b10000 L"
1"
#1450
0"
#1500
x9
b0 h
bx :
bx m
b1 3
b1 |
1>
bx g
bx f
b1 ?
b1 7"
b0 1
b0 {
b0 6"
b0 d
bx e
bx <
bx i
bx v
b0 )
b0 N"
b110001010011000000100011 2
b110001010011000000100011 H"
b1 %
b1 s
b1 x
b1 /"
b1 K"
b100000 P"
b0 =
b0 l
b0 q
bx 4
bx y
bx !"
b111 3"
12"
b10011 5"
b0 I"
b1 J"
b0 E"
b1 F"
b101100 ,
b101100 *"
b101100 +"
1c
b1 _
b1 -"
b1100 a
b1100 @"
b1100 L"
b11101 I
b11101 )"
b10 A
b10 o
b10 t
b10 9"
b1101 C
b1101 ="
b10011 H
b101 M
b101 0"
0N
b100000 Y
b100000 ""
b0 Z
b0 n
b10100 +
b10100 $"
b1111111111111111111111111111111111111111111111111111111111110100 P
b1111111111111111111111111111111111111111111111111111111111110100 ~
b1111111111111111111111111111111111111111111111111111111111110100 #"
b10101 S
b10101 ?"
b11111 R
b11111 >"
b1111 T
b1111 1"
b0 Q
b0 D"
b1101111 U
b1101111 C"
b100100 ^
b100000000010100010011 ]
b100000000010100010011 z
b101100 *
b101100 &"
b101100 ("
b101000 -
b101000 '"
b101000 ,"
b101000 G"
1"
#1550
0"
#1600
b1 :
b1 m
09
b1 g
b1 e
0'
b1 f
b11 ?
b11 7"
b1 1
b1 {
b1 6"
b1 <
b1 i
b1 v
b101110100000000100010010011 2
b101110100000000100010010011 H"
1/
b1 (
b1 M"
b0 3
b0 |
b1 4
b1 y
b1 !"
b10100 ,
b10100 *"
b10100 +"
b100011 5"
b1010 I"
b1100 J"
b1010 E"
b1100 F"
b0 3"
02"
1!
b10 %
b10 s
b10 x
b10 /"
b10 K"
b100000 P"
b110000 *
b110000 &"
b110000 ("
b101100 -
b101100 '"
b101100 ,"
b101100 G"
b101000 ^
b110001010011000000100011 ]
b110001010011000000100011 z
b1 M
b1 0"
1N
b100100 Y
b100100 ""
b100101 +
b100101 $"
b1 P
b1 ~
b1 #"
b1 S
b1 ?"
b0 R
b0 >"
b0 T
b0 1"
b1010 Q
b1010 D"
b10011 U
b10011 C"
b10100 I
b10100 )"
xL
bx A
bx o
bx t
bx 9"
b0 C
b0 ="
b1101111 H
b1111 D
b10 _
b10 -"
b1101 a
b1101 @"
b1101 L"
1"
#1650
0"
#1700
b0 :
b0 m
19
b0 g
bx ?
bx 7"
b0 e
1'
b0 6
b0 r
b0 B"
b0 f
bx 1
bx {
bx 6"
0>
b0 <
b0 i
b0 v
0/
b0 )
b0 N"
b0 (
b0 M"
b110101011100100001100011 2
b110101011100100001100011 H"
bx %
bx s
bx x
bx /"
bx K"
b11000 ,
b11000 *"
b11000 +"
0!
b0 4
b0 y
b0 !"
b0 5"
b0 I"
b0 J"
b0 E"
b0 F"
bx _
bx -"
b0 a
b0 @"
b0 L"
0K
b0 I
b0 )"
0L
b0 A
b0 o
b0 t
b0 9"
b0 J
b0 8"
b0 H
b0 D
b0 M
b0 0"
0N
0\
b0 Y
b0 ""
b0 [
b0 u
b0 }
b0 +
b0 $"
b0 P
b0 ~
b0 #"
b0 S
b0 ?"
b0 Q
b0 D"
b0 U
b0 C"
b0 ^
b0 ]
b0 z
b11000 *
b11000 &"
b11000 ("
b10100 -
b10100 '"
b10100 ,"
b10100 G"
1"
#1750
0"
#1800
x;
bx h
b100 ?
b100 7"
bx j
b10 1
b10 {
b10 6"
0'
b1001 )
b1001 N"
b10 (
b10 M"
x9
bx e
b110101100000011000110011 2
b110101100000011000110011 H"
18
b10000 3
b10000 |
bx g
bx f
b11100 ,
b11100 *"
b11100 +"
b1100011 5"
b1011 I"
b1101 J"
b1011 E"
b1101 F"
x&
bx @
bx k
bx 4"
b0 %
b0 s
b0 x
b0 /"
b0 K"
b11100 *
b11100 &"
b11100 ("
b11000 -
b11000 '"
b11000 ,"
b11000 G"
b10100 ^
b110101011100100001100011 ]
b110101011100100001100011 z
bx M
bx 0"
1\
1L
0c
b0 _
b0 -"
1"
#1850
0"
#1900
1;
09
b1111111111111111111111111111111111111111111111111111111111110000 j
b1111111111111111111111111111111111111111111111111111111111111001 h
b111 g
bx 1
bx {
bx 6"
1'
b0xx00000x0000000xx0x 3
b0xx00000x0000000xx0x |
b1111111111111111111111111111111111111111111111111111111111110100 e
b1111111111111111111111111111111111111111111111111111111111111101 f
b1001 d
b111 :
b111 m
b10 <
b10 i
b10 v
08
b0 ?
b0 7"
b1 )
b1 N"
b101101000011010010011 2
b101101000011010010011 H"
1&
b0 @
b0 k
b0 4"
b1001 =
b1001 l
b1001 q
b10 4
b10 y
b10 !"
b100 3"
b110011 5"
b1100 I"
b1100 E"
b100000 ,
b100000 *"
b100000 +"
1K
xL
1O
b100 M
b100 0"
0\
b10100 Y
b10100 ""
b1001 Z
b1001 n
b10 [
b10 u
b10 }
b100100 +
b100100 $"
b10000 P
b10000 ~
b10000 #"
b1101 S
b1101 ?"
b1011 R
b1011 >"
b100 T
b100 1"
b10000 Q
b10000 D"
b1100011 U
b1100011 C"
b11000 ^
b110101100000011000110011 ]
b110101100000011000110011 z
b100000 *
b100000 &"
b100000 ("
b11100 -
b11100 '"
b11100 ,"
b11100 G"
1"
#1950
0"
#2000
0;
b0 j
1>
b0 h
b0 1
b0 {
b0 6"
b11 :
b11 m
b11111111010111111111000001101111 2
b11111111010111111111000001101111 H"
b1 ?
b1 7"
b10 )
b10 N"
bx (
bx M"
b1 3
b1 |
b11 g
b10 f
b0 d
b11 e
0!
b100100 ,
b100100 *"
b100100 +"
b10011 5"
b1101 I"
b1 J"
b1101 E"
b1 F"
0&
b1 =
b1 l
b1 q
b0 3"
b100100 *
b100100 &"
b100100 ("
b100000 -
b100000 '"
b100000 ,"
b100000 G"
b11100 ^
b101101000011010010011 ]
b101101000011010010011 z
0O
b0 M
b0 0"
1\
b11000 Y
b11000 ""
b1 Z
b1 n
bx +
bx $"
b0xx00000x0000000xx0x P
b0xx00000x0000000xx0x ~
b0xx00000x0000000xx0x #"
b1100 R
b1100 >"
b0 T
b0 1"
b1100 Q
b1100 D"
b110011 U
b110011 C"
1B
0K
b100100 I
b100100 )"
0L
b111 A
b111 o
b111 t
b111 9"
b10 J
b10 8"
b10000 C
b10000 ="
b1100011 H
b100 D
1c
1"
#2050
0"
#2100
b0 j
b0 h
b11 :
b11 m
09
0>
b11 g
b1 f
b101 ?
b101 7"
b11 1
b11 {
b11 6"
b0 d
b11 e
b1 <
b1 i
b1 v
b0 )
b0 N"
b1111111111111111111111111111111111111111111111111111111111110100 3
b1111111111111111111111111111111111111111111111111111111111110100 |
b100000000010100010011 2
b100000000010100010011 H"
b111 %
b111 s
b111 x
b111 /"
b111 K"
b10 =
b10 l
b10 q
b1 4
b1 y
b1 !"
b1101111 5"
b11111 I"
b10101 J"
b11111 E"
b10101 F"
b101000 ,
b101000 *"
b101000 +"
0c
b111 _
b111 -"
b10000 a
b10000 @"
b10000 L"
0B
1K
bx I
bx )"
b11 A
b11 o
b11 t
b11 9"
b1100 C
b1100 ="
b110011 H
b0 D
b1 M
b1 0"
1N
b11100 Y
b11100 ""
b10 Z
b10 n
bx [
bx u
bx }
b11101 +
b11101 $"
b1 P
b1 ~
b1 #"
b1 S
b1 ?"
b1101 R
b1101 >"
b1101 Q
b1101 D"
b10011 U
b10011 C"
b100000 ^
b11111111010111111111000001101111 ]
b11111111010111111111000001101111 z
b101000 *
b101000 &"
b101000 ("
b100100 -
b100100 '"
b100100 ,"
b100100 G"
1"
#2150
0"
#2200
x9
b1 3
b1 |
1>
bx :
bx m
b1 ?
b1 7"
b0 1
b0 {
b0 6"
bx g
bx f
b110001010011000000100011 2
b110001010011000000100011 H"
b0 )
b0 N"
bx e
bx <
bx i
bx v
b101100 ,
b101100 *"
b101100 +"
b10011 5"
b0 I"
b1 J"
b0 E"
b1 F"
b0 =
b0 l
b0 q
bx 4
bx y
bx !"
b111 3"
12"
b11 %
b11 s
b11 x
b11 /"
b11 K"
b100000 P"
b101100 *
b101100 &"
b101100 ("
b101000 -
b101000 '"
b101000 ,"
b101000 G"
b100100 ^
b100000000010100010011 ]
b100000000010100010011 z
b101 M
b101 0"
0N
b100000 Y
b100000 ""
b0 Z
b0 n
b10100 +
b10100 $"
b1111111111111111111111111111111111111111111111111111111111110100 P
b1111111111111111111111111111111111111111111111111111111111110100 ~
b1111111111111111111111111111111111111111111111111111111111110100 #"
b10101 S
b10101 ?"
b11111 R
b11111 >"
b1111 T
b1111 1"
b0 Q
b0 D"
b1101111 U
b1101111 C"
b11101 I
b11101 )"
bx J
bx 8"
b1101 C
b1101 ="
b10011 H
1c
b11 _
b11 -"
b1100 a
b1100 @"
b1100 L"
1"
#2250
0"
#2300
b1 :
b1 m
09
b1 g
b1 e
b1 f
0'
b1 <
b1 i
b1 v
b11 ?
b11 7"
b1 1
b1 {
b1 6"
b0 6
b0 r
b0 B"
b1 4
b1 y
b1 !"
1/
b11 (
b11 M"
b0 3
b0 |
b101110100000000100010010011 2
b101110100000000100010010011 H"
b100000 P"
1!
b0 3"
02"
b100011 5"
b1010 I"
b1100 J"
b1010 E"
b1100 F"
b10100 ,
b10100 *"
b10100 +"
b1101 a
b1101 @"
b1101 L"
b10100 I
b10100 )"
xL
bx A
bx o
bx t
bx 9"
b0 C
b0 ="
b1101111 H
b1111 D
b1 M
b1 0"
1N
b100100 Y
b100100 ""
b100101 +
b100101 $"
b1 P
b1 ~
b1 #"
b1 S
b1 ?"
b0 R
b0 >"
b0 T
b0 1"
b1010 Q
b1010 D"
b10011 U
b10011 C"
b101000 ^
b110001010011000000100011 ]
b110001010011000000100011 z
b110000 *
b110000 &"
b110000 ("
b101100 -
b101100 '"
b101100 ,"
b101100 G"
1"
#2350
0"
#2400
b0 :
b0 m
19
bx ?
bx 7"
b0 g
1'
b0 e
bx 1
bx {
bx 6"
0>
b0 f
b0 6
b0 r
b0 B"
b110101011100100001100011 2
b110101011100100001100011 H"
0/
b0 )
b0 N"
b0 (
b0 M"
b0 <
b0 i
b0 v
b0 5"
b0 I"
b0 J"
b0 E"
b0 F"
b0 4
b0 y
b0 !"
b11000 ,
b11000 *"
b11000 +"
0!
bx %
bx s
bx x
bx /"
bx K"
b11000 *
b11000 &"
b11000 ("
b10100 -
b10100 '"
b10100 ,"
b10100 G"
b0 ^
b0 ]
b0 z
b0 M
b0 0"
0N
0\
b0 Y
b0 ""
b0 [
b0 u
b0 }
b0 +
b0 $"
b0 P
b0 ~
b0 #"
b0 S
b0 ?"
b0 Q
b0 D"
b0 U
b0 C"
0K
b0 I
b0 )"
0L
b0 A
b0 o
b0 t
b0 9"
b0 J
b0 8"
b0 H
b0 D
bx _
bx -"
b0 a
b0 @"
b0 L"
1"
#2450
0"
#2500
x;
bx h
b100 ?
b100 7"
bx j
b10 1
b10 {
b10 6"
0'
x9
bx e
b1001 )
b1001 N"
b11 (
b11 M"
bx g
bx f
18
b10000 3
b10000 |
b110101100000011000110011 2
b110101100000011000110011 H"
b0 %
b0 s
b0 x
b0 /"
b0 K"
x&
bx @
bx k
bx 4"
b1100011 5"
b1011 I"
b1101 J"
b1011 E"
b1101 F"
b11100 ,
b11100 *"
b11100 +"
0c
b0 _
b0 -"
1L
bx M
bx 0"
1\
b10100 ^
b110101011100100001100011 ]
b110101011100100001100011 z
b11100 *
b11100 &"
b11100 ("
b11000 -
b11000 '"
b11000 ,"
b11000 G"
1"
#2550
0"
