SS.vcd
$date
	Wed Aug 27 11:40:09 2025
$end
$version
	Icarus Verilog
$end
$timescale
	1s
$end
$scope module Single_Stage_tb $end
$scope module Single_Stage_Top $end
$var wire 1 ! Flush $end
$var wire 1 " clk $end
$var wire 1 # rst $end
$var wire 1 $ stall $end
$var wire 64 % WRITE_DATA [63:0] $end
$var wire 1 & SUB $end
$var wire 1 ' RegWrite $end
$var wire 64 ( READ_DATA2 [63:0] $end
$var wire 64 ) READ_DATA1 [63:0] $end
$var wire 64 * PC_NEXT_REG [63:0] $end
$var wire 64 + PC_NEXT_IMM [63:0] $end
$var wire 64 , PC_NEXT [63:0] $end
$var wire 64 - PC_CURR [63:0] $end
$var wire 1 . MemtoReg $end
$var wire 1 / MemWrite $end
$var wire 1 0 MemRead $end
$var wire 2 1 Imm_Src [1:0] $end
$var wire 32 2 INSTRUCTION_BUS [31:0] $end
$var wire 64 3 IMM_OUT [63:0] $end
$var wire 64 4 ID_EX_READ_DATA2_IMM [63:0] $end
$var wire 2 5 Forward_B [1:0] $end
$var wire 2 6 Forward_A [1:0] $end
$var wire 64 7 DMEM_READ_DATA [63:0] $end
$var wire 1 8 Branch $end
$var wire 1 9 ALU_ZERO $end
$var wire 64 : ALU_OUT [63:0] $end
$var wire 1 ; ALU_CARRY $end
$var wire 64 < ALU_B [63:0] $end
$var wire 64 = ALU_A [63:0] $end
$var wire 1 > ALUSrc $end
$var wire 3 ? ALUOp [2:0] $end
$var wire 3 @ ALUCONTROL [2:0] $end
$var reg 64 A EX_MEM_ALU_OUT [63:0] $end
$var reg 1 B EX_MEM_Branch $end
$var reg 5 C EX_MEM_INSTRUCTION_11_7 [4:0] $end
$var reg 4 D EX_MEM_INSTRUCTION_30_14_12 [3:0] $end
$var reg 1 E EX_MEM_MemRead $end
$var reg 1 F EX_MEM_MemWrite $end
$var reg 1 G EX_MEM_MemtoReg $end
$var reg 7 H EX_MEM_OPCODE [6:0] $end
$var reg 64 I EX_MEM_PC_NEXT_IMM [63:0] $end
$var reg 64 J EX_MEM_READ_DATA_2 [63:0] $end
$var reg 1 K EX_MEM_RegWrite $end
$var reg 1 L EX_MEM_zero $end
$var reg 3 M ID_EX_ALUOp [2:0] $end
$var reg 1 N ID_EX_ALUSrc $end
$var reg 1 O ID_EX_Branch $end
$var reg 64 P ID_EX_IMM_OUT [63:0] $end
$var reg 5 Q ID_EX_INSTRUCTION_11_7 [4:0] $end
$var reg 5 R ID_EX_INSTRUCTION_19_15 [4:0] $end
$var reg 5 S ID_EX_INSTRUCTION_24_20 [4:0] $end
$var reg 4 T ID_EX_INSTRUCTION_30_14_12 [3:0] $end
$var reg 7 U ID_EX_INSTRUCTION_OPCODE [6:0] $end
$var reg 1 V ID_EX_MemRead $end
$var reg 1 W ID_EX_MemWrite $end
$var reg 1 X ID_EX_MemtoReg $end
$var reg 64 Y ID_EX_PC_CURR [63:0] $end
$var reg 64 Z ID_EX_READ_DATA1 [63:0] $end
$var reg 64 [ ID_EX_READ_DATA2 [63:0] $end
$var reg 1 \ ID_EX_RegWrite $end
$var reg 32 ] IF_ID_INSTRUCTION_BUS [31:0] $end
$var reg 64 ^ IF_ID_PC_CURR [63:0] $end
$var reg 64 _ MEM_WB_ALU_OUT [63:0] $end
$var reg 64 ` MEM_WB_DMEM_READ_DATA [63:0] $end
$var reg 5 a MEM_WB_INSTRUCTION_11_7 [4:0] $end
$var reg 1 b MEM_WB_MemtoReg $end
$var reg 1 c MEM_WB_RegWrite $end
$scope module ALU $end
$var wire 64 d A_and_B [63:0] $end
$var wire 64 e A_xor_B [63:0] $end
$var wire 64 f B_comp [63:0] $end
$var wire 64 g sum [63:0] $end
$var wire 1 9 zero $end
$var wire 1 & sub $end
$var wire 1 ; Carry_out $end
$var wire 64 h Carry_intermediate [63:0] $end
$var wire 64 i B [63:0] $end
$var wire 64 j A_xor_B_and_cin [63:0] $end
$var wire 3 k ALU_Sel [2:0] $end
$var wire 64 l A [63:0] $end
$var reg 64 m ALU_Out [63:0] $end
$upscope $end
$scope module ALU_Mux_A $end
$var wire 64 n a [63:0] $end
$var wire 64 o c [63:0] $end
$var wire 64 p d [63:0] $end
$var wire 64 q y [63:0] $end
$var wire 2 r s [1:0] $end
$var wire 64 s b [63:0] $end
$upscope $end
$scope module ALU_Mux_B $end
$var wire 64 t c [63:0] $end
$var wire 64 u d [63:0] $end
$var wire 64 v y [63:0] $end
$var wire 2 w s [1:0] $end
$var wire 64 x b [63:0] $end
$var wire 64 y a [63:0] $end
$upscope $end
$scope module Imm_Gen $end
$var wire 32 z imm_in [31:0] $end
$var wire 2 { imm_src [1:0] $end
$var wire 64 | imm_out [63:0] $end
$upscope $end
$scope module Imm_Sel $end
$var wire 64 } a [63:0] $end
$var wire 64 ~ b [63:0] $end
$var wire 1 N s $end
$var wire 64 !" c [63:0] $end
$upscope $end
$scope module PC_Adder_Imm $end
$var wire 64 "" a [63:0] $end
$var wire 64 #" b [63:0] $end
$var wire 64 $" c [63:0] $end
$upscope $end
$scope module PC_Adder_Regular $end
$var wire 64 %" b [63:0] $end
$var wire 64 &" c [63:0] $end
$var wire 64 '" a [63:0] $end
$upscope $end
$scope module PC_Update_Mux $end
$var wire 64 (" a [63:0] $end
$var wire 64 )" b [63:0] $end
$var wire 1 ! s $end
$var wire 64 *" c [63:0] $end
$upscope $end
$scope module PC_block $end
$var wire 64 +" PC_NEXT [63:0] $end
$var wire 1 " clk $end
$var wire 1 # rst $end
$var wire 1 $ stall $end
$var reg 64 ," PC [63:0] $end
$upscope $end
$scope module Write_Back_Mux $end
$var wire 64 -" a [63:0] $end
$var wire 64 ." b [63:0] $end
$var wire 1 b s $end
$var wire 64 /" c [63:0] $end
$upscope $end
$scope module control_unit_alu $end
$var wire 3 0" ALUOp [2:0] $end
$var wire 4 1" funct [3:0] $end
$var wire 1 2" funct7_5 $end
$var wire 3 3" funct3 [2:0] $end
$var reg 3 4" ALUControl [2:0] $end
$var reg 1 & sub $end
$upscope $end
$scope module control_unit_main $end
$var wire 7 5" opcode [6:0] $end
$var wire 1 ' RegWrite $end
$var wire 1 . MemtoReg $end
$var wire 1 / MemWrite $end
$var wire 1 0 MemRead $end
$var wire 2 6" Imm_Src [1:0] $end
$var wire 1 8 Branch $end
$var wire 1 > ALUSrc $end
$var wire 3 7" ALUOp [2:0] $end
$upscope $end
$scope module data_memory $end
$var wire 1 E MemRead $end
$var wire 1 F MemWrite $end
$var wire 64 8" WriteData [63:0] $end
$var wire 64 9" address [63:0] $end
$var wire 1 # rst $end
$var wire 1 L zero $end
$var wire 64 :" ReadData [63:0] $end
$var integer 32 ;" fd [31:0] $end
$var integer 32 <" i [31:0] $end
$upscope $end
$scope module forwarding_unit $end
$var wire 5 =" EX_MEM_RD [4:0] $end
$var wire 1 K EX_MEM_RegWrite $end
$var wire 5 >" ID_EX_RS1 [4:0] $end
$var wire 5 ?" ID_EX_RS2 [4:0] $end
$var wire 5 @" MEM_WB_RD [4:0] $end
$var wire 1 c MEM_WB_RegWrite $end
$var wire 2 A" Forward_B [1:0] $end
$var wire 2 B" Forward_A [1:0] $end
$upscope $end
$scope module hazard_detection_unit $end
$var wire 1 8 branch $end
$var wire 1 V mem_read_1 $end
$var wire 1 E mem_read_2 $end
$var wire 7 C" opcode [6:0] $end
$var wire 5 D" rd [4:0] $end
$var wire 5 E" rs1 [4:0] $end
$var wire 5 F" rs2 [4:0] $end
$var wire 1 $ stall $end
$upscope $end
$scope module instruction_memory $end
$var wire 64 G" PC [63:0] $end
$var wire 1 # rst $end
$var wire 32 H" instruction [31:0] $end
$upscope $end
$scope module register_file $end
$var wire 5 I" ReadReg1 [4:0] $end
$var wire 5 J" ReadReg2 [4:0] $end
$var wire 1 c RegWrite $end
$var wire 64 K" WriteData [63:0] $end
$var wire 5 L" WriteReg [4:0] $end
$var wire 1 # rst $end
$var wire 64 M" ReadData2 [63:0] $end
$var wire 64 N" ReadData1 [63:0] $end
$var integer 32 O" fd [31:0] $end
$var integer 32 P" i [31:0] $end
$upscope $end
$upscope $end
$upscope $end
$enddefinitions $end
$comment Show the parameter values. $end
$dumpall
$end
#0
$dumpvars
bx P"
bx O"
b0 N"
b0 M"
b0 L"
b0 K"
b0 J"
b0 I"
b0 H"
b1111111111111111111111111111111111111111111111111111111111111100 G"
b0 F"
b0 E"
b0 D"
b0 C"
b0 B"
b0 A"
b0 @"
b0 ?"
b0 >"
b0 ="
bx <"
bx ;"
b0 :"
b0 9"
b0 8"
bx 7"
bx 6"
b0 5"
b0 4"
b0 3"
02"
b0 1"
b0 0"
b0 /"
b0 ."
b0 -"
b1111111111111111111111111111111111111111111111111111111111111100 ,"
b0 +"
b0 *"
b0 )"
b0 ("
b1111111111111111111111111111111111111111111111111111111111111100 '"
b0 &"
b100 %"
b0 $"
b0 #"
b0 ""
b0 !"
b0 ~
b0 }
b0 |
bx {
b0 z
b0 y
b0 x
b0 w
b0 v
b0 u
b0 t
b0 s
b0 r
b0 q
b0 p
b0 o
b0 n
b0 m
b0 l
b0 k
b0 j
b0 i
b0 h
b0 g
b0 f
b0 e
b0 d
0c
0b
b0 a
b0 `
b0 _
b0 ^
b0 ]
0\
b0 [
b0 Z
b0 Y
0X
0W
0V
b0 U
b0 T
b0 S
b0 R
b0 Q
b0 P
0O
0N
b0 M
0L
0K
b0 J
b0 I
b0 H
0G
0F
0E
b0 D
b0 C
0B
b0 A
b0 @
bx ?
0>
b0 =
b0 <
0;
b0 :
19
08
b0 7
b0 6
b0 5
b0 4
b0 3
b0 2
bx 1
00
0/
0.
b1111111111111111111111111111111111111111111111111111111111111100 -
b0 ,
b0 +
b0 *
b0 )
b0 (
1'
0&
b0 %
0$
1#
1"
0!
$end
#50
0"
#100
1"
#150
0"
#200
1"
#250
0"
#300
1"
#350
0"
#400
1"
#450
0"
#500
x;
bx h
bx j
x9
bx e
bx g
bx f
x&
bx @
bx k
bx 4"
b100 ,
b100 *"
b100 +"
1L
bx M
bx 0"
1\
b1111111111111111111111111111111111111111111111111111111111111100 ^
b100 *
b100 &"
b100 ("
b0 -
b0 '"
b0 ,"
b0 G"
b10100010011 2
b10100010011 H"
1"
0#
#550
0"
#600
1>
b1 ?
b1 7"
b0 1
b0 {
b0 6"
b0 3
b0 |
b1010011010110000011 2
b1010011010110000011 H"
b1000 ,
b1000 *"
b1000 +"
b10011 5"
b1000 *
b1000 &"
b1000 ("
b100 -
b100 '"
b100 ,"
b100 G"
b0 ^
b10100010011 ]
b10100010011 z
b1111111111111111111111111111111111111111111111111111111111111100 +
b1111111111111111111111111111111111111111111111111111111111111100 $"
b1111111111111111111111111111111111111111111111111111111111111100 Y
b1111111111111111111111111111111111111111111111111111111111111100 ""
1K
xL
1"
#650
0"
#700
19
0;
b0 g
b0 h
b0 e
b10 ?
b10 7"
bx )
bx N"
b0 f
b0 j
b0 :
b0 m
10
1.
b101010011011000000011 2
b101010011011000000011 H"
0&
b0 @
b0 k
b0 4"
b11 5"
b1010 I"
b1010 E"
b1100 ,
b1100 *"
b1100 +"
1c
b1111111111111111111111111111111111111111111111111111111111111100 I
b1111111111111111111111111111111111111111111111111111111111111100 )"
b1 M
b1 0"
1N
b0 +
b0 $"
b0 Y
b0 ""
b1010 Q
b1010 D"
b10011 U
b10011 C"
b100 ^
b1010011010110000011 ]
b1010011010110000011 z
b1100 *
b1100 &"
b1100 ("
b1000 -
b1000 '"
b1000 ,"
b1000 G"
1"
#750
0"
#800
b0 :
b0 m
19
bx (
bx M"
b0 g
b10 6
b10 r
b10 B"
b10000001100000000001100011 2
b10000001100000000001100011 H"
b1 3
b1 |
b0 e
b10000 ,
b10000 *"
b10000 +"
b1 J"
b1 F"
b0 =
b0 l
b0 q
b11 3"
b10000 *
b10000 &"
b10000 ("
b1100 -
b1100 '"
b1100 ,"
b1100 G"
b1000 ^
b101010011011000000011 ]
b101010011011000000011 z
1V
1X
b10 M
b10 0"
b100 +
b100 $"
b100 Y
b100 ""
bx Z
bx n
b1010 R
b1010 >"
b11 T
b11 1"
b1011 Q
b1011 D"
b11 U
b11 C"
b0 I
b0 )"
1L
b1010 C
b1010 ="
b10011 H
1"
#850
0"
#900
b1 :
b1 m
09
b0 h
1$
b1 g
b1 e
b0 d
b100 ?
b100 7"
0>
0'
b0 =
b0 l
b0 q
b1 f
b10 1
b10 {
b10 6"
b0 (
b0 M"
b1010 7
b1010 :"
b1 6
b1 r
b1 B"
b1 <
b1 i
b1 v
18
00
0.
b100000 3
b100000 |
b1011000011010010011 2
b1011000011010010011 H"
b100000 P"
b10000000000000000000000000000011 O"
b1 4
b1 y
b1 !"
b1100011 5"
b1100 I"
b0 J"
b1100 E"
b0 F"
b10100 ,
b10100 *"
b10100 +"
b1010 a
b1010 @"
b1010 L"
1E
1G
b100 I
b100 )"
b1011 C
b1011 ="
b11 H
b11 D
b1000 Y
b1000 ""
bx [
bx u
bx }
b1001 +
b1001 $"
b1 P
b1 ~
b1 #"
b1 S
b1 ?"
b1100 Q
b1100 D"
b1100 ^
b10000001100000000001100011 ]
b10000001100000000001100011 z
b10100 *
b10100 &"
b10100 ("
b10000 -
b10000 '"
b10000 ,"
b10000 G"
1"
#950
0"
#1000
x;
0$
bx d
1>
1'
b0 3
b0 |
bx h
bx =
bx l
bx q
b1 ?
b1 7"
b0 1
b0 {
b0 6"
x9
bx e
bx :
bx m
bx <
bx i
bx v
b0 6
b0 r
b0 B"
08
b1010 )
b1010 N"
bx g
bx f
bx j
bx 4
bx y
bx !"
b1010 %
b1010 s
b1010 x
b1010 /"
b1010 K"
b10011 5"
b1011 I"
b1011 E"
1&
b1 @
b1 k
b1 4"
b1111 7
b1111 :"
b100000 P"
b10000 ^
b1011000011010010011 ]
b1011000011010010011 z
0V
0X
b0 M
b0 0"
0N
0\
b1001 I
b1001 )"
0L
b1 A
b1 o
b1 t
b1 9"
bx J
bx 8"
b1100 C
b1100 ="
1b
b1010 `
b1010 ."
b1011 a
b1011 @"
b1011 L"
1"
#1050
0"
#1100
0;
09
b1010 :
b1010 m
b1010 g
b0 h
b1010 e
b0 f
b0 j
b0 d
b0 <
b0 i
b0 v
b110001101100011001100011 2
b110001101100011001100011 H"
b1111 %
b1111 s
b1111 x
b1111 /"
b1111 K"
b100000 P"
b0 7
b0 :"
0&
b0 @
b0 k
b0 4"
b1010 =
b1010 l
b1010 q
b0 4
b0 y
b0 !"
b0 3"
b11000 ,
b11000 *"
b11000 +"
b1111 `
b1111 ."
b1 _
b1 -"
b1100 a
b1100 @"
b1100 L"
0E
0G
0K
xL
bx A
bx o
bx t
bx 9"
b1 M
b1 0"
1N
1\
b10000 Y
b10000 ""
b1010 Z
b1010 n
b0 [
b0 u
b0 }
b10000 +
b10000 $"
b0 P
b0 ~
b0 #"
b0 S
b0 ?"
b1011 R
b1011 >"
b0 T
b0 1"
b1101 Q
b1101 D"
b10011 U
b10011 C"
b11000 *
b11000 &"
b11000 ("
b10100 -
b10100 '"
b10100 ,"
b10100 G"
1"
#1150
0"
#1200
0>
0'
b100 ?
b100 7"
b10 1
b10 {
b10 6"
b1111 (
b1111 M"
b1000000110001101000011010110011 2
b1000000110001101000011010110011 H"
18
bx )
bx N"
b1100 3
b1100 |
b11100 ,
b11100 *"
b11100 +"
b1100011 5"
b1101 I"
b1100 J"
b1101 E"
b1100 F"
bx %
bx s
bx x
bx /"
bx K"
b11100 *
b11100 &"
b11100 ("
b11000 -
b11000 '"
b11000 ,"
b11000 G"
b10100 ^
b110001101100011001100011 ]
b110001101100011001100011 z
1K
b10000 I
b10000 )"
0L
b1010 A
b1010 o
b1010 t
b1010 9"
b0 J
b0 8"
b1101 C
b1101 ="
b10011 H
b0 D
0b
0c
b0 `
b0 ."
bx _
bx -"
1"
#1250
0"
#1300
b0 h
b0 j
bx 1
bx {
bx 6"
1'
b0xx0x000xx000000xx0x 3
b0xx0x000xx000000xx0x |
b1010 )
b1010 N"
09
b1111111111111111111111111111111111111111111111111111111111111011 :
b1111111111111111111111111111111111111111111111111111111111111011 m
b1111111111111111111111111111111111111111111111111111111111111011 g
b1111111111111111111111111111111111111111111111111111111111110000 f
b1111111111111111111111111111111111111111111111111111111111111010 e
b1111 <
b1111 i
b1111 v
b10 6
b10 r
b10 B"
08
b0 ?
b0 7"
b11111111100111111111000001101111 2
b11111111100111111111000001101111 H"
b1010 %
b1010 s
b1010 x
b1010 /"
b1010 K"
b100000 P"
1&
b1010 =
b1010 l
b1010 q
b1111 4
b1111 y
b1111 !"
b100 3"
b110011 5"
b100000 ,
b100000 *"
b100000 +"
1c
b1010 _
b1010 -"
b1101 a
b1101 @"
b1101 L"
1O
b100 M
b100 0"
0N
0\
b10100 Y
b10100 ""
bx Z
bx n
b1111 [
b1111 u
b1111 }
b100000 +
b100000 $"
b1100 P
b1100 ~
b1100 #"
b1100 S
b1100 ?"
b1101 R
b1101 >"
b100 T
b100 1"
b1100 Q
b1100 D"
b1100011 U
b1100011 C"
b11000 ^
b1000000110001101000011010110011 ]
b1000000110001101000011010110011 z
b100000 *
b100000 &"
b100000 ("
b11100 -
b11100 '"
b11100 ,"
b11100 G"
1"
#1350
0"
#1400
0;
b1111111111111111111111111111111111111111111111111111111111111011 :
b1111111111111111111111111111111111111111111111111111111111111011 m
b0 j
b0 h
b1111111111111111111111111111111111111111111111111111111111111011 g
b1111111111111111111111111111111111111111111111111111111111111010 e
b0 d
b11 1
b11 {
b11 6"
b1111111111111111111111111111111111111111111111111111111111110000 f
1!
b1111 <
b1111 i
b1111 v
b0 5
b0 w
b0 A"
b1100000010110010011 2
b1100000010110010011 H"
b101 ?
b101 7"
bx )
bx N"
bx (
bx M"
b1111111111111111111111111111111111111111111111111111111111111000 3
b1111111111111111111111111111111111111111111111111111111111111000 |
b1 6
b1 r
b1 B"
b100000 ,
b100000 *"
b100000 +"
b1101111 5"
b11111 I"
b11001 J"
b11111 E"
b11001 F"
b0 3"
12"
b100100 *
b100100 &"
b100100 ("
b100000 -
b100000 '"
b100000 ,"
b100000 G"
b11100 ^
b11111111100111111111000001101111 ]
b11111111100111111111000001101111 z
0O
b0 M
b0 0"
1\
b11000 Y
b11000 ""
b1010 Z
b1010 n
bx +
bx $"
b0xx0x000xx000000xx0x P
b0xx0x000xx000000xx0x ~
b0xx0x000xx000000xx0x #"
b1000 T
b1000 1"
b1101 Q
b1101 D"
b110011 U
b110011 C"
1B
0K
b100000 I
b100000 )"
b1111111111111111111111111111111111111111111111111111111111111011 A
b1111111111111111111111111111111111111111111111111111111111111011 o
b1111111111111111111111111111111111111111111111111111111111111011 t
b1111111111111111111111111111111111111111111111111111111111111011 9"
b1111 J
b1111 8"
b1100 C
b1100 ="
b1100011 H
b100 D
1"
#1450
0"
#1500
bx ?
bx 7"
19
bx 1
bx {
bx 6"
b0 3
b0 |
b0 e
b0 =
b0 l
b0 q
b0 :
b0 m
b0 6
b0 r
b0 B"
b0 g
b0 f
b0 )
b0 N"
b0 (
b0 M"
0!
b0 <
b0 i
b0 v
0&
b1111111111111111111111111111111111111111111111111111111111111011 %
b1111111111111111111111111111111111111111111111111111111111111011 s
b1111111111111111111111111111111111111111111111111111111111111011 x
b1111111111111111111111111111111111111111111111111111111111111011 /"
b1111111111111111111111111111111111111111111111111111111111111011 K"
b100100 ,
b100100 *"
b100100 +"
b0 4
b0 y
b0 !"
02"
b0 5"
b0 I"
b0 J"
b0 E"
b0 F"
0c
b1111111111111111111111111111111111111111111111111111111111111011 _
b1111111111111111111111111111111111111111111111111111111111111011 -"
b1100 a
b1100 @"
b1100 L"
0B
b0 I
b0 )"
b0 A
b0 o
b0 t
b0 9"
b0 J
b0 8"
b0 C
b0 ="
b0 H
b0 D
0\
b0 Y
b0 ""
b0 Z
b0 n
b0 [
b0 u
b0 }
b0 +
b0 $"
b0 P
b0 ~
b0 #"
b0 S
b0 ?"
b0 R
b0 >"
b0 T
b0 1"
b0 Q
b0 D"
b0 U
b0 C"
b0 ^
b0 ]
b0 z
1"
#1550
0"
#1600
x;
bx h
bx j
1>
b1 ?
b1 7"
b0 1
b0 {
b0 6"
b1111 )
b1111 N"
b0 3
b0 |
x9
bx e
b1101000011000010011 2
b1101000011000010011 H"
bx g
bx f
b101000 ,
b101000 *"
b101000 +"
b10011 5"
b1100 I"
b1100 E"
x&
bx @
bx k
bx 4"
b0 %
b0 s
b0 x
b0 /"
b0 K"
b101000 *
b101000 &"
b101000 ("
b100100 -
b100100 '"
b100100 ,"
b100100 G"
b100000 ^
b1100000010110010011 ]
b1100000010110010011 z
bx M
bx 0"
1\
1L
b0 _
b0 -"
b0 a
b0 @"
b0 L"
1"
#1650
0"
#1700
0;
09
b0 h
b1111 g
b1111 e
b0 f
b0 j
b0 d
b1111 :
b1111 m
b1010 )
b1010 N"
b11111110010111111111000001101111 2
b11111110010111111111000001101111 H"
0&
b0 @
b0 k
b0 4"
b1111 =
b1111 l
b1111 q
b1101 I"
b1101 E"
b101100 ,
b101100 *"
b101100 +"
1K
xL
b1 M
b1 0"
1N
b100000 +
b100000 $"
b100000 Y
b100000 ""
b1111 Z
b1111 n
b1100 R
b1100 >"
b1011 Q
b1011 D"
b10011 U
b10011 C"
b100100 ^
b1101000011000010011 ]
b1101000011000010011 z
b101100 *
b101100 &"
b101100 ("
b101000 -
b101000 '"
b101000 ,"
b101000 G"
1"
#1750
0"
#1800
0>
b1010 :
b1010 m
b101 ?
b101 7"
b11 1
b11 {
b11 6"
bx (
bx M"
b1010 g
b1000000000010100010011 2
b1000000000010100010011 H"
bx )
bx N"
b1111111111111111111111111111111111111111111111111111111111100100 3
b1111111111111111111111111111111111111111111111111111111111100100 |
b1010 e
b110000 ,
b110000 *"
b110000 +"
b1101111 5"
b11111 I"
b101 J"
b11111 E"
b101 F"
b1010 =
b1010 l
b1010 q
b110000 *
b110000 &"
b110000 ("
b101100 -
b101100 '"
b101100 ,"
b101100 G"
b101000 ^
b11111110010111111111000001101111 ]
b11111110010111111111000001101111 z
b100100 +
b100100 $"
b100100 Y
b100100 ""
b1010 Z
b1010 n
b1101 R
b1101 >"
b1100 Q
b1100 D"
b100000 I
b100000 )"
0L
b1111 A
b1111 o
b1111 t
b1111 9"
b1011 C
b1011 ="
b10011 H
1c
1"
#1850
0"
#1900
bx0 j
x;
bx h
bx :
bx m
x9
bx d
b10 3
b10 |
1>
bx g
bx f
b1 ?
b1 7"
b0 1
b0 {
b0 6"
b0 )
b0 N"
bx e
bx <
bx i
bx v
b101101010011000000100011 2
b101101010011000000100011 H"
b1111 %
b1111 s
b1111 x
b1111 /"
b1111 K"
b100000 P"
bx =
bx l
bx q
bx 4
bx y
bx !"
b111 3"
12"
b10011 5"
b0 I"
b10 J"
b0 E"
b10 F"
b110100 ,
b110100 *"
b110100 +"
b1111 _
b1111 -"
b1011 a
b1011 @"
b1011 L"
b100100 I
b100100 )"
b1010 A
b1010 o
b1010 t
b1010 9"
b1100 C
b1100 ="
b101 M
b101 0"
0N
b101000 Y
b101000 ""
bx Z
bx n
bx [
bx u
bx }
b1100 +
b1100 $"
b1111111111111111111111111111111111111111111111111111111111100100 P
b1111111111111111111111111111111111111111111111111111111111100100 ~
b1111111111111111111111111111111111111111111111111111111111100100 #"
b101 S
b101 ?"
b11111 R
b11111 >"
b1111 T
b1111 1"
b0 Q
b0 D"
b1101111 U
b1101111 C"
b101100 ^
b1000000000010100010011 ]
b1000000000010100010011 z
b110100 *
b110100 &"
b110100 ("
b110000 -
b110000 '"
b110000 ,"
b110000 G"
1"
#1950
0"
#2000
0;
09
b10 :
b10 m
b10 g
b0 j
b10 e
0'
b10 f
b0 h
b11 ?
b11 7"
b1 1
b1 {
b1 6"
b10 <
b10 i
b10 v
b101110100000000100010010011 2
b101110100000000100010010011 H"
1/
b1111 (
b1111 M"
b0 3
b0 |
b10 4
b10 y
b10 !"
b0 d
b1100 ,
b1100 *"
b1100 +"
b100011 5"
b1010 I"
b1011 J"
b1010 E"
b1011 F"
b0 =
b0 l
b0 q
b0 3"
02"
1!
b1010 %
b1010 s
b1010 x
b1010 /"
b1010 K"
b100000 P"
b111000 *
b111000 &"
b111000 ("
b110100 -
b110100 '"
b110100 ,"
b110100 G"
b110000 ^
b101101010011000000100011 ]
b101101010011000000100011 z
b1 M
b1 0"
1N
b101100 Y
b101100 ""
b0 Z
b0 n
b101110 +
b101110 $"
b10 P
b10 ~
b10 #"
b10 S
b10 ?"
b0 R
b0 >"
b0 T
b0 1"
b1010 Q
b1010 D"
b10011 U
b10011 C"
b1100 I
b1100 )"
xL
bx A
bx o
bx t
bx 9"
bx J
bx 8"
b0 C
b0 ="
b1101111 H
b1111 D
b1010 _
b1010 -"
b1100 a
b1100 @"
b1100 L"
1"
#2050
0"
#2100
b0 :
b0 m
19
b0 g
bx ?
bx 7"
b0 e
1'
b0 6
b0 r
b0 B"
b0 f
bx 1
bx {
bx 6"
0>
b0 <
b0 i
b0 v
0/
b0 )
b0 N"
b0 (
b0 M"
b10000001100000000001100011 2
b10000001100000000001100011 H"
bx %
bx s
bx x
bx /"
bx K"
b10000 ,
b10000 *"
b10000 +"
0!
b0 4
b0 y
b0 !"
b0 5"
b0 I"
b0 J"
b0 E"
b0 F"
bx _
bx -"
b0 a
b0 @"
b0 L"
0K
b0 I
b0 )"
0L
b0 A
b0 o
b0 t
b0 9"
b0 J
b0 8"
b0 H
b0 D
b0 M
b0 0"
0N
0\
b0 Y
b0 ""
b0 [
b0 u
b0 }
b0 +
b0 $"
b0 P
b0 ~
b0 #"
b0 S
b0 ?"
b0 Q
b0 D"
b0 U
b0 C"
b0 ^
b0 ]
b0 z
b10000 *
b10000 &"
b10000 ("
b1100 -
b1100 '"
b1100 ,"
b1100 G"
1"
#2150
0"
#2200
x;
bx h
b100 ?
b100 7"
bx j
b10 1
b10 {
b10 6"
0'
b1010 )
b1010 N"
x9
bx e
b1011000011010010011 2
b1011000011010010011 H"
18
b100000 3
b100000 |
bx g
bx f
b10100 ,
b10100 *"
b10100 +"
b1100011 5"
b1100 I"
b1100 E"
x&
bx @
bx k
bx 4"
b0 %
b0 s
b0 x
b0 /"
b0 K"
b10100 *
b10100 &"
b10100 ("
b10000 -
b10000 '"
b10000 ,"
b10000 G"
b1100 ^
b10000001100000000001100011 ]
b10000001100000000001100011 z
bx M
bx 0"
1\
1L
0c
b0 _
b0 -"
1"
#2250
0"
#2300
1;
09
b1111111111111111111111111111111111111111111111111111111111110101 j
b1111111111111111111111111111111111111111111111111111111111111111 h
b1010 g
1>
1'
b0 3
b0 |
b1111111111111111111111111111111111111111111111111111111111110101 e
b1 ?
b1 7"
b0 1
b0 {
b0 6"
b1111111111111111111111111111111111111111111111111111111111111111 f
b1010 d
b1010 :
b1010 m
08
b1111 )
b1111 N"
b110001101100011001100011 2
b110001101100011001100011 H"
1&
b0 @
b0 k
b0 4"
b1010 =
b1010 l
b1010 q
b10011 5"
b1011 I"
b1011 E"
b11000 ,
b11000 *"
b11000 +"
1K
xL
1O
b100 M
b100 0"
0\
b1100 Y
b1100 ""
b1010 Z
b1010 n
b101100 +
b101100 $"
b100000 P
b100000 ~
b100000 #"
b1100 R
b1100 >"
b1100011 U
b1100011 C"
b10000 ^
b1011000011010010011 ]
b1011000011010010011 z
b11000 *
b11000 &"
b11000 ("
b10100 -
b10100 '"
b10100 ,"
b10100 G"
1"
#2350
0"
#2400
0;
b0 h
0>
0'
b100 ?
b100 7"
b10 1
b10 {
b10 6"
b1010 (
b1010 M"
b1111 :
b1111 m
b1000000110001101000011010110011 2
b1000000110001101000011010110011 H"
18
b1010 )
b1010 N"
b1100 3
b1100 |
b1111 g
b0 f
b0 j
b0 d
b1111 e
0!
b11100 ,
b11100 *"
b11100 +"
b1100011 5"
b1101 I"
b1100 J"
b1101 E"
b1100 F"
0&
b1111 =
b1111 l
b1111 q
b11100 *
b11100 &"
b11100 ("
b11000 -
b11000 '"
b11000 ,"
b11000 G"
b10100 ^
b110001101100011001100011 ]
b110001101100011001100011 z
0O
b1 M
b1 0"
1N
1\
b10000 Y
b10000 ""
b1111 Z
b1111 n
b10000 +
b10000 $"
b0 P
b0 ~
b0 #"
b1011 R
b1011 >"
b1101 Q
b1101 D"
b10011 U
b10011 C"
1B
0K
b101100 I
b101100 )"
0L
b1010 A
b1010 o
b1010 t
b1010 9"
b1100011 H
1c
1"
#2450
0"
#2500
1;
b1111111111111111111111111111111111111111111111111111111111111111 h
bx 1
bx {
bx 6"
1'
b0xx0x000xx000000xx0x 3
b0xx0x000xx000000xx0x |
b10 6
b10 r
b10 B"
b101 d
b101 :
b101 m
b101 g
b1111111111111111111111111111111111111111111111111111111111110101 f
b1111111111111111111111111111111111111111111111111111111111111010 j
b1111111111111111111111111111111111111111111111111111111111111010 e
b1010 <
b1010 i
b1010 v
08
b0 ?
b0 7"
b11111111100111111111000001101111 2
b11111111100111111111000001101111 H"
b1010 %
b1010 s
b1010 x
b1010 /"
b1010 K"
1&
b1111 =
b1111 l
b1111 q
b1010 4
b1010 y
b1010 !"
b100 3"
b110011 5"
b100000 ,
b100000 *"
b100000 +"
0c
b1010 _
b1010 -"
0B
1K
b10000 I
b10000 )"
b1111 A
b1111 o
b1111 t
b1111 9"
b1101 C
b1101 ="
b10011 H
1O
b100 M
b100 0"
0N
0\
b10100 Y
b10100 ""
b1010 Z
b1010 n
b1010 [
b1010 u
b1010 }
b100000 +
b100000 $"
b1100 P
b1100 ~
b1100 #"
b1100 S
b1100 ?"
b1101 R
b1101 >"
b100 T
b100 1"
b1100 Q
b1100 D"
b1100011 U
b1100011 C"
b11000 ^
b1000000110001101000011010110011 ]
b1000000110001101000011010110011 z
b100000 *
b100000 &"
b100000 ("
b11100 -
b11100 '"
b11100 ,"
b11100 G"
1"
