SS.vcd
$date
	Tue Aug 26 01:34:06 2025
$end
$version
	Icarus Verilog
$end
$timescale
	1s
$end
$scope module Single_Stage_tb $end
$scope module Single_Stage_Top $end
$var wire 1 ! Flush $end
$var wire 1 " clk $end
$var wire 1 # rst $end
$var wire 1 $ stall $end
$var wire 64 % WRITE_DATA [63:0] $end
$var wire 1 & SUB $end
$var wire 1 ' RegWrite $end
$var wire 64 ( READ_DATA2 [63:0] $end
$var wire 64 ) READ_DATA1 [63:0] $end
$var wire 64 * PC_NEXT_REG [63:0] $end
$var wire 64 + PC_NEXT_IMM [63:0] $end
$var wire 64 , PC_NEXT [63:0] $end
$var wire 64 - PC_CURR [63:0] $end
$var wire 1 . MemtoReg $end
$var wire 1 / MemWrite $end
$var wire 1 0 MemRead $end
$var wire 2 1 Imm_Src [1:0] $end
$var wire 32 2 INSTRUCTION_BUS [31:0] $end
$var wire 64 3 IMM_OUT [63:0] $end
$var wire 64 4 ID_EX_READ_DATA2_IMM [63:0] $end
$var wire 2 5 Forward_B [1:0] $end
$var wire 2 6 Forward_A [1:0] $end
$var wire 64 7 DMEM_READ_DATA [63:0] $end
$var wire 1 8 Branch $end
$var wire 1 9 ALU_ZERO $end
$var wire 64 : ALU_OUT [63:0] $end
$var wire 1 ; ALU_CARRY $end
$var wire 64 < ALU_B [63:0] $end
$var wire 64 = ALU_A [63:0] $end
$var wire 1 > ALUSrc $end
$var wire 3 ? ALUOp [2:0] $end
$var wire 3 @ ALUCONTROL [2:0] $end
$var reg 64 A EX_MEM_ALU_OUT [63:0] $end
$var reg 1 B EX_MEM_Branch $end
$var reg 5 C EX_MEM_INSTRUCTION_11_7 [4:0] $end
$var reg 1 D EX_MEM_MemRead $end
$var reg 1 E EX_MEM_MemWrite $end
$var reg 1 F EX_MEM_MemtoReg $end
$var reg 7 G EX_MEM_OPCODE [6:0] $end
$var reg 64 H EX_MEM_PC_NEXT_IMM [63:0] $end
$var reg 64 I EX_MEM_READ_DATA_2 [63:0] $end
$var reg 1 J EX_MEM_RegWrite $end
$var reg 1 K EX_MEM_zero $end
$var reg 3 L ID_EX_ALUOp [2:0] $end
$var reg 1 M ID_EX_ALUSrc $end
$var reg 1 N ID_EX_Branch $end
$var reg 64 O ID_EX_IMM_OUT [63:0] $end
$var reg 5 P ID_EX_INSTRUCTION_11_7 [4:0] $end
$var reg 5 Q ID_EX_INSTRUCTION_19_15 [4:0] $end
$var reg 5 R ID_EX_INSTRUCTION_24_20 [4:0] $end
$var reg 4 S ID_EX_INSTRUCTION_30_14_12 [3:0] $end
$var reg 7 T ID_EX_INSTRUCTION_OPCODE [6:0] $end
$var reg 1 U ID_EX_MemRead $end
$var reg 1 V ID_EX_MemWrite $end
$var reg 1 W ID_EX_MemtoReg $end
$var reg 64 X ID_EX_PC_CURR [63:0] $end
$var reg 64 Y ID_EX_READ_DATA1 [63:0] $end
$var reg 64 Z ID_EX_READ_DATA2 [63:0] $end
$var reg 1 [ ID_EX_RegWrite $end
$var reg 32 \ IF_ID_INSTRUCTION_BUS [31:0] $end
$var reg 64 ] IF_ID_PC_CURR [63:0] $end
$var reg 64 ^ MEM_WB_ALU_OUT [63:0] $end
$var reg 64 _ MEM_WB_DMEM_READ_DATA [63:0] $end
$var reg 5 ` MEM_WB_INSTRUCTION_11_7 [4:0] $end
$var reg 1 a MEM_WB_MemtoReg $end
$var reg 1 b MEM_WB_RegWrite $end
$scope module ALU $end
$var wire 64 c A_and_B [63:0] $end
$var wire 64 d A_xor_B [63:0] $end
$var wire 64 e B_comp [63:0] $end
$var wire 64 f sum [63:0] $end
$var wire 1 9 zero $end
$var wire 1 & sub $end
$var wire 1 ; Carry_out $end
$var wire 64 g Carry_intermediate [63:0] $end
$var wire 64 h B [63:0] $end
$var wire 64 i A_xor_B_and_cin [63:0] $end
$var wire 3 j ALU_Sel [2:0] $end
$var wire 64 k A [63:0] $end
$var reg 64 l ALU_Out [63:0] $end
$upscope $end
$scope module ALU_Mux_A $end
$var wire 64 m a [63:0] $end
$var wire 64 n c [63:0] $end
$var wire 64 o d [63:0] $end
$var wire 64 p y [63:0] $end
$var wire 2 q s [1:0] $end
$var wire 64 r b [63:0] $end
$upscope $end
$scope module ALU_Mux_B $end
$var wire 64 s c [63:0] $end
$var wire 64 t d [63:0] $end
$var wire 64 u y [63:0] $end
$var wire 2 v s [1:0] $end
$var wire 64 w b [63:0] $end
$var wire 64 x a [63:0] $end
$upscope $end
$scope module Imm_Gen $end
$var wire 32 y imm_in [31:0] $end
$var wire 2 z imm_src [1:0] $end
$var wire 64 { imm_out [63:0] $end
$upscope $end
$scope module Imm_Sel $end
$var wire 64 | a [63:0] $end
$var wire 64 } b [63:0] $end
$var wire 1 M s $end
$var wire 64 ~ c [63:0] $end
$upscope $end
$scope module PC_Adder_Imm $end
$var wire 64 !" a [63:0] $end
$var wire 64 "" b [63:0] $end
$var wire 64 #" c [63:0] $end
$upscope $end
$scope module PC_Adder_Regular $end
$var wire 64 $" b [63:0] $end
$var wire 64 %" c [63:0] $end
$var wire 64 &" a [63:0] $end
$upscope $end
$scope module PC_Update_Mux $end
$var wire 64 '" a [63:0] $end
$var wire 64 (" b [63:0] $end
$var wire 1 ! s $end
$var wire 64 )" c [63:0] $end
$upscope $end
$scope module PC_block $end
$var wire 64 *" PC_NEXT [63:0] $end
$var wire 1 " clk $end
$var wire 1 # rst $end
$var wire 1 $ stall $end
$var reg 64 +" PC [63:0] $end
$upscope $end
$scope module Write_Back_Mux $end
$var wire 64 ," a [63:0] $end
$var wire 64 -" b [63:0] $end
$var wire 1 a s $end
$var wire 64 ." c [63:0] $end
$upscope $end
$scope module control_unit_alu $end
$var wire 3 /" ALUOp [2:0] $end
$var wire 4 0" funct [3:0] $end
$var wire 1 1" funct7_5 $end
$var wire 3 2" funct3 [2:0] $end
$var reg 3 3" ALUControl [2:0] $end
$var reg 1 & sub $end
$upscope $end
$scope module control_unit_main $end
$var wire 7 4" opcode [6:0] $end
$var wire 1 ' RegWrite $end
$var wire 1 . MemtoReg $end
$var wire 1 / MemWrite $end
$var wire 1 0 MemRead $end
$var wire 2 5" Imm_Src [1:0] $end
$var wire 1 8 Branch $end
$var wire 1 > ALUSrc $end
$var wire 3 6" ALUOp [2:0] $end
$upscope $end
$scope module data_memory $end
$var wire 1 D MemRead $end
$var wire 1 E MemWrite $end
$var wire 64 7" WriteData [63:0] $end
$var wire 64 8" address [63:0] $end
$var wire 1 # rst $end
$var wire 1 K zero $end
$var wire 64 9" ReadData [63:0] $end
$var integer 32 :" fd [31:0] $end
$var integer 32 ;" i [31:0] $end
$upscope $end
$scope module forwarding_unit $end
$var wire 5 <" EX_MEM_RD [4:0] $end
$var wire 1 J EX_MEM_RegWrite $end
$var wire 5 =" ID_EX_RS1 [4:0] $end
$var wire 5 >" ID_EX_RS2 [4:0] $end
$var wire 5 ?" MEM_WB_RD [4:0] $end
$var wire 1 b MEM_WB_RegWrite $end
$var wire 2 @" Forward_B [1:0] $end
$var wire 2 A" Forward_A [1:0] $end
$upscope $end
$scope module hazard_detection_unit $end
$var wire 1 8 branch $end
$var wire 1 U mem_read_1 $end
$var wire 1 D mem_read_2 $end
$var wire 7 B" opcode [6:0] $end
$var wire 5 C" rd [4:0] $end
$var wire 5 D" rs1 [4:0] $end
$var wire 5 E" rs2 [4:0] $end
$var wire 1 $ stall $end
$upscope $end
$scope module instruction_memory $end
$var wire 64 F" PC [63:0] $end
$var wire 1 # rst $end
$var wire 32 G" instruction [31:0] $end
$upscope $end
$scope module register_file $end
$var wire 5 H" ReadReg1 [4:0] $end
$var wire 5 I" ReadReg2 [4:0] $end
$var wire 1 b RegWrite $end
$var wire 64 J" WriteData [63:0] $end
$var wire 5 K" WriteReg [4:0] $end
$var wire 1 # rst $end
$var wire 64 L" ReadData2 [63:0] $end
$var wire 64 M" ReadData1 [63:0] $end
$var integer 32 N" fd [31:0] $end
$var integer 32 O" i [31:0] $end
$upscope $end
$upscope $end
$upscope $end
$enddefinitions $end
$comment Show the parameter values. $end
$dumpall
$end
#0
$dumpvars
bx O"
bx N"
b0 M"
b0 L"
b0 K"
b0 J"
b0 I"
b0 H"
b0 G"
b0 F"
b0 E"
b0 D"
b0 C"
b0 B"
b0 A"
b0 @"
b0 ?"
b0 >"
b0 ="
b0 <"
bx ;"
bx :"
b0 9"
b0 8"
b0 7"
bx 6"
bx 5"
b0 4"
b0 3"
b0 2"
01"
b0 0"
b0 /"
b0 ."
b0 -"
b0 ,"
b0 +"
b100 *"
b100 )"
b0 ("
b100 '"
b0 &"
b100 %"
b100 $"
b0 #"
b0 ""
b0 !"
b0 ~
b0 }
b0 |
b0 {
bx z
b0 y
b0 x
b0 w
b0 v
b0 u
b0 t
b0 s
b0 r
b0 q
b0 p
b0 o
b0 n
b0 m
b0 l
b0 k
b0 j
b0 i
b0 h
b0 g
b0 f
b0 e
b0 d
b0 c
0b
0a
b0 `
b0 _
b0 ^
b0 ]
b0 \
0[
b0 Z
b0 Y
b0 X
0W
0V
0U
b0 T
b0 S
b0 R
b0 Q
b0 P
b0 O
0N
0M
b0 L
0K
0J
b0 I
b0 H
b0 G
0F
0E
0D
b0 C
0B
b0 A
b0 @
bx ?
0>
b0 =
b0 <
0;
b0 :
19
08
b0 7
b0 6
b0 5
b0 4
b0 3
b0 2
bx 1
00
0/
0.
b0 -
b100 ,
b0 +
b100 *
b0 )
b0 (
1'
0&
b0 %
0$
1#
1"
0!
$end
#50
0"
#100
1"
#150
0"
#200
1"
#250
0"
#300
1"
#350
0"
#400
1"
#450
0"
#500
x;
bx g
bx i
x9
bx d
bx f
bx e
b11010110000011 2
b11010110000011 G"
x&
bx @
bx j
bx 3"
b1000 ,
b1000 )"
b1000 *"
1K
bx L
bx /"
1[
b1000 *
b1000 %"
b1000 '"
b100 -
b100 &"
b100 +"
b100 F"
1"
0#
#550
0"
#600
b10 ?
b10 6"
1>
b0 1
b0 z
b0 5"
b0 3
b0 {
b11000010011 2
b11000010011 G"
10
1.
b1100 ,
b1100 )"
b1100 *"
b11 4"
b1100 *
b1100 %"
b1100 '"
b1000 -
b1000 &"
b1000 +"
b1000 F"
b100 ]
b11010110000011 \
b11010110000011 y
1J
xK
1"
#650
0"
#700
19
0;
b0 f
b0 g
b0 d
b1 ?
b1 6"
b0 e
b0 i
b0 :
b0 l
00
0.
b100000000010100010011 2
b100000000010100010011 G"
0&
b0 @
b0 j
b0 3"
b11 2"
b10011 4"
b10000 ,
b10000 )"
b10000 *"
1b
1U
1W
b10 L
b10 /"
1M
b100 +
b100 #"
b100 X
b100 !"
b11 S
b11 0"
b1011 P
b1011 C"
b11 T
b11 B"
b1000 ]
b11000010011 \
b11000010011 y
b10000 *
b10000 %"
b10000 '"
b1100 -
b1100 &"
b1100 +"
b1100 F"
1"
#750
0"
#800
bx (
bx L"
b100000000011010010011 2
b100000000011010010011 G"
b1 3
b1 {
b1010 7
b1010 9"
b10100 ,
b10100 )"
b10100 *"
b1 I"
b1 E"
b0 2"
b10100 *
b10100 %"
b10100 '"
b10000 -
b10000 &"
b10000 +"
b10000 F"
b1100 ]
b100000000010100010011 \
b100000000010100010011 y
0U
0W
b1 L
b1 /"
b1000 +
b1000 #"
b1000 X
b1000 !"
b0 S
b0 0"
b1100 P
b1100 C"
b10011 T
b10011 B"
1D
1F
b100 H
b100 ("
1K
b1011 C
b1011 <"
b11 G
1"
#850
0"
#900
b1 :
b1 l
09
b1 f
b1 d
b1 e
b1010 %
b1010 r
b1010 w
b1010 ."
b1010 J"
b0 7
b0 9"
b1 <
b1 h
b1 u
b101101101000100001100011 2
b101101101000100001100011 G"
b100000 O"
b10000000000000000000000000000011 N"
b1 4
b1 x
b1 ~
b11000 ,
b11000 )"
b11000 *"
1a
b1010 _
b1010 -"
b1011 `
b1011 ?"
b1011 K"
0D
0F
b1000 H
b1000 ("
b1100 C
b1100 <"
b10011 G
b1100 X
b1100 !"
bx Z
bx |
b1101 +
b1101 #"
b1 O
b1 t
b1 }
b1 ""
b1 R
b1 >"
b1010 P
b1010 C"
b10000 ]
b100000000011010010011 \
b100000000011010010011 y
b11000 *
b11000 %"
b11000 '"
b10100 -
b10100 &"
b10100 +"
b10100 F"
1"
#950
0"
#1000
0>
0'
b100 ?
b100 6"
b10 1
b10 z
b10 5"
bx )
bx M"
b110101100000011000110011 2
b110101100000011000110011 G"
18
b1010 (
b1010 L"
b10000 3
b10000 {
b11100 ,
b11100 )"
b11100 *"
b1100011 4"
b1101 H"
b1011 I"
b1101 D"
b1011 E"
b0 %
b0 r
b0 w
b0 ."
b0 J"
b100000 O"
b11100 *
b11100 %"
b11100 '"
b11000 -
b11000 &"
b11000 +"
b11000 F"
b10100 ]
b101101101000100001100011 \
b101101101000100001100011 y
b10001 +
b10001 #"
b10000 X
b10000 !"
b1101 P
b1101 C"
b1101 H
b1101 ("
0K
b1 A
b1 n
b1 s
b1 8"
bx I
bx 7"
b1010 C
b1010 <"
0a
b0 _
b0 -"
b1100 `
b1100 ?"
b1100 K"
1"
#1050
0"
#1100
0;
b1 g
bx 1
bx z
bx 5"
1'
b0xx00000x0000000xx0x 3
b0xx00000x0000000xx0x {
09
b1111111111111111111111111111111111111111111111111111111111110111 :
b1111111111111111111111111111111111111111111111111111111111110111 l
b10 6
b10 q
b10 A"
b1111111111111111111111111111111111111111111111111111111111110111 f
b1111111111111111111111111111111111111111111111111111111111110101 e
b0 i
b1 c
b1111111111111111111111111111111111111111111111111111111111110100 d
b1010 <
b1010 h
b1010 u
08
b0 ?
b0 6"
b0 )
b0 M"
bx (
bx L"
b101101000011010010011 2
b101101000011010010011 G"
b1 %
b1 r
b1 w
b1 ."
b1 J"
b100000 O"
1&
b1 =
b1 k
b1 p
b1010 4
b1010 x
b1010 ~
b110011 4"
b1100 H"
b1101 I"
b1100 D"
b1101 E"
b100000 ,
b100000 )"
b100000 *"
b1 ^
b1 ,"
b1010 `
b1010 ?"
b1010 K"
b10001 H
b10001 ("
b1101 C
b1101 <"
1N
b100 L
b100 /"
0M
0[
b10100 X
b10100 !"
bx Y
bx m
b1010 Z
b1010 |
b100100 +
b100100 #"
b10000 O
b10000 t
b10000 }
b10000 ""
b1011 R
b1011 >"
b1101 Q
b1101 ="
b10000 P
b10000 C"
b1100011 T
b1100011 B"
b11000 ]
b110101100000011000110011 \
b110101100000011000110011 y
b100000 *
b100000 %"
b100000 '"
b11100 -
b11100 &"
b11100 +"
b11100 F"
1"
#1150
0"
#1200
09
b0 i
b0 g
1>
b1 5
b1 v
b1 @"
b0 1
b0 z
b0 5"
b1 d
b0 c
b1 :
b1 l
b0 =
b0 k
b0 p
b11111111010111111111000001101111 2
b11111111010111111111000001101111 G"
b1 ?
b1 6"
b1 )
b1 M"
b1 3
b1 {
b1 f
b1 e
b1 <
b1 h
b1 u
b0 6
b0 q
b0 A"
b100100 ,
b100100 )"
b100100 *"
b10011 4"
b1101 H"
b1 I"
b1101 D"
b1 E"
0&
bx 4
bx x
bx ~
b100000 O"
b100100 *
b100100 %"
b100100 '"
b100000 -
b100000 &"
b100000 +"
b100000 F"
b11100 ]
b101101000011010010011 \
b101101000011010010011 y
0N
b0 L
b0 /"
1[
b11000 X
b11000 !"
b0 Y
b0 m
bx Z
bx |
bx +
bx #"
b0xx00000x0000000xx0x O
b0xx00000x0000000xx0x t
b0xx00000x0000000xx0x }
b0xx00000x0000000xx0x ""
b1101 R
b1101 >"
b1100 Q
b1100 ="
b1100 P
b1100 C"
b110011 T
b110011 B"
1B
0J
b100100 H
b100100 ("
b1111111111111111111111111111111111111111111111111111111111110111 A
b1111111111111111111111111111111111111111111111111111111111110111 n
b1111111111111111111111111111111111111111111111111111111111110111 s
b1111111111111111111111111111111111111111111111111111111111110111 8"
b1010 I
b1010 7"
b10000 C
b10000 <"
b1100011 G
b1101 `
b1101 ?"
b1101 K"
1"
#1250
0"
#1300
b0 i
b1 e
b1 g
b10 :
b10 l
09
b0 5
b0 v
b0 @"
0>
b1 <
b1 h
b1 u
b10 f
b101 ?
b101 6"
b11 1
b11 z
b11 5"
b1 4
b1 x
b1 ~
b1 c
b0 d
bx )
bx M"
b1111111111111111111111111111111111111111111111111111111111110100 3
b1111111111111111111111111111111111111111111111111111111111110100 {
b0 2
b0 G"
b1111111111111111111111111111111111111111111111111111111111110111 %
b1111111111111111111111111111111111111111111111111111111111110111 r
b1111111111111111111111111111111111111111111111111111111111110111 w
b1111111111111111111111111111111111111111111111111111111111110111 ."
b1111111111111111111111111111111111111111111111111111111111110111 J"
b1 =
b1 k
b1 p
b1101111 4"
b11111 H"
b10101 I"
b11111 D"
b10101 E"
b101000 ,
b101000 )"
b101000 *"
0b
b1111111111111111111111111111111111111111111111111111111111110111 ^
b1111111111111111111111111111111111111111111111111111111111110111 ,"
b10000 `
b10000 ?"
b10000 K"
0B
1J
bx H
bx ("
b1 A
b1 n
b1 s
b1 8"
bx I
bx 7"
b1100 C
b1100 <"
b110011 G
b1 L
b1 /"
1M
b11100 X
b11100 !"
b1 Y
b1 m
b11101 +
b11101 #"
b1 O
b1 t
b1 }
b1 ""
b1 R
b1 >"
b1101 Q
b1101 ="
b1101 P
b1101 C"
b10011 T
b10011 B"
b100000 ]
b11111111010111111111000001101111 \
b11111111010111111111000001101111 y
b101000 *
b101000 %"
b101000 '"
b100100 -
b100100 &"
b100100 +"
b100100 F"
1"
#1350
0"
#1400
bx ?
bx 6"
x;
bx 1
bx z
bx 5"
b0 3
b0 {
bx g
bx :
bx l
x9
bx0 i
b0 )
b0 M"
b0 (
b0 L"
bx f
bx e
b110001010011000000100011 2
b110001010011000000100011 G"
bx c
bx d
bx <
bx h
bx u
b101100 ,
b101100 )"
b101100 *"
b0 4"
b0 H"
b0 I"
b0 D"
b0 E"
bx =
bx k
bx p
bx 4
bx x
bx ~
b111 2"
11"
b1 %
b1 r
b1 w
b1 ."
b1 J"
b100000 O"
b101100 *
b101100 %"
b101100 '"
b101000 -
b101000 &"
b101000 +"
b101000 F"
b100100 ]
b0 \
b0 y
b101 L
b101 /"
0M
b100000 X
b100000 !"
bx Y
bx m
b10100 +
b10100 #"
b1111111111111111111111111111111111111111111111111111111111110100 O
b1111111111111111111111111111111111111111111111111111111111110100 t
b1111111111111111111111111111111111111111111111111111111111110100 }
b1111111111111111111111111111111111111111111111111111111111110100 ""
b10101 R
b10101 >"
b11111 Q
b11111 ="
b1111 S
b1111 0"
b0 P
b0 C"
b1101111 T
b1101111 B"
b11101 H
b11101 ("
b10 A
b10 n
b10 s
b10 8"
b1101 C
b1101 <"
b10011 G
1b
b1 ^
b1 ,"
b1100 `
b1100 ?"
b1100 K"
1"
#1450
0"
#1500
b11 ?
b11 6"
0'
b1 1
b1 z
b1 5"
1>
b1 )
b1 M"
b1 (
b1 L"
b0 6
b0 q
b0 A"
bx i
b0 c
b0 :
b0 l
b0 <
b0 h
b0 u
1/
b0 3
b0 {
b0 2
b0 G"
b10 %
b10 r
b10 w
b10 ."
b10 J"
b100000 O"
1!
x&
bx @
bx j
bx 3"
b0 =
b0 k
b0 p
b0 4
b0 x
b0 ~
b0 2"
01"
b100011 4"
b1010 H"
b1100 I"
b1010 D"
b1100 E"
b10100 ,
b10100 )"
b10100 *"
b10 ^
b10 ,"
b1101 `
b1101 ?"
b1101 K"
b10100 H
b10100 ("
xK
bx A
bx n
bx s
bx 8"
b0 C
b0 <"
b1101111 G
bx L
bx /"
b100100 X
b100100 !"
b0 Y
b0 m
b0 Z
b0 |
b100100 +
b100100 #"
b0 O
b0 t
b0 }
b0 ""
b0 R
b0 >"
b0 Q
b0 ="
b0 S
b0 0"
b0 T
b0 B"
b101000 ]
b110001010011000000100011 \
b110001010011000000100011 y
b110000 *
b110000 %"
b110000 '"
b101100 -
b101100 &"
b101100 +"
b101100 F"
1"
#1550
0"
#1600
19
0;
bx ?
bx 6"
1'
b0 f
b0 g
bx 1
bx z
bx 5"
0>
b0 d
b0 6
b0 q
b0 A"
b101101101000100001100011 2
b101101101000100001100011 G"
0/
b0 )
b0 M"
b0 (
b0 L"
b0 e
b0 i
b0 :
b0 l
b0 4"
b0 H"
b0 I"
b0 D"
b0 E"
0&
b0 @
b0 j
b0 3"
b11000 ,
b11000 )"
b11000 *"
0!
bx %
bx r
bx w
bx ."
bx J"
b11000 *
b11000 %"
b11000 '"
b10100 -
b10100 &"
b10100 +"
b10100 F"
b0 ]
b0 \
b0 y
b0 L
b0 /"
0[
b0 +
b0 #"
b0 X
b0 !"
b100100 H
b100100 ("
b0 A
b0 n
b0 s
b0 8"
b0 I
b0 7"
b0 G
bx ^
bx ,"
b0 `
b0 ?"
b0 K"
1"
#1650
0"
#1700
x;
bx g
b100 ?
b100 6"
bx i
b10 1
b10 z
b10 5"
0'
x9
bx d
b10 )
b10 M"
b1010 (
b1010 L"
bx f
bx e
18
b10000 3
b10000 {
b110101100000011000110011 2
b110101100000011000110011 G"
b0 %
b0 r
b0 w
b0 ."
b0 J"
x&
bx @
bx j
bx 3"
b1100011 4"
b1101 H"
b1011 I"
b1101 D"
b1011 E"
b11100 ,
b11100 )"
b11100 *"
b0 ^
b0 ,"
0J
b0 H
b0 ("
1K
bx L
bx /"
1[
b10100 ]
b101101101000100001100011 \
b101101101000100001100011 y
b11100 *
b11100 %"
b11100 '"
b11000 -
b11000 &"
b11000 +"
b11000 F"
1"
#1750
0"
#1800
0;
09
b111 g
b111 i
bx 1
bx z
bx 5"
1'
b0xx00000x0000000xx0x 3
b0xx00000x0000000xx0x {
b1111111111111111111111111111111111111111111111111111111111111000 f
b1111111111111111111111111111111111111111111111111111111111110111 d
b101101000011010010011 2
b101101000011010010011 G"
08
b0 ?
b0 6"
b1 )
b1 M"
b10 (
b10 L"
b1111111111111111111111111111111111111111111111111111111111110101 e
b0 c
b1111111111111111111111111111111111111111111111111111111111111000 :
b1111111111111111111111111111111111111111111111111111111111111000 l
b1010 <
b1010 h
b1010 u
b100000 ,
b100000 )"
b100000 *"
b110011 4"
b1100 H"
b1101 I"
b1100 D"
b1101 E"
1&
b0 @
b0 j
b0 3"
b10 =
b10 k
b10 p
b1010 4
b1010 x
b1010 ~
b100000 *
b100000 %"
b100000 '"
b11100 -
b11100 &"
b11100 +"
b11100 F"
b11000 ]
b110101100000011000110011 \
b110101100000011000110011 y
1N
b100 L
b100 /"
0[
b10100 X
b10100 !"
b10 Y
b10 m
b1010 Z
b1010 |
b100100 +
b100100 #"
b10000 O
b10000 t
b10000 }
b10000 ""
b1011 R
b1011 >"
b1101 Q
b1101 ="
b10000 P
b10000 C"
b1100011 T
b1100011 B"
1J
xK
0b
1"
#1850
0"
#1900
b0 g
1>
b11 :
b11 l
b0 1
b0 z
b0 5"
b11 f
b10 e
b0 i
b0 c
b11 d
b10 <
b10 h
b10 u
b1 ?
b1 6"
b10 )
b10 M"
bx (
bx L"
b1 3
b1 {
b11111111010111111111000001101111 2
b11111111010111111111000001101111 G"
0&
b1 =
b1 k
b1 p
b10 4
b10 x
b10 ~
b10011 4"
b1101 H"
b1 I"
b1101 D"
b1 E"
b100100 ,
b100100 )"
b100100 *"
1b
1B
0J
b100100 H
b100100 ("
0K
b1111111111111111111111111111111111111111111111111111111111111000 A
b1111111111111111111111111111111111111111111111111111111111111000 n
b1111111111111111111111111111111111111111111111111111111111111000 s
b1111111111111111111111111111111111111111111111111111111111111000 8"
b1010 I
b1010 7"
b10000 C
b10000 <"
b1100011 G
0N
b0 L
b0 /"
1[
b11000 X
b11000 !"
b1 Y
b1 m
b10 Z
b10 |
bx +
bx #"
b0xx00000x0000000xx0x O
b0xx00000x0000000xx0x t
b0xx00000x0000000xx0x }
b0xx00000x0000000xx0x ""
b1101 R
b1101 >"
b1100 Q
b1100 ="
b1100 P
b1100 C"
b110011 T
b110011 B"
b11100 ]
b101101000011010010011 \
b101101000011010010011 y
b100100 *
b100100 %"
b100100 '"
b100000 -
b100000 &"
b100000 +"
b100000 F"
1"
#1950
0"
#2000
b0 i
0>
b0 g
b11 :
b11 l
09
b101 ?
b101 6"
b11 1
b11 z
b11 5"
b11 f
b1 e
b0 2
b0 G"
bx )
bx M"
b1111111111111111111111111111111111111111111111111111111111110100 3
b1111111111111111111111111111111111111111111111111111111111110100 {
b0 c
b11 d
b1 <
b1 h
b1 u
b101000 ,
b101000 )"
b101000 *"
b1101111 4"
b11111 H"
b10101 I"
b11111 D"
b10101 E"
b10 =
b10 k
b10 p
b1 4
b1 x
b1 ~
b1111111111111111111111111111111111111111111111111111111111111000 %
b1111111111111111111111111111111111111111111111111111111111111000 r
b1111111111111111111111111111111111111111111111111111111111111000 w
b1111111111111111111111111111111111111111111111111111111111111000 ."
b1111111111111111111111111111111111111111111111111111111111111000 J"
b101000 *
b101000 %"
b101000 '"
b100100 -
b100100 &"
b100100 +"
b100100 F"
b100000 ]
b11111111010111111111000001101111 \
b11111111010111111111000001101111 y
b1 L
b1 /"
1M
b11100 X
b11100 !"
b10 Y
b10 m
bx Z
bx |
b11101 +
b11101 #"
b1 O
b1 t
b1 }
b1 ""
b1 R
b1 >"
b1101 Q
b1101 ="
b1101 P
b1101 C"
b10011 T
b10011 B"
0B
1J
bx H
bx ("
b11 A
b11 n
b11 s
b11 8"
b10 I
b10 7"
b1100 C
b1100 <"
b110011 G
0b
b1111111111111111111111111111111111111111111111111111111111111000 ^
b1111111111111111111111111111111111111111111111111111111111111000 ,"
b10000 `
b10000 ?"
b10000 K"
1"
#2050
0"
#2100
x;
bx ?
bx 6"
bx0 i
bx 1
bx z
bx 5"
b0 3
b0 {
bx g
bx :
bx l
x9
bx f
bx e
b0 )
b0 M"
b0 (
b0 L"
bx c
bx d
bx <
bx h
bx u
b110001010011000000100011 2
b110001010011000000100011 G"
b11 %
b11 r
b11 w
b11 ."
b11 J"
b100000 O"
bx =
bx k
bx p
bx 4
bx x
bx ~
b111 2"
11"
b0 4"
b0 H"
b0 I"
b0 D"
b0 E"
b101100 ,
b101100 )"
b101100 *"
1b
b11 ^
b11 ,"
b1100 `
b1100 ?"
b1100 K"
b11101 H
b11101 ("
bx I
bx 7"
b1101 C
b1101 <"
b10011 G
b101 L
b101 /"
0M
b100000 X
b100000 !"
bx Y
bx m
b10100 +
b10100 #"
b1111111111111111111111111111111111111111111111111111111111110100 O
b1111111111111111111111111111111111111111111111111111111111110100 t
b1111111111111111111111111111111111111111111111111111111111110100 }
b1111111111111111111111111111111111111111111111111111111111110100 ""
b10101 R
b10101 >"
b11111 Q
b11111 ="
b1111 S
b1111 0"
b0 P
b0 C"
b1101111 T
b1101111 B"
b100100 ]
b0 \
b0 y
b101100 *
b101100 %"
b101100 '"
b101000 -
b101000 &"
b101000 +"
b101000 F"
1"
#2150
0"
#2200
b11 ?
b11 6"
0'
b1 1
b1 z
b1 5"
1>
b1 )
b1 M"
b11 (
b11 L"
b0 2
b0 G"
1/
b0 3
b0 {
bx i
b0 c
b0 :
b0 l
b0 <
b0 h
b0 u
b10100 ,
b10100 )"
b10100 *"
b100011 4"
b1010 H"
b1100 I"
b1010 D"
b1100 E"
x&
bx @
bx j
bx 3"
b0 =
b0 k
b0 p
b0 4
b0 x
b0 ~
b0 2"
01"
1!
b100000 O"
b110000 *
b110000 %"
b110000 '"
b101100 -
b101100 &"
b101100 +"
b101100 F"
b101000 ]
b110001010011000000100011 \
b110001010011000000100011 y
bx L
bx /"
b100100 X
b100100 !"
b0 Y
b0 m
b0 Z
b0 |
b100100 +
b100100 #"
b0 O
b0 t
b0 }
b0 ""
b0 R
b0 >"
b0 Q
b0 ="
b0 S
b0 0"
b0 T
b0 B"
b10100 H
b10100 ("
xK
bx A
bx n
bx s
bx 8"
b0 C
b0 <"
b1101111 G
b1101 `
b1101 ?"
b1101 K"
1"
#2250
0"
#2300
19
0;
bx ?
bx 6"
b0 f
b0 g
1'
b0 6
b0 q
b0 A"
b0 d
bx 1
bx z
bx 5"
0>
b0 e
b0 i
b0 :
b0 l
0/
b0 )
b0 M"
b0 (
b0 L"
b101101101000100001100011 2
b101101101000100001100011 G"
bx %
bx r
bx w
bx ."
bx J"
b11000 ,
b11000 )"
b11000 *"
0!
0&
b0 @
b0 j
b0 3"
b0 4"
b0 H"
b0 I"
b0 D"
b0 E"
bx ^
bx ,"
b0 `
b0 ?"
b0 K"
b100100 H
b100100 ("
b0 A
b0 n
b0 s
b0 8"
b0 I
b0 7"
b0 G
b0 L
b0 /"
0[
b0 +
b0 #"
b0 X
b0 !"
b0 ]
b0 \
b0 y
b11000 *
b11000 %"
b11000 '"
b10100 -
b10100 &"
b10100 +"
b10100 F"
1"
#2350
0"
#2400
x;
bx g
b100 ?
b100 6"
bx i
b10 1
b10 z
b10 5"
0'
b11 )
b11 M"
b1010 (
b1010 L"
x9
bx d
b110101100000011000110011 2
b110101100000011000110011 G"
18
b10000 3
b10000 {
bx f
bx e
b11100 ,
b11100 )"
b11100 *"
b1100011 4"
b1101 H"
b1011 I"
b1101 D"
b1011 E"
x&
bx @
bx j
bx 3"
b0 %
b0 r
b0 w
b0 ."
b0 J"
b11100 *
b11100 %"
b11100 '"
b11000 -
b11000 &"
b11000 +"
b11000 F"
b10100 ]
b101101101000100001100011 \
b101101101000100001100011 y
bx L
bx /"
1[
0J
b0 H
b0 ("
1K
b0 ^
b0 ,"
1"
#2450
0"
